[00:00:00]: PersistRootStorage is now /Users/fanrui/Documents/Klei//DoNotStarveTogether/Cluster_5/Master/ 
[00:00:00]: Starting Up
[00:00:00]: Version: 393281
[00:00:00]: Current time: Fri Feb  7 11:14:39 2020

[00:00:00]: Don't Starve Together: 393281 OSX
[00:00:00]: Build Date: 4673
[00:00:00]: Mode: 64-bit
[00:00:00]: Parsing command line
[00:00:00]: Command Line Arguments: -console -cluster Cluster_5 -monitor_parent_process 53959 -shard Master 
[00:00:00]: [WARNING] -console has been deprecated: Use the [MISC] / console_enabled setting instead.
[00:00:00]: Initializing distribution platform
[00:00:00]: ....Done
[00:00:00]: THREAD - started 'GAClient' (123145336971264)
[00:00:00]: CurlRequestManager::ClientThread::Main()
[00:00:00]: Mounting file system databundles/klump.zip successful.
[00:00:00]: Mounting file system databundles/shaders.zip successful.
[00:00:00]: Mounting file system databundles/fonts.zip successful.
[00:00:00]: Mounting file system databundles/anim_dynamic.zip successful.
[00:00:00]: Mounting file system databundles/bigportraits.zip successful.
[00:00:00]: Mounting file system databundles/images.zip successful.
[00:00:00]: Mounting file system databundles/scripts.zip successful.
[00:00:00]: ProfileIndex:4.57
[00:00:00]: [Connect] PendingConnection::Reset(true)
[00:00:00]: THREAD - started 'Ping Job Thread' (123145339080704)
[00:00:00]: Platform: 1
[00:00:00]: Network tick rate: U=15(2), D=0
[00:00:00]: Network tick rate: U=15(2), D=0
[00:00:00]: OnLoadPermissionList: /Users/fanrui/Documents/Klei//DoNotStarveTogether/Cluster_5/blocklist.txt (Failure)
[00:00:00]: THREAD - started 'StreamInput' (123145341190144)
[00:00:00]: OnLoadPermissionList: /Users/fanrui/Documents/Klei//DoNotStarveTogether/Cluster_5/adminlist.txt (Failure)
[00:00:00]: OnLoadUserIdList: /Users/fanrui/Documents/Klei//DoNotStarveTogether/Cluster_5/whitelist.txt (Failure)
[00:00:00]: Token retrieved from: /Users/fanrui/Documents/Klei//DoNotStarveTogether/Cluster_5/cluster_token.txt
[00:00:00]: Token retrieved from: /Users/fanrui/Documents/Klei//DoNotStarveTogether/Cluster_5/cluster_token.txt
[00:00:00]: HardwareStats:
  OS                        
    name                      Darwin
    version                   18.6.0
    platformSpecific          
    architecture              64-bit
  CPU                       
    clockSpeed                2712
    name                      Intel(R) Core(TM) i5-7200U CPU @ 2.50GHz
    manufacturer              GenuineIntel
    numCores                  2
    features                  
  RAM                       
    megsOfRam                 8192
  GPU                       
    megsOfRam                 0
    videoModeDescription      
    name                      
    driverVersion             
    driverDate                
    refreshRate               3875513248

[00:00:00]: cGame::InitializeOnMainThread
[00:00:00]: Renderer initialize: Okay
[00:00:00]: AnimManager initialize: Okay
[00:00:00]: Buffers initialize: Okay
[00:00:00]: cDontStarveGame::DoGameSpecificInitialize()
[00:00:00]: GameSpecific initialize: Okay
[00:00:00]: cGame::StartPlaying
[00:00:00]: LOADING LUA
[00:00:00]: DoLuaFile scripts/main.lua
[00:00:00]: DoLuaFile loading buffer scripts/main.lua
[00:00:00]: Translator:LoadPOFile - loading file: scripts/languages/chinese_s.po	
[00:00:02]:   taskgrouplist:	default	联机版	
[00:00:02]:   taskgrouplist:	classic	经典	
[00:00:02]:   taskgrouplist:	cave_default	地下	
[00:00:02]:   taskgrouplist:	lavaarena_taskset	熔炉	
[00:00:02]:   taskgrouplist:	quagmire_taskset	暴食	
[00:00:02]: running main.lua
	
[00:00:02]: loaded modindex	
[00:00:02]: ModIndex: Beginning normal load sequence for dedicated server.
	
[00:00:02]: DownloadMods(8)
[00:00:02]: Download server mod 378160973
[00:00:03]: Download server mod 347079953
[00:00:03]: Download server mod 375859599
[00:00:04]: Download server mod 462434129
[00:00:05]: Download server mod 1595631294
[00:00:05]: Download server mod 351325790
[00:00:06]: Download server mod 727774324
[00:00:06]: Download server mod 1608191708
[00:00:07]: modoverrides.lua enabling workshop-1608191708	
[00:00:07]: modoverrides.lua enabling workshop-1595631294	
[00:00:07]: modoverrides.lua enabling workshop-727774324	
[00:00:07]: modoverrides.lua enabling workshop-351325790	
[00:00:07]: modoverrides.lua enabling workshop-378160973	
[00:00:07]: modoverrides.lua enabling workshop-347079953	
[00:00:07]: modoverrides.lua enabling workshop-462434129	
[00:00:07]: modoverrides.lua enabling workshop-375859599	
[00:00:07]: ModIndex:GetModsToLoad inserting moddir, 	workshop-1595631294	
[00:00:07]: ModIndex:GetModsToLoad inserting moddir, 	workshop-351325790	
[00:00:07]: ModIndex:GetModsToLoad inserting moddir, 	workshop-375859599	
[00:00:07]: ModIndex:GetModsToLoad inserting moddir, 	workshop-462434129	
[00:00:07]: ModIndex:GetModsToLoad inserting moddir, 	workshop-378160973	
[00:00:07]: ModIndex:GetModsToLoad inserting moddir, 	workshop-1608191708	
[00:00:07]: ModIndex:GetModsToLoad inserting moddir, 	workshop-347079953	
[00:00:07]: ModIndex:GetModsToLoad inserting moddir, 	workshop-727774324	
[00:00:07]: Could not load mod_config_data/modconfiguration_workshop-1595631294_CLIENT	
[00:00:07]: applying configuration_options from modoverrides.lua to mod workshop-1595631294	
[00:00:07]: Overriding mod workshop-1595631294's option SaltBox with value false	
[00:00:07]: Overriding mod workshop-1595631294's option BundleItems with value false	
[00:00:07]: Overriding mod workshop-1595631294's option Digornot with value false	
[00:00:07]: Overriding mod workshop-1595631294's option Icebox with value false	
[00:00:07]: Overriding mod workshop-1595631294's option DragonflyChest with value false	
[00:00:07]: applying configuration_options from modoverrides.lua to mod workshop-378160973	
[00:00:07]: Overriding mod workshop-378160973's option FIREOPTIONS with value 2	
[00:00:07]: Overriding mod workshop-378160973's option SHOWFIREICONS with value true	
[00:00:07]: Overriding mod workshop-378160973's option SHAREMINIMAPPROGRESS with value true	
[00:00:07]: Overriding mod workshop-378160973's option SHOWPLAYERICONS with value true	
[00:00:07]: Overriding mod workshop-378160973's option OVERRIDEMODE with value false	
[00:00:07]: Overriding mod workshop-378160973's option SHOWPLAYERSOPTIONS with value 2	
[00:00:07]: Overriding mod workshop-378160973's option ENABLEPINGS with value true	
[00:00:07]: applying configuration_options from modoverrides.lua to mod workshop-347079953	
[00:00:07]: Overriding mod workshop-347079953's option DFV_Language with value EN	
[00:00:07]: Overriding mod workshop-347079953's option DFV_MinimalMode with value default	
[00:00:07]: applying configuration_options from modoverrides.lua to mod workshop-462434129	
[00:00:07]: Overriding mod workshop-462434129's option MOD_RESTART_WELCOME_TIPS with value true	
[00:00:07]: Overriding mod workshop-462434129's option MOD_RESTART_ALLOW_RESTART with value true	
[00:00:07]: Overriding mod workshop-462434129's option MOD_RESTART_WELCOME_TIPS_TIME with value 6	
[00:00:07]: Overriding mod workshop-462434129's option MOD_RESTART_ALLOW_RESURRECT with value true	
[00:00:07]: Overriding mod workshop-462434129's option MOD_RESTART_IGNORING_ADMIN with value true	
[00:00:07]: Overriding mod workshop-462434129's option MOD_RESTART_TRIGGER_MODE with value 1	
[00:00:07]: Overriding mod workshop-462434129's option MOD_RESTART_RESURRECT_HEALTH with value 0	
[00:00:07]: Overriding mod workshop-462434129's option MOD_RESTART_MAP_SAVE with value 2	
[00:00:07]: Overriding mod workshop-462434129's option MOD_RESTART_CD_KILL with value 3	
[00:00:07]: Overriding mod workshop-462434129's option MOD_RESTART_CD_BONUS with value 0	
[00:00:07]: Overriding mod workshop-462434129's option MOD_RESTART_CD_MAX with value 0	
[00:00:07]: Overriding mod workshop-462434129's option MOD_RESTART_ALLOW_KILL with value true	
[00:00:07]: Overriding mod workshop-462434129's option MOD_RESTART_CD_RESURRECT with value 0	
[00:00:07]: Overriding mod workshop-462434129's option MOD_RESTART_FORCE_DROP_MODE with value 0	
[00:00:07]: Overriding mod workshop-462434129's option MOD_RESTART_CD_RESTART with value 5	
[00:00:07]: applying configuration_options from modoverrides.lua to mod workshop-375859599	
[00:00:07]: Overriding mod workshop-375859599's option random_range with value 0	
[00:00:07]: Overriding mod workshop-375859599's option divider with value 5	
[00:00:07]: Overriding mod workshop-375859599's option use_blacklist with value true	
[00:00:07]: Overriding mod workshop-375859599's option unknwon_prefabs with value 1	
[00:00:07]: Overriding mod workshop-375859599's option show_type with value 0	
[00:00:07]: Overriding mod workshop-375859599's option send_unknwon_prefabs with value false	
[00:00:07]: Overriding mod workshop-375859599's option random_health_value with value 0	
[00:00:07]: Loading mod: workshop-1595631294 (Smart Minisign) Version:1.1.3	
[00:00:07]: Could not load mod_config_data/modconfiguration_workshop-351325790	
[00:00:07]: applying configuration_options from modoverrides.lua to mod workshop-1595631294	
[00:00:07]: Overriding mod workshop-1595631294's option SaltBox with value false	
[00:00:07]: Overriding mod workshop-1595631294's option BundleItems with value false	
[00:00:07]: Overriding mod workshop-1595631294's option Digornot with value false	
[00:00:07]: Overriding mod workshop-1595631294's option Icebox with value false	
[00:00:07]: Overriding mod workshop-1595631294's option DragonflyChest with value false	
[00:00:07]: applying configuration_options from modoverrides.lua to mod workshop-378160973	
[00:00:07]: Overriding mod workshop-378160973's option FIREOPTIONS with value 2	
[00:00:07]: Overriding mod workshop-378160973's option SHOWFIREICONS with value true	
[00:00:07]: Overriding mod workshop-378160973's option SHAREMINIMAPPROGRESS with value true	
[00:00:07]: Overriding mod workshop-378160973's option SHOWPLAYERICONS with value true	
[00:00:07]: Overriding mod workshop-378160973's option OVERRIDEMODE with value false	
[00:00:07]: Overriding mod workshop-378160973's option SHOWPLAYERSOPTIONS with value 2	
[00:00:07]: Overriding mod workshop-378160973's option ENABLEPINGS with value true	
[00:00:07]: applying configuration_options from modoverrides.lua to mod workshop-347079953	
[00:00:07]: Overriding mod workshop-347079953's option DFV_Language with value EN	
[00:00:07]: Overriding mod workshop-347079953's option DFV_MinimalMode with value default	
[00:00:07]: applying configuration_options from modoverrides.lua to mod workshop-462434129	
[00:00:07]: Overriding mod workshop-462434129's option MOD_RESTART_WELCOME_TIPS with value true	
[00:00:07]: Overriding mod workshop-462434129's option MOD_RESTART_ALLOW_RESTART with value true	
[00:00:07]: Overriding mod workshop-462434129's option MOD_RESTART_WELCOME_TIPS_TIME with value 6	
[00:00:07]: Overriding mod workshop-462434129's option MOD_RESTART_ALLOW_RESURRECT with value true	
[00:00:07]: Overriding mod workshop-462434129's option MOD_RESTART_IGNORING_ADMIN with value true	
[00:00:07]: Overriding mod workshop-462434129's option MOD_RESTART_TRIGGER_MODE with value 1	
[00:00:07]: Overriding mod workshop-462434129's option MOD_RESTART_RESURRECT_HEALTH with value 0	
[00:00:07]: Overriding mod workshop-462434129's option MOD_RESTART_MAP_SAVE with value 2	
[00:00:07]: Overriding mod workshop-462434129's option MOD_RESTART_CD_KILL with value 3	
[00:00:07]: Overriding mod workshop-462434129's option MOD_RESTART_CD_BONUS with value 0	
[00:00:07]: Overriding mod workshop-462434129's option MOD_RESTART_CD_MAX with value 0	
[00:00:07]: Overriding mod workshop-462434129's option MOD_RESTART_ALLOW_KILL with value true	
[00:00:07]: Overriding mod workshop-462434129's option MOD_RESTART_CD_RESURRECT with value 0	
[00:00:07]: Overriding mod workshop-462434129's option MOD_RESTART_FORCE_DROP_MODE with value 0	
[00:00:07]: Overriding mod workshop-462434129's option MOD_RESTART_CD_RESTART with value 5	
[00:00:07]: applying configuration_options from modoverrides.lua to mod workshop-375859599	
[00:00:07]: Overriding mod workshop-375859599's option random_range with value 0	
[00:00:07]: Overriding mod workshop-375859599's option divider with value 5	
[00:00:07]: Overriding mod workshop-375859599's option use_blacklist with value true	
[00:00:07]: Overriding mod workshop-375859599's option unknwon_prefabs with value 1	
[00:00:07]: Overriding mod workshop-375859599's option show_type with value 0	
[00:00:07]: Overriding mod workshop-375859599's option send_unknwon_prefabs with value false	
[00:00:07]: Overriding mod workshop-375859599's option random_health_value with value 0	
[00:00:07]: Loading mod: workshop-351325790 (Geometric Placement) Version:2.4.10	
[00:00:07]: Could not load mod_config_data/modconfiguration_workshop-375859599_CLIENT	
[00:00:07]: applying configuration_options from modoverrides.lua to mod workshop-1595631294	
[00:00:07]: Overriding mod workshop-1595631294's option SaltBox with value false	
[00:00:07]: Overriding mod workshop-1595631294's option BundleItems with value false	
[00:00:07]: Overriding mod workshop-1595631294's option Digornot with value false	
[00:00:07]: Overriding mod workshop-1595631294's option Icebox with value false	
[00:00:07]: Overriding mod workshop-1595631294's option DragonflyChest with value false	
[00:00:07]: applying configuration_options from modoverrides.lua to mod workshop-378160973	
[00:00:07]: Overriding mod workshop-378160973's option FIREOPTIONS with value 2	
[00:00:07]: Overriding mod workshop-378160973's option SHOWFIREICONS with value true	
[00:00:07]: Overriding mod workshop-378160973's option SHAREMINIMAPPROGRESS with value true	
[00:00:07]: Overriding mod workshop-378160973's option SHOWPLAYERICONS with value true	
[00:00:07]: Overriding mod workshop-378160973's option OVERRIDEMODE with value false	
[00:00:07]: Overriding mod workshop-378160973's option SHOWPLAYERSOPTIONS with value 2	
[00:00:07]: Overriding mod workshop-378160973's option ENABLEPINGS with value true	
[00:00:07]: applying configuration_options from modoverrides.lua to mod workshop-347079953	
[00:00:07]: Overriding mod workshop-347079953's option DFV_Language with value EN	
[00:00:07]: Overriding mod workshop-347079953's option DFV_MinimalMode with value default	
[00:00:07]: applying configuration_options from modoverrides.lua to mod workshop-462434129	
[00:00:07]: Overriding mod workshop-462434129's option MOD_RESTART_WELCOME_TIPS with value true	
[00:00:07]: Overriding mod workshop-462434129's option MOD_RESTART_ALLOW_RESTART with value true	
[00:00:07]: Overriding mod workshop-462434129's option MOD_RESTART_WELCOME_TIPS_TIME with value 6	
[00:00:07]: Overriding mod workshop-462434129's option MOD_RESTART_ALLOW_RESURRECT with value true	
[00:00:07]: Overriding mod workshop-462434129's option MOD_RESTART_IGNORING_ADMIN with value true	
[00:00:07]: Overriding mod workshop-462434129's option MOD_RESTART_TRIGGER_MODE with value 1	
[00:00:07]: Overriding mod workshop-462434129's option MOD_RESTART_RESURRECT_HEALTH with value 0	
[00:00:07]: Overriding mod workshop-462434129's option MOD_RESTART_MAP_SAVE with value 2	
[00:00:07]: Overriding mod workshop-462434129's option MOD_RESTART_CD_KILL with value 3	
[00:00:07]: Overriding mod workshop-462434129's option MOD_RESTART_CD_BONUS with value 0	
[00:00:07]: Overriding mod workshop-462434129's option MOD_RESTART_CD_MAX with value 0	
[00:00:07]: Overriding mod workshop-462434129's option MOD_RESTART_ALLOW_KILL with value true	
[00:00:07]: Overriding mod workshop-462434129's option MOD_RESTART_CD_RESURRECT with value 0	
[00:00:07]: Overriding mod workshop-462434129's option MOD_RESTART_FORCE_DROP_MODE with value 0	
[00:00:07]: Overriding mod workshop-462434129's option MOD_RESTART_CD_RESTART with value 5	
[00:00:07]: applying configuration_options from modoverrides.lua to mod workshop-375859599	
[00:00:07]: Overriding mod workshop-375859599's option random_range with value 0	
[00:00:07]: Overriding mod workshop-375859599's option divider with value 5	
[00:00:07]: Overriding mod workshop-375859599's option use_blacklist with value true	
[00:00:07]: Overriding mod workshop-375859599's option unknwon_prefabs with value 1	
[00:00:07]: Overriding mod workshop-375859599's option show_type with value 0	
[00:00:07]: Overriding mod workshop-375859599's option send_unknwon_prefabs with value false	
[00:00:07]: Overriding mod workshop-375859599's option random_health_value with value 0	
[00:00:07]: Loading mod: workshop-375859599 (Health Info) Version:2.2.00	
[00:00:07]: Could not load mod_config_data/modconfiguration_workshop-462434129_CLIENT	
[00:00:07]: applying configuration_options from modoverrides.lua to mod workshop-1595631294	
[00:00:07]: Overriding mod workshop-1595631294's option SaltBox with value false	
[00:00:07]: Overriding mod workshop-1595631294's option BundleItems with value false	
[00:00:07]: Overriding mod workshop-1595631294's option Digornot with value false	
[00:00:07]: Overriding mod workshop-1595631294's option Icebox with value false	
[00:00:07]: Overriding mod workshop-1595631294's option DragonflyChest with value false	
[00:00:07]: applying configuration_options from modoverrides.lua to mod workshop-378160973	
[00:00:07]: Overriding mod workshop-378160973's option FIREOPTIONS with value 2	
[00:00:07]: Overriding mod workshop-378160973's option SHOWFIREICONS with value true	
[00:00:07]: Overriding mod workshop-378160973's option SHAREMINIMAPPROGRESS with value true	
[00:00:07]: Overriding mod workshop-378160973's option SHOWPLAYERICONS with value true	
[00:00:07]: Overriding mod workshop-378160973's option OVERRIDEMODE with value false	
[00:00:07]: Overriding mod workshop-378160973's option SHOWPLAYERSOPTIONS with value 2	
[00:00:07]: Overriding mod workshop-378160973's option ENABLEPINGS with value true	
[00:00:07]: applying configuration_options from modoverrides.lua to mod workshop-347079953	
[00:00:07]: Overriding mod workshop-347079953's option DFV_Language with value EN	
[00:00:07]: Overriding mod workshop-347079953's option DFV_MinimalMode with value default	
[00:00:07]: applying configuration_options from modoverrides.lua to mod workshop-462434129	
[00:00:07]: Overriding mod workshop-462434129's option MOD_RESTART_WELCOME_TIPS with value true	
[00:00:07]: Overriding mod workshop-462434129's option MOD_RESTART_ALLOW_RESTART with value true	
[00:00:07]: Overriding mod workshop-462434129's option MOD_RESTART_WELCOME_TIPS_TIME with value 6	
[00:00:07]: Overriding mod workshop-462434129's option MOD_RESTART_ALLOW_RESURRECT with value true	
[00:00:07]: Overriding mod workshop-462434129's option MOD_RESTART_IGNORING_ADMIN with value true	
[00:00:07]: Overriding mod workshop-462434129's option MOD_RESTART_TRIGGER_MODE with value 1	
[00:00:07]: Overriding mod workshop-462434129's option MOD_RESTART_RESURRECT_HEALTH with value 0	
[00:00:07]: Overriding mod workshop-462434129's option MOD_RESTART_MAP_SAVE with value 2	
[00:00:07]: Overriding mod workshop-462434129's option MOD_RESTART_CD_KILL with value 3	
[00:00:07]: Overriding mod workshop-462434129's option MOD_RESTART_CD_BONUS with value 0	
[00:00:07]: Overriding mod workshop-462434129's option MOD_RESTART_CD_MAX with value 0	
[00:00:07]: Overriding mod workshop-462434129's option MOD_RESTART_ALLOW_KILL with value true	
[00:00:07]: Overriding mod workshop-462434129's option MOD_RESTART_CD_RESURRECT with value 0	
[00:00:07]: Overriding mod workshop-462434129's option MOD_RESTART_FORCE_DROP_MODE with value 0	
[00:00:07]: Overriding mod workshop-462434129's option MOD_RESTART_CD_RESTART with value 5	
[00:00:07]: applying configuration_options from modoverrides.lua to mod workshop-375859599	
[00:00:07]: Overriding mod workshop-375859599's option random_range with value 0	
[00:00:07]: Overriding mod workshop-375859599's option divider with value 5	
[00:00:07]: Overriding mod workshop-375859599's option use_blacklist with value true	
[00:00:07]: Overriding mod workshop-375859599's option unknwon_prefabs with value 1	
[00:00:07]: Overriding mod workshop-375859599's option show_type with value 0	
[00:00:07]: Overriding mod workshop-375859599's option send_unknwon_prefabs with value false	
[00:00:07]: Overriding mod workshop-375859599's option random_health_value with value 0	
[00:00:07]: Loading mod: workshop-462434129 (Restart) Version:0.3.2	
[00:00:07]: Could not load mod_config_data/modconfiguration_workshop-378160973_CLIENT	
[00:00:07]: applying configuration_options from modoverrides.lua to mod workshop-1595631294	
[00:00:07]: Overriding mod workshop-1595631294's option SaltBox with value false	
[00:00:07]: Overriding mod workshop-1595631294's option BundleItems with value false	
[00:00:07]: Overriding mod workshop-1595631294's option Digornot with value false	
[00:00:07]: Overriding mod workshop-1595631294's option Icebox with value false	
[00:00:07]: Overriding mod workshop-1595631294's option DragonflyChest with value false	
[00:00:07]: applying configuration_options from modoverrides.lua to mod workshop-378160973	
[00:00:07]: Overriding mod workshop-378160973's option FIREOPTIONS with value 2	
[00:00:07]: Overriding mod workshop-378160973's option SHOWFIREICONS with value true	
[00:00:07]: Overriding mod workshop-378160973's option SHAREMINIMAPPROGRESS with value true	
[00:00:07]: Overriding mod workshop-378160973's option SHOWPLAYERICONS with value true	
[00:00:07]: Overriding mod workshop-378160973's option OVERRIDEMODE with value false	
[00:00:07]: Overriding mod workshop-378160973's option SHOWPLAYERSOPTIONS with value 2	
[00:00:07]: Overriding mod workshop-378160973's option ENABLEPINGS with value true	
[00:00:07]: applying configuration_options from modoverrides.lua to mod workshop-347079953	
[00:00:07]: Overriding mod workshop-347079953's option DFV_Language with value EN	
[00:00:07]: Overriding mod workshop-347079953's option DFV_MinimalMode with value default	
[00:00:07]: applying configuration_options from modoverrides.lua to mod workshop-462434129	
[00:00:07]: Overriding mod workshop-462434129's option MOD_RESTART_WELCOME_TIPS with value true	
[00:00:07]: Overriding mod workshop-462434129's option MOD_RESTART_ALLOW_RESTART with value true	
[00:00:07]: Overriding mod workshop-462434129's option MOD_RESTART_WELCOME_TIPS_TIME with value 6	
[00:00:07]: Overriding mod workshop-462434129's option MOD_RESTART_ALLOW_RESURRECT with value true	
[00:00:07]: Overriding mod workshop-462434129's option MOD_RESTART_IGNORING_ADMIN with value true	
[00:00:07]: Overriding mod workshop-462434129's option MOD_RESTART_TRIGGER_MODE with value 1	
[00:00:07]: Overriding mod workshop-462434129's option MOD_RESTART_RESURRECT_HEALTH with value 0	
[00:00:07]: Overriding mod workshop-462434129's option MOD_RESTART_MAP_SAVE with value 2	
[00:00:07]: Overriding mod workshop-462434129's option MOD_RESTART_CD_KILL with value 3	
[00:00:07]: Overriding mod workshop-462434129's option MOD_RESTART_CD_BONUS with value 0	
[00:00:07]: Overriding mod workshop-462434129's option MOD_RESTART_CD_MAX with value 0	
[00:00:07]: Overriding mod workshop-462434129's option MOD_RESTART_ALLOW_KILL with value true	
[00:00:07]: Overriding mod workshop-462434129's option MOD_RESTART_CD_RESURRECT with value 0	
[00:00:07]: Overriding mod workshop-462434129's option MOD_RESTART_FORCE_DROP_MODE with value 0	
[00:00:07]: Overriding mod workshop-462434129's option MOD_RESTART_CD_RESTART with value 5	
[00:00:07]: applying configuration_options from modoverrides.lua to mod workshop-375859599	
[00:00:07]: Overriding mod workshop-375859599's option random_range with value 0	
[00:00:07]: Overriding mod workshop-375859599's option divider with value 5	
[00:00:07]: Overriding mod workshop-375859599's option use_blacklist with value true	
[00:00:07]: Overriding mod workshop-375859599's option unknwon_prefabs with value 1	
[00:00:07]: Overriding mod workshop-375859599's option show_type with value 0	
[00:00:07]: Overriding mod workshop-375859599's option send_unknwon_prefabs with value false	
[00:00:07]: Overriding mod workshop-375859599's option random_health_value with value 0	
[00:00:07]: Loading mod: workshop-378160973 (Global Positions) Version:1.7.3	
[00:00:07]: Could not load mod_config_data/modconfiguration_workshop-1608191708	
[00:00:07]: applying configuration_options from modoverrides.lua to mod workshop-1595631294	
[00:00:07]: Overriding mod workshop-1595631294's option SaltBox with value false	
[00:00:07]: Overriding mod workshop-1595631294's option BundleItems with value false	
[00:00:07]: Overriding mod workshop-1595631294's option Digornot with value false	
[00:00:07]: Overriding mod workshop-1595631294's option Icebox with value false	
[00:00:07]: Overriding mod workshop-1595631294's option DragonflyChest with value false	
[00:00:07]: applying configuration_options from modoverrides.lua to mod workshop-378160973	
[00:00:07]: Overriding mod workshop-378160973's option FIREOPTIONS with value 2	
[00:00:07]: Overriding mod workshop-378160973's option SHOWFIREICONS with value true	
[00:00:07]: Overriding mod workshop-378160973's option SHAREMINIMAPPROGRESS with value true	
[00:00:07]: Overriding mod workshop-378160973's option SHOWPLAYERICONS with value true	
[00:00:07]: Overriding mod workshop-378160973's option OVERRIDEMODE with value false	
[00:00:07]: Overriding mod workshop-378160973's option SHOWPLAYERSOPTIONS with value 2	
[00:00:07]: Overriding mod workshop-378160973's option ENABLEPINGS with value true	
[00:00:07]: applying configuration_options from modoverrides.lua to mod workshop-347079953	
[00:00:07]: Overriding mod workshop-347079953's option DFV_Language with value EN	
[00:00:07]: Overriding mod workshop-347079953's option DFV_MinimalMode with value default	
[00:00:07]: applying configuration_options from modoverrides.lua to mod workshop-462434129	
[00:00:07]: Overriding mod workshop-462434129's option MOD_RESTART_WELCOME_TIPS with value true	
[00:00:07]: Overriding mod workshop-462434129's option MOD_RESTART_ALLOW_RESTART with value true	
[00:00:07]: Overriding mod workshop-462434129's option MOD_RESTART_WELCOME_TIPS_TIME with value 6	
[00:00:07]: Overriding mod workshop-462434129's option MOD_RESTART_ALLOW_RESURRECT with value true	
[00:00:07]: Overriding mod workshop-462434129's option MOD_RESTART_IGNORING_ADMIN with value true	
[00:00:07]: Overriding mod workshop-462434129's option MOD_RESTART_TRIGGER_MODE with value 1	
[00:00:07]: Overriding mod workshop-462434129's option MOD_RESTART_RESURRECT_HEALTH with value 0	
[00:00:07]: Overriding mod workshop-462434129's option MOD_RESTART_MAP_SAVE with value 2	
[00:00:07]: Overriding mod workshop-462434129's option MOD_RESTART_CD_KILL with value 3	
[00:00:07]: Overriding mod workshop-462434129's option MOD_RESTART_CD_BONUS with value 0	
[00:00:07]: Overriding mod workshop-462434129's option MOD_RESTART_CD_MAX with value 0	
[00:00:07]: Overriding mod workshop-462434129's option MOD_RESTART_ALLOW_KILL with value true	
[00:00:07]: Overriding mod workshop-462434129's option MOD_RESTART_CD_RESURRECT with value 0	
[00:00:07]: Overriding mod workshop-462434129's option MOD_RESTART_FORCE_DROP_MODE with value 0	
[00:00:07]: Overriding mod workshop-462434129's option MOD_RESTART_CD_RESTART with value 5	
[00:00:07]: applying configuration_options from modoverrides.lua to mod workshop-375859599	
[00:00:07]: Overriding mod workshop-375859599's option random_range with value 0	
[00:00:07]: Overriding mod workshop-375859599's option divider with value 5	
[00:00:07]: Overriding mod workshop-375859599's option use_blacklist with value true	
[00:00:07]: Overriding mod workshop-375859599's option unknwon_prefabs with value 1	
[00:00:07]: Overriding mod workshop-375859599's option show_type with value 0	
[00:00:07]: Overriding mod workshop-375859599's option send_unknwon_prefabs with value false	
[00:00:07]: Overriding mod workshop-375859599's option random_health_value with value 0	
[00:00:07]: Loading mod: workshop-1608191708 (ActionQueue Reborn) Version:1.050	
[00:00:07]: Could not load mod_config_data/modconfiguration_workshop-347079953_CLIENT	
[00:00:07]: applying configuration_options from modoverrides.lua to mod workshop-1595631294	
[00:00:07]: Overriding mod workshop-1595631294's option SaltBox with value false	
[00:00:07]: Overriding mod workshop-1595631294's option BundleItems with value false	
[00:00:07]: Overriding mod workshop-1595631294's option Digornot with value false	
[00:00:07]: Overriding mod workshop-1595631294's option Icebox with value false	
[00:00:07]: Overriding mod workshop-1595631294's option DragonflyChest with value false	
[00:00:07]: applying configuration_options from modoverrides.lua to mod workshop-378160973	
[00:00:07]: Overriding mod workshop-378160973's option FIREOPTIONS with value 2	
[00:00:07]: Overriding mod workshop-378160973's option SHOWFIREICONS with value true	
[00:00:07]: Overriding mod workshop-378160973's option SHAREMINIMAPPROGRESS with value true	
[00:00:07]: Overriding mod workshop-378160973's option SHOWPLAYERICONS with value true	
[00:00:07]: Overriding mod workshop-378160973's option OVERRIDEMODE with value false	
[00:00:07]: Overriding mod workshop-378160973's option SHOWPLAYERSOPTIONS with value 2	
[00:00:07]: Overriding mod workshop-378160973's option ENABLEPINGS with value true	
[00:00:07]: applying configuration_options from modoverrides.lua to mod workshop-347079953	
[00:00:07]: Overriding mod workshop-347079953's option DFV_Language with value EN	
[00:00:07]: Overriding mod workshop-347079953's option DFV_MinimalMode with value default	
[00:00:07]: applying configuration_options from modoverrides.lua to mod workshop-462434129	
[00:00:07]: Overriding mod workshop-462434129's option MOD_RESTART_WELCOME_TIPS with value true	
[00:00:07]: Overriding mod workshop-462434129's option MOD_RESTART_ALLOW_RESTART with value true	
[00:00:07]: Overriding mod workshop-462434129's option MOD_RESTART_WELCOME_TIPS_TIME with value 6	
[00:00:07]: Overriding mod workshop-462434129's option MOD_RESTART_ALLOW_RESURRECT with value true	
[00:00:07]: Overriding mod workshop-462434129's option MOD_RESTART_IGNORING_ADMIN with value true	
[00:00:07]: Overriding mod workshop-462434129's option MOD_RESTART_TRIGGER_MODE with value 1	
[00:00:07]: Overriding mod workshop-462434129's option MOD_RESTART_RESURRECT_HEALTH with value 0	
[00:00:07]: Overriding mod workshop-462434129's option MOD_RESTART_MAP_SAVE with value 2	
[00:00:07]: Overriding mod workshop-462434129's option MOD_RESTART_CD_KILL with value 3	
[00:00:07]: Overriding mod workshop-462434129's option MOD_RESTART_CD_BONUS with value 0	
[00:00:07]: Overriding mod workshop-462434129's option MOD_RESTART_CD_MAX with value 0	
[00:00:07]: Overriding mod workshop-462434129's option MOD_RESTART_ALLOW_KILL with value true	
[00:00:07]: Overriding mod workshop-462434129's option MOD_RESTART_CD_RESURRECT with value 0	
[00:00:07]: Overriding mod workshop-462434129's option MOD_RESTART_FORCE_DROP_MODE with value 0	
[00:00:07]: Overriding mod workshop-462434129's option MOD_RESTART_CD_RESTART with value 5	
[00:00:07]: applying configuration_options from modoverrides.lua to mod workshop-375859599	
[00:00:07]: Overriding mod workshop-375859599's option random_range with value 0	
[00:00:07]: Overriding mod workshop-375859599's option divider with value 5	
[00:00:07]: Overriding mod workshop-375859599's option use_blacklist with value true	
[00:00:07]: Overriding mod workshop-375859599's option unknwon_prefabs with value 1	
[00:00:07]: Overriding mod workshop-375859599's option show_type with value 0	
[00:00:07]: Overriding mod workshop-375859599's option send_unknwon_prefabs with value false	
[00:00:07]: Overriding mod workshop-375859599's option random_health_value with value 0	
[00:00:07]: Loading mod: workshop-347079953 (Display food values) Version:1.61	
[00:00:07]: Could not load mod_config_data/modconfiguration_workshop-727774324	
[00:00:07]: applying configuration_options from modoverrides.lua to mod workshop-1595631294	
[00:00:07]: Overriding mod workshop-1595631294's option SaltBox with value false	
[00:00:07]: Overriding mod workshop-1595631294's option BundleItems with value false	
[00:00:07]: Overriding mod workshop-1595631294's option Digornot with value false	
[00:00:07]: Overriding mod workshop-1595631294's option Icebox with value false	
[00:00:07]: Overriding mod workshop-1595631294's option DragonflyChest with value false	
[00:00:07]: applying configuration_options from modoverrides.lua to mod workshop-378160973	
[00:00:07]: Overriding mod workshop-378160973's option FIREOPTIONS with value 2	
[00:00:07]: Overriding mod workshop-378160973's option SHOWFIREICONS with value true	
[00:00:07]: Overriding mod workshop-378160973's option SHAREMINIMAPPROGRESS with value true	
[00:00:07]: Overriding mod workshop-378160973's option SHOWPLAYERICONS with value true	
[00:00:07]: Overriding mod workshop-378160973's option OVERRIDEMODE with value false	
[00:00:07]: Overriding mod workshop-378160973's option SHOWPLAYERSOPTIONS with value 2	
[00:00:07]: Overriding mod workshop-378160973's option ENABLEPINGS with value true	
[00:00:07]: applying configuration_options from modoverrides.lua to mod workshop-347079953	
[00:00:07]: Overriding mod workshop-347079953's option DFV_Language with value EN	
[00:00:07]: Overriding mod workshop-347079953's option DFV_MinimalMode with value default	
[00:00:07]: applying configuration_options from modoverrides.lua to mod workshop-462434129	
[00:00:07]: Overriding mod workshop-462434129's option MOD_RESTART_WELCOME_TIPS with value true	
[00:00:07]: Overriding mod workshop-462434129's option MOD_RESTART_ALLOW_RESTART with value true	
[00:00:07]: Overriding mod workshop-462434129's option MOD_RESTART_WELCOME_TIPS_TIME with value 6	
[00:00:07]: Overriding mod workshop-462434129's option MOD_RESTART_ALLOW_RESURRECT with value true	
[00:00:07]: Overriding mod workshop-462434129's option MOD_RESTART_IGNORING_ADMIN with value true	
[00:00:07]: Overriding mod workshop-462434129's option MOD_RESTART_TRIGGER_MODE with value 1	
[00:00:07]: Overriding mod workshop-462434129's option MOD_RESTART_RESURRECT_HEALTH with value 0	
[00:00:07]: Overriding mod workshop-462434129's option MOD_RESTART_MAP_SAVE with value 2	
[00:00:07]: Overriding mod workshop-462434129's option MOD_RESTART_CD_KILL with value 3	
[00:00:07]: Overriding mod workshop-462434129's option MOD_RESTART_CD_BONUS with value 0	
[00:00:07]: Overriding mod workshop-462434129's option MOD_RESTART_CD_MAX with value 0	
[00:00:07]: Overriding mod workshop-462434129's option MOD_RESTART_ALLOW_KILL with value true	
[00:00:07]: Overriding mod workshop-462434129's option MOD_RESTART_CD_RESURRECT with value 0	
[00:00:07]: Overriding mod workshop-462434129's option MOD_RESTART_FORCE_DROP_MODE with value 0	
[00:00:07]: Overriding mod workshop-462434129's option MOD_RESTART_CD_RESTART with value 5	
[00:00:07]: applying configuration_options from modoverrides.lua to mod workshop-375859599	
[00:00:07]: Overriding mod workshop-375859599's option random_range with value 0	
[00:00:07]: Overriding mod workshop-375859599's option divider with value 5	
[00:00:07]: Overriding mod workshop-375859599's option use_blacklist with value true	
[00:00:07]: Overriding mod workshop-375859599's option unknwon_prefabs with value 1	
[00:00:07]: Overriding mod workshop-375859599's option show_type with value 0	
[00:00:07]: Overriding mod workshop-375859599's option send_unknwon_prefabs with value false	
[00:00:07]: Overriding mod workshop-375859599's option random_health_value with value 0	
[00:00:07]: Loading mod: workshop-727774324 (Craft Pot) Version:0.13.0	
[00:00:07]: Mod: workshop-727774324 (Craft Pot)	Loading modworldgenmain.lua	
[00:00:07]: Mod: workshop-727774324 (Craft Pot)	  Mod had no modworldgenmain.lua. Skipping.	
[00:00:07]: Mod: workshop-727774324 (Craft Pot)	Loading modmain.lua	
[00:00:07]: Mod: workshop-347079953 (Display food values)	Loading modworldgenmain.lua	
[00:00:07]: Mod: workshop-347079953 (Display food values)	  Mod had no modworldgenmain.lua. Skipping.	
[00:00:07]: Mod: workshop-347079953 (Display food values)	Loading modmain.lua	
[00:00:07]: Mod: workshop-375859599 (Health Info)	Loading modworldgenmain.lua	
[00:00:07]: Mod: workshop-375859599 (Health Info)	  Mod had no modworldgenmain.lua. Skipping.	
[00:00:07]: Mod: workshop-375859599 (Health Info)	Loading modmain.lua	
[00:00:07]: modimport: ../mods/workshop-375859599/black_white_lists.lua	
[00:00:07]: Mod: workshop-1608191708 (ActionQueue Reborn)	Loading modworldgenmain.lua	
[00:00:07]: Mod: workshop-1608191708 (ActionQueue Reborn)	  Mod had no modworldgenmain.lua. Skipping.	
[00:00:07]: Mod: workshop-1608191708 (ActionQueue Reborn)	Loading modmain.lua	
[00:00:07]: Mod: workshop-351325790 (Geometric Placement)	Loading modworldgenmain.lua	
[00:00:07]: Mod: workshop-351325790 (Geometric Placement)	  Mod had no modworldgenmain.lua. Skipping.	
[00:00:07]: Mod: workshop-351325790 (Geometric Placement)	Loading modmain.lua	
[00:00:07]: Mod: workshop-462434129 (Restart)	Loading modworldgenmain.lua	
[00:00:07]: Mod: workshop-462434129 (Restart)	  Mod had no modworldgenmain.lua. Skipping.	
[00:00:07]: Mod: workshop-462434129 (Restart)	Loading modmain.lua	
[00:00:07]: Mod: workshop-378160973 (Global Positions)	Loading modworldgenmain.lua	
[00:00:07]: Mod: workshop-378160973 (Global Positions)	  Mod had no modworldgenmain.lua. Skipping.	
[00:00:07]: Mod: workshop-378160973 (Global Positions)	Loading modmain.lua	
[00:00:07]: ModIndex:GetModsToLoad inserting moddir, 	workshop-1595631294	
[00:00:07]: ModIndex:GetModsToLoad inserting moddir, 	workshop-351325790	
[00:00:07]: ModIndex:GetModsToLoad inserting moddir, 	workshop-375859599	
[00:00:07]: ModIndex:GetModsToLoad inserting moddir, 	workshop-462434129	
[00:00:07]: ModIndex:GetModsToLoad inserting moddir, 	workshop-378160973	
[00:00:07]: ModIndex:GetModsToLoad inserting moddir, 	workshop-1608191708	
[00:00:07]: ModIndex:GetModsToLoad inserting moddir, 	workshop-347079953	
[00:00:07]: ModIndex:GetModsToLoad inserting moddir, 	workshop-727774324	
[00:00:07]: Mod: workshop-1595631294 (Smart Minisign)	Loading modworldgenmain.lua	
[00:00:07]: Mod: workshop-1595631294 (Smart Minisign)	  Mod had no modworldgenmain.lua. Skipping.	
[00:00:07]: Mod: workshop-1595631294 (Smart Minisign)	Loading modmain.lua	
[00:00:07]: Event data unavailable: lavaarena_event_server/lavaarena_achievement_quest_defs
[00:00:08]: LOADING LUA SUCCESS
[00:00:08]: Registering mod namespace "workshop-378160973"
[00:00:08]: Registering mod namespace "food item"
[00:00:08]: PlayerDeaths could not load morgue	
[00:00:08]: PlayerHistory could not load player_history	
[00:00:08]: ServerPreferences could not load server_preferences	
[00:00:08]: bloom_enabled	false	
[00:00:08]: loaded saveindex	
[00:00:08]: OnFilesLoaded()	
[00:00:08]: OnUpdatePurchaseStateComplete	
[00:00:08]: Klump load on boot started.	
[00:00:08]: Klump files loaded: 	0	
[00:00:09]: Mod: workshop-727774324 (Craft Pot)	Registering prefabs	
[00:00:09]: Mod: workshop-727774324 (Craft Pot)	  Registering default mod prefab	
[00:00:09]: Mod: workshop-347079953 (Display food values)	Registering prefabs	
[00:00:09]: Mod: workshop-347079953 (Display food values)	  Registering default mod prefab	
[00:00:09]: Mod: workshop-375859599 (Health Info)	Registering prefabs	
[00:00:09]: Mod: workshop-375859599 (Health Info)	  Registering default mod prefab	
[00:00:09]: Mod: workshop-1608191708 (ActionQueue Reborn)	Registering prefabs	
[00:00:09]: Mod: workshop-1608191708 (ActionQueue Reborn)	  Registering default mod prefab	
[00:00:09]: Mod: workshop-351325790 (Geometric Placement)	Registering prefabs	
[00:00:09]: Mod: workshop-351325790 (Geometric Placement)	  Registering prefab file: prefabs/buildgridplacer	
[00:00:09]: Mod: workshop-351325790 (Geometric Placement)	    buildgridplacer	
[00:00:09]: Mod: workshop-351325790 (Geometric Placement)	  Registering default mod prefab	
[00:00:09]: Mod: workshop-462434129 (Restart)	Registering prefabs	
[00:00:09]: Mod: workshop-462434129 (Restart)	  Registering default mod prefab	
[00:00:09]: Mod: workshop-378160973 (Global Positions)	Registering prefabs	
[00:00:09]: Mod: workshop-378160973 (Global Positions)	  Registering prefab file: prefabs/globalposition_classified	
[00:00:09]: Mod: workshop-378160973 (Global Positions)	    globalposition_classified	
[00:00:09]: Mod: workshop-378160973 (Global Positions)	  Registering prefab file: prefabs/smoketrail	
[00:00:09]: Mod: workshop-378160973 (Global Positions)	    smoketrail	
[00:00:09]: Mod: workshop-378160973 (Global Positions)	  Registering prefab file: prefabs/globalmapicon_noproxy	
[00:00:09]: Mod: workshop-378160973 (Global Positions)	    globalmapicon_noproxy	
[00:00:09]: Mod: workshop-378160973 (Global Positions)	  Registering prefab file: prefabs/worldmapexplorer	
[00:00:09]: Mod: workshop-378160973 (Global Positions)	    worldmapexplorer	
[00:00:09]: Mod: workshop-378160973 (Global Positions)	  Registering prefab file: prefabs/pings	
[00:00:09]: Mod: workshop-378160973 (Global Positions)	    ping_generic	
[00:00:09]: Mod: workshop-378160973 (Global Positions)	    ping_omw	
[00:00:09]: Mod: workshop-378160973 (Global Positions)	    ping_danger	
[00:00:09]: Mod: workshop-378160973 (Global Positions)	    ping_explore	
[00:00:09]: Mod: workshop-378160973 (Global Positions)	    ping_gohere	
[00:00:09]: Mod: workshop-378160973 (Global Positions)	  Registering default mod prefab	
[00:00:09]: Mod: workshop-1595631294 (Smart Minisign)	Registering prefabs	
[00:00:09]: Mod: workshop-1595631294 (Smart Minisign)	  Registering prefab file: prefabs/huaminisign	
[00:00:09]: Mod: workshop-1595631294 (Smart Minisign)	    huaminisign	
[00:00:09]: Mod: workshop-1595631294 (Smart Minisign)	  Registering default mod prefab	
[00:00:09]: 	Load FE	
[00:00:10]: THREAD - started 'FilesExistAsyncThread' (123145343299584)
[00:00:10]: FilesExistAsyncThread started (14432 files)...
[00:00:10]: 	Load FE: done	
[00:00:10]: Check for write access: TRUE
[00:00:10]: Check for read access: TRUE
[00:00:10]: ModIndex: Load sequence finished successfully.	
[00:00:10]: Reset() returning
[00:00:11]: ... FilesExistAsyncThread complete
[00:00:12]: [200] Account Communication Success (6)
[00:00:12]: Received (KU_-9FqBPy9) from TokenPurpose
[00:00:12]: Starting Dedicated Server Game	
[00:00:12]: Network tick rate: U=15(2), D=0
[00:00:12]: About to start a server with the following settings:
[00:00:12]:   Dedicated: true
[00:00:12]:   Online: true
[00:00:12]:   Passworded: true
[00:00:12]:   ServerPort: 10999
[00:00:12]:   SteamAuthPort: 8766
[00:00:12]:   SteamMasterServerPort: 27016
[00:00:12]:   ClanID: false
[00:00:12]:   ClanOnly: false
[00:00:12]:   ClanAdmin: false
[00:00:12]:   LanOnly: false
[00:00:12]:   FriendsOnly: false
[00:00:12]:   EnableAutosaver: true
[00:00:12]:   EncodeUserPath: true
[00:00:12]:   PVP: false
[00:00:12]:   MaxPlayers: 6
[00:00:12]:   GameMode: survival
[00:00:12]:   OverridenDNS: 
[00:00:12]:   PauseWhenEmpty: true
[00:00:12]:   IdleTimeout: 1800s
[00:00:12]:   VoteEnabled: true
[00:00:12]:   InternetBroadcasting: true
[00:00:12]:   Intent: social
[00:00:12]: Could not load mod_config_data/modconfiguration_workshop-1595631294	
[00:00:12]: Could not load mod_config_data/modconfiguration_workshop-378160973	
[00:00:12]: Could not load mod_config_data/modconfiguration_workshop-347079953	
[00:00:12]: Could not load mod_config_data/modconfiguration_workshop-375859599	
[00:00:12]: Online Server Started on port: 10999
[00:00:12]: Collecting garbage...
[00:00:12]: lua_gc took 0.04 seconds
[00:00:12]: ~ShardLuaProxy()
[00:00:12]: ~cEventLeaderboardProxy()
[00:00:12]: ~ItemServerLuaProxy()
[00:00:12]: ~InventoryLuaProxy()
[00:00:12]: ~NetworkLuaProxy()
[00:00:12]: ~SimLuaProxy()
[00:00:12]: lua_close took 0.14 seconds
[00:00:12]: ReleaseAll
[00:00:12]: ReleaseAll Finished
[00:00:12]: cGame::StartPlaying
[00:00:12]: LOADING LUA
[00:00:12]: DoLuaFile scripts/main.lua
[00:00:12]: DoLuaFile loading buffer scripts/main.lua
[00:00:12]: Translator:LoadPOFile - loading file: scripts/languages/chinese_s.po	
[00:00:14]:   taskgrouplist:	default	联机版	
[00:00:14]:   taskgrouplist:	classic	经典	
[00:00:14]:   taskgrouplist:	cave_default	地下	
[00:00:14]:   taskgrouplist:	lavaarena_taskset	熔炉	
[00:00:14]:   taskgrouplist:	quagmire_taskset	暴食	
[00:00:14]: running main.lua
	
[00:00:14]: unloading prefabs for mod MOD_workshop-727774324	
[00:00:14]: unloading prefabs for mod MOD_workshop-347079953	
[00:00:14]: unloading prefabs for mod MOD_workshop-375859599	
[00:00:14]: unloading prefabs for mod MOD_workshop-1608191708	
[00:00:14]: unloading prefabs for mod MOD_workshop-351325790	
[00:00:14]: unloading prefabs for mod MOD_workshop-462434129	
[00:00:14]: unloading prefabs for mod MOD_workshop-378160973	
[00:00:14]: unloading prefabs for mod MOD_workshop-1595631294	
[00:00:14]: unloading prefabs for mod MOD_SMARTSIGNOTHER	
[00:00:14]: loaded modindex	
[00:00:14]: ModIndex: Beginning normal load sequence for dedicated server.
	
[00:00:14]: modoverrides.lua enabling workshop-1608191708	
[00:00:14]: modoverrides.lua enabling workshop-1595631294	
[00:00:14]: modoverrides.lua enabling workshop-727774324	
[00:00:14]: modoverrides.lua enabling workshop-351325790	
[00:00:14]: modoverrides.lua enabling workshop-378160973	
[00:00:14]: modoverrides.lua enabling workshop-347079953	
[00:00:14]: modoverrides.lua enabling workshop-462434129	
[00:00:14]: modoverrides.lua enabling workshop-375859599	
[00:00:14]: ModIndex:GetModsToLoad inserting moddir, 	workshop-1595631294	
[00:00:14]: ModIndex:GetModsToLoad inserting moddir, 	workshop-351325790	
[00:00:14]: ModIndex:GetModsToLoad inserting moddir, 	workshop-375859599	
[00:00:14]: ModIndex:GetModsToLoad inserting moddir, 	workshop-462434129	
[00:00:14]: ModIndex:GetModsToLoad inserting moddir, 	workshop-378160973	
[00:00:14]: ModIndex:GetModsToLoad inserting moddir, 	workshop-1608191708	
[00:00:14]: ModIndex:GetModsToLoad inserting moddir, 	workshop-347079953	
[00:00:14]: ModIndex:GetModsToLoad inserting moddir, 	workshop-727774324	
[00:00:14]: Could not load mod_config_data/modconfiguration_workshop-1595631294	
[00:00:14]: applying configuration_options from modoverrides.lua to mod workshop-1595631294	
[00:00:14]: Overriding mod workshop-1595631294's option SaltBox with value false	
[00:00:14]: Overriding mod workshop-1595631294's option BundleItems with value false	
[00:00:14]: Overriding mod workshop-1595631294's option Digornot with value false	
[00:00:14]: Overriding mod workshop-1595631294's option Icebox with value false	
[00:00:14]: Overriding mod workshop-1595631294's option DragonflyChest with value false	
[00:00:14]: applying configuration_options from modoverrides.lua to mod workshop-378160973	
[00:00:14]: Overriding mod workshop-378160973's option FIREOPTIONS with value 2	
[00:00:14]: Overriding mod workshop-378160973's option SHOWFIREICONS with value true	
[00:00:14]: Overriding mod workshop-378160973's option SHAREMINIMAPPROGRESS with value true	
[00:00:14]: Overriding mod workshop-378160973's option SHOWPLAYERICONS with value true	
[00:00:14]: Overriding mod workshop-378160973's option OVERRIDEMODE with value false	
[00:00:14]: Overriding mod workshop-378160973's option SHOWPLAYERSOPTIONS with value 2	
[00:00:14]: Overriding mod workshop-378160973's option ENABLEPINGS with value true	
[00:00:14]: applying configuration_options from modoverrides.lua to mod workshop-347079953	
[00:00:14]: Overriding mod workshop-347079953's option DFV_Language with value EN	
[00:00:14]: Overriding mod workshop-347079953's option DFV_MinimalMode with value default	
[00:00:14]: applying configuration_options from modoverrides.lua to mod workshop-462434129	
[00:00:14]: Overriding mod workshop-462434129's option MOD_RESTART_WELCOME_TIPS with value true	
[00:00:14]: Overriding mod workshop-462434129's option MOD_RESTART_ALLOW_RESTART with value true	
[00:00:14]: Overriding mod workshop-462434129's option MOD_RESTART_WELCOME_TIPS_TIME with value 6	
[00:00:14]: Overriding mod workshop-462434129's option MOD_RESTART_ALLOW_RESURRECT with value true	
[00:00:14]: Overriding mod workshop-462434129's option MOD_RESTART_IGNORING_ADMIN with value true	
[00:00:14]: Overriding mod workshop-462434129's option MOD_RESTART_TRIGGER_MODE with value 1	
[00:00:14]: Overriding mod workshop-462434129's option MOD_RESTART_RESURRECT_HEALTH with value 0	
[00:00:14]: Overriding mod workshop-462434129's option MOD_RESTART_MAP_SAVE with value 2	
[00:00:14]: Overriding mod workshop-462434129's option MOD_RESTART_CD_KILL with value 3	
[00:00:14]: Overriding mod workshop-462434129's option MOD_RESTART_CD_BONUS with value 0	
[00:00:14]: Overriding mod workshop-462434129's option MOD_RESTART_CD_MAX with value 0	
[00:00:14]: Overriding mod workshop-462434129's option MOD_RESTART_ALLOW_KILL with value true	
[00:00:14]: Overriding mod workshop-462434129's option MOD_RESTART_CD_RESURRECT with value 0	
[00:00:14]: Overriding mod workshop-462434129's option MOD_RESTART_FORCE_DROP_MODE with value 0	
[00:00:14]: Overriding mod workshop-462434129's option MOD_RESTART_CD_RESTART with value 5	
[00:00:14]: applying configuration_options from modoverrides.lua to mod workshop-375859599	
[00:00:14]: Overriding mod workshop-375859599's option random_range with value 0	
[00:00:14]: Overriding mod workshop-375859599's option divider with value 5	
[00:00:14]: Overriding mod workshop-375859599's option use_blacklist with value true	
[00:00:14]: Overriding mod workshop-375859599's option unknwon_prefabs with value 1	
[00:00:14]: Overriding mod workshop-375859599's option show_type with value 0	
[00:00:14]: Overriding mod workshop-375859599's option send_unknwon_prefabs with value false	
[00:00:14]: Overriding mod workshop-375859599's option random_health_value with value 0	
[00:00:14]: Loading mod: workshop-1595631294 (Smart Minisign) Version:1.1.3	
[00:00:14]: Could not load mod_config_data/modconfiguration_workshop-351325790	
[00:00:14]: applying configuration_options from modoverrides.lua to mod workshop-1595631294	
[00:00:14]: Overriding mod workshop-1595631294's option SaltBox with value false	
[00:00:14]: Overriding mod workshop-1595631294's option BundleItems with value false	
[00:00:14]: Overriding mod workshop-1595631294's option Digornot with value false	
[00:00:14]: Overriding mod workshop-1595631294's option Icebox with value false	
[00:00:14]: Overriding mod workshop-1595631294's option DragonflyChest with value false	
[00:00:14]: applying configuration_options from modoverrides.lua to mod workshop-378160973	
[00:00:14]: Overriding mod workshop-378160973's option FIREOPTIONS with value 2	
[00:00:14]: Overriding mod workshop-378160973's option SHOWFIREICONS with value true	
[00:00:14]: Overriding mod workshop-378160973's option SHAREMINIMAPPROGRESS with value true	
[00:00:14]: Overriding mod workshop-378160973's option SHOWPLAYERICONS with value true	
[00:00:14]: Overriding mod workshop-378160973's option OVERRIDEMODE with value false	
[00:00:14]: Overriding mod workshop-378160973's option SHOWPLAYERSOPTIONS with value 2	
[00:00:14]: Overriding mod workshop-378160973's option ENABLEPINGS with value true	
[00:00:14]: applying configuration_options from modoverrides.lua to mod workshop-347079953	
[00:00:14]: Overriding mod workshop-347079953's option DFV_Language with value EN	
[00:00:14]: Overriding mod workshop-347079953's option DFV_MinimalMode with value default	
[00:00:14]: applying configuration_options from modoverrides.lua to mod workshop-462434129	
[00:00:14]: Overriding mod workshop-462434129's option MOD_RESTART_WELCOME_TIPS with value true	
[00:00:14]: Overriding mod workshop-462434129's option MOD_RESTART_ALLOW_RESTART with value true	
[00:00:14]: Overriding mod workshop-462434129's option MOD_RESTART_WELCOME_TIPS_TIME with value 6	
[00:00:14]: Overriding mod workshop-462434129's option MOD_RESTART_ALLOW_RESURRECT with value true	
[00:00:14]: Overriding mod workshop-462434129's option MOD_RESTART_IGNORING_ADMIN with value true	
[00:00:14]: Overriding mod workshop-462434129's option MOD_RESTART_TRIGGER_MODE with value 1	
[00:00:14]: Overriding mod workshop-462434129's option MOD_RESTART_RESURRECT_HEALTH with value 0	
[00:00:14]: Overriding mod workshop-462434129's option MOD_RESTART_MAP_SAVE with value 2	
[00:00:14]: Overriding mod workshop-462434129's option MOD_RESTART_CD_KILL with value 3	
[00:00:14]: Overriding mod workshop-462434129's option MOD_RESTART_CD_BONUS with value 0	
[00:00:14]: Overriding mod workshop-462434129's option MOD_RESTART_CD_MAX with value 0	
[00:00:14]: Overriding mod workshop-462434129's option MOD_RESTART_ALLOW_KILL with value true	
[00:00:14]: Overriding mod workshop-462434129's option MOD_RESTART_CD_RESURRECT with value 0	
[00:00:14]: Overriding mod workshop-462434129's option MOD_RESTART_FORCE_DROP_MODE with value 0	
[00:00:14]: Overriding mod workshop-462434129's option MOD_RESTART_CD_RESTART with value 5	
[00:00:14]: applying configuration_options from modoverrides.lua to mod workshop-375859599	
[00:00:14]: Overriding mod workshop-375859599's option random_range with value 0	
[00:00:14]: Overriding mod workshop-375859599's option divider with value 5	
[00:00:14]: Overriding mod workshop-375859599's option use_blacklist with value true	
[00:00:14]: Overriding mod workshop-375859599's option unknwon_prefabs with value 1	
[00:00:14]: Overriding mod workshop-375859599's option show_type with value 0	
[00:00:14]: Overriding mod workshop-375859599's option send_unknwon_prefabs with value false	
[00:00:14]: Overriding mod workshop-375859599's option random_health_value with value 0	
[00:00:14]: Loading mod: workshop-351325790 (Geometric Placement) Version:2.4.10	
[00:00:14]: Could not load mod_config_data/modconfiguration_workshop-375859599	
[00:00:14]: applying configuration_options from modoverrides.lua to mod workshop-1595631294	
[00:00:14]: Overriding mod workshop-1595631294's option SaltBox with value false	
[00:00:14]: Overriding mod workshop-1595631294's option BundleItems with value false	
[00:00:14]: Overriding mod workshop-1595631294's option Digornot with value false	
[00:00:14]: Overriding mod workshop-1595631294's option Icebox with value false	
[00:00:14]: Overriding mod workshop-1595631294's option DragonflyChest with value false	
[00:00:14]: applying configuration_options from modoverrides.lua to mod workshop-378160973	
[00:00:14]: Overriding mod workshop-378160973's option FIREOPTIONS with value 2	
[00:00:14]: Overriding mod workshop-378160973's option SHOWFIREICONS with value true	
[00:00:14]: Overriding mod workshop-378160973's option SHAREMINIMAPPROGRESS with value true	
[00:00:14]: Overriding mod workshop-378160973's option SHOWPLAYERICONS with value true	
[00:00:14]: Overriding mod workshop-378160973's option OVERRIDEMODE with value false	
[00:00:14]: Overriding mod workshop-378160973's option SHOWPLAYERSOPTIONS with value 2	
[00:00:14]: Overriding mod workshop-378160973's option ENABLEPINGS with value true	
[00:00:14]: applying configuration_options from modoverrides.lua to mod workshop-347079953	
[00:00:14]: Overriding mod workshop-347079953's option DFV_Language with value EN	
[00:00:14]: Overriding mod workshop-347079953's option DFV_MinimalMode with value default	
[00:00:14]: applying configuration_options from modoverrides.lua to mod workshop-462434129	
[00:00:14]: Overriding mod workshop-462434129's option MOD_RESTART_WELCOME_TIPS with value true	
[00:00:14]: Overriding mod workshop-462434129's option MOD_RESTART_ALLOW_RESTART with value true	
[00:00:14]: Overriding mod workshop-462434129's option MOD_RESTART_WELCOME_TIPS_TIME with value 6	
[00:00:14]: Overriding mod workshop-462434129's option MOD_RESTART_ALLOW_RESURRECT with value true	
[00:00:14]: Overriding mod workshop-462434129's option MOD_RESTART_IGNORING_ADMIN with value true	
[00:00:14]: Overriding mod workshop-462434129's option MOD_RESTART_TRIGGER_MODE with value 1	
[00:00:14]: Overriding mod workshop-462434129's option MOD_RESTART_RESURRECT_HEALTH with value 0	
[00:00:14]: Overriding mod workshop-462434129's option MOD_RESTART_MAP_SAVE with value 2	
[00:00:14]: Overriding mod workshop-462434129's option MOD_RESTART_CD_KILL with value 3	
[00:00:14]: Overriding mod workshop-462434129's option MOD_RESTART_CD_BONUS with value 0	
[00:00:14]: Overriding mod workshop-462434129's option MOD_RESTART_CD_MAX with value 0	
[00:00:14]: Overriding mod workshop-462434129's option MOD_RESTART_ALLOW_KILL with value true	
[00:00:14]: Overriding mod workshop-462434129's option MOD_RESTART_CD_RESURRECT with value 0	
[00:00:14]: Overriding mod workshop-462434129's option MOD_RESTART_FORCE_DROP_MODE with value 0	
[00:00:14]: Overriding mod workshop-462434129's option MOD_RESTART_CD_RESTART with value 5	
[00:00:14]: applying configuration_options from modoverrides.lua to mod workshop-375859599	
[00:00:14]: Overriding mod workshop-375859599's option random_range with value 0	
[00:00:14]: Overriding mod workshop-375859599's option divider with value 5	
[00:00:14]: Overriding mod workshop-375859599's option use_blacklist with value true	
[00:00:14]: Overriding mod workshop-375859599's option unknwon_prefabs with value 1	
[00:00:14]: Overriding mod workshop-375859599's option show_type with value 0	
[00:00:14]: Overriding mod workshop-375859599's option send_unknwon_prefabs with value false	
[00:00:14]: Overriding mod workshop-375859599's option random_health_value with value 0	
[00:00:14]: Loading mod: workshop-375859599 (Health Info) Version:2.2.00	
[00:00:14]: Could not load mod_config_data/modconfiguration_workshop-462434129	
[00:00:14]: applying configuration_options from modoverrides.lua to mod workshop-1595631294	
[00:00:14]: Overriding mod workshop-1595631294's option SaltBox with value false	
[00:00:14]: Overriding mod workshop-1595631294's option BundleItems with value false	
[00:00:14]: Overriding mod workshop-1595631294's option Digornot with value false	
[00:00:14]: Overriding mod workshop-1595631294's option Icebox with value false	
[00:00:14]: Overriding mod workshop-1595631294's option DragonflyChest with value false	
[00:00:14]: applying configuration_options from modoverrides.lua to mod workshop-378160973	
[00:00:14]: Overriding mod workshop-378160973's option FIREOPTIONS with value 2	
[00:00:14]: Overriding mod workshop-378160973's option SHOWFIREICONS with value true	
[00:00:14]: Overriding mod workshop-378160973's option SHAREMINIMAPPROGRESS with value true	
[00:00:14]: Overriding mod workshop-378160973's option SHOWPLAYERICONS with value true	
[00:00:14]: Overriding mod workshop-378160973's option OVERRIDEMODE with value false	
[00:00:14]: Overriding mod workshop-378160973's option SHOWPLAYERSOPTIONS with value 2	
[00:00:14]: Overriding mod workshop-378160973's option ENABLEPINGS with value true	
[00:00:14]: applying configuration_options from modoverrides.lua to mod workshop-347079953	
[00:00:14]: Overriding mod workshop-347079953's option DFV_Language with value EN	
[00:00:14]: Overriding mod workshop-347079953's option DFV_MinimalMode with value default	
[00:00:14]: applying configuration_options from modoverrides.lua to mod workshop-462434129	
[00:00:14]: Overriding mod workshop-462434129's option MOD_RESTART_WELCOME_TIPS with value true	
[00:00:14]: Overriding mod workshop-462434129's option MOD_RESTART_ALLOW_RESTART with value true	
[00:00:14]: Overriding mod workshop-462434129's option MOD_RESTART_WELCOME_TIPS_TIME with value 6	
[00:00:14]: Overriding mod workshop-462434129's option MOD_RESTART_ALLOW_RESURRECT with value true	
[00:00:14]: Overriding mod workshop-462434129's option MOD_RESTART_IGNORING_ADMIN with value true	
[00:00:14]: Overriding mod workshop-462434129's option MOD_RESTART_TRIGGER_MODE with value 1	
[00:00:14]: Overriding mod workshop-462434129's option MOD_RESTART_RESURRECT_HEALTH with value 0	
[00:00:14]: Overriding mod workshop-462434129's option MOD_RESTART_MAP_SAVE with value 2	
[00:00:14]: Overriding mod workshop-462434129's option MOD_RESTART_CD_KILL with value 3	
[00:00:14]: Overriding mod workshop-462434129's option MOD_RESTART_CD_BONUS with value 0	
[00:00:14]: Overriding mod workshop-462434129's option MOD_RESTART_CD_MAX with value 0	
[00:00:14]: Overriding mod workshop-462434129's option MOD_RESTART_ALLOW_KILL with value true	
[00:00:14]: Overriding mod workshop-462434129's option MOD_RESTART_CD_RESURRECT with value 0	
[00:00:14]: Overriding mod workshop-462434129's option MOD_RESTART_FORCE_DROP_MODE with value 0	
[00:00:14]: Overriding mod workshop-462434129's option MOD_RESTART_CD_RESTART with value 5	
[00:00:14]: applying configuration_options from modoverrides.lua to mod workshop-375859599	
[00:00:14]: Overriding mod workshop-375859599's option random_range with value 0	
[00:00:14]: Overriding mod workshop-375859599's option divider with value 5	
[00:00:14]: Overriding mod workshop-375859599's option use_blacklist with value true	
[00:00:14]: Overriding mod workshop-375859599's option unknwon_prefabs with value 1	
[00:00:14]: Overriding mod workshop-375859599's option show_type with value 0	
[00:00:14]: Overriding mod workshop-375859599's option send_unknwon_prefabs with value false	
[00:00:14]: Overriding mod workshop-375859599's option random_health_value with value 0	
[00:00:14]: Loading mod: workshop-462434129 (Restart) Version:0.3.2	
[00:00:14]: Could not load mod_config_data/modconfiguration_workshop-378160973	
[00:00:14]: applying configuration_options from modoverrides.lua to mod workshop-1595631294	
[00:00:14]: Overriding mod workshop-1595631294's option SaltBox with value false	
[00:00:14]: Overriding mod workshop-1595631294's option BundleItems with value false	
[00:00:14]: Overriding mod workshop-1595631294's option Digornot with value false	
[00:00:14]: Overriding mod workshop-1595631294's option Icebox with value false	
[00:00:14]: Overriding mod workshop-1595631294's option DragonflyChest with value false	
[00:00:14]: applying configuration_options from modoverrides.lua to mod workshop-378160973	
[00:00:14]: Overriding mod workshop-378160973's option FIREOPTIONS with value 2	
[00:00:14]: Overriding mod workshop-378160973's option SHOWFIREICONS with value true	
[00:00:14]: Overriding mod workshop-378160973's option SHAREMINIMAPPROGRESS with value true	
[00:00:14]: Overriding mod workshop-378160973's option SHOWPLAYERICONS with value true	
[00:00:14]: Overriding mod workshop-378160973's option OVERRIDEMODE with value false	
[00:00:14]: Overriding mod workshop-378160973's option SHOWPLAYERSOPTIONS with value 2	
[00:00:14]: Overriding mod workshop-378160973's option ENABLEPINGS with value true	
[00:00:14]: applying configuration_options from modoverrides.lua to mod workshop-347079953	
[00:00:14]: Overriding mod workshop-347079953's option DFV_Language with value EN	
[00:00:14]: Overriding mod workshop-347079953's option DFV_MinimalMode with value default	
[00:00:14]: applying configuration_options from modoverrides.lua to mod workshop-462434129	
[00:00:14]: Overriding mod workshop-462434129's option MOD_RESTART_WELCOME_TIPS with value true	
[00:00:14]: Overriding mod workshop-462434129's option MOD_RESTART_ALLOW_RESTART with value true	
[00:00:14]: Overriding mod workshop-462434129's option MOD_RESTART_WELCOME_TIPS_TIME with value 6	
[00:00:14]: Overriding mod workshop-462434129's option MOD_RESTART_ALLOW_RESURRECT with value true	
[00:00:14]: Overriding mod workshop-462434129's option MOD_RESTART_IGNORING_ADMIN with value true	
[00:00:14]: Overriding mod workshop-462434129's option MOD_RESTART_TRIGGER_MODE with value 1	
[00:00:14]: Overriding mod workshop-462434129's option MOD_RESTART_RESURRECT_HEALTH with value 0	
[00:00:14]: Overriding mod workshop-462434129's option MOD_RESTART_MAP_SAVE with value 2	
[00:00:14]: Overriding mod workshop-462434129's option MOD_RESTART_CD_KILL with value 3	
[00:00:14]: Overriding mod workshop-462434129's option MOD_RESTART_CD_BONUS with value 0	
[00:00:14]: Overriding mod workshop-462434129's option MOD_RESTART_CD_MAX with value 0	
[00:00:14]: Overriding mod workshop-462434129's option MOD_RESTART_ALLOW_KILL with value true	
[00:00:14]: Overriding mod workshop-462434129's option MOD_RESTART_CD_RESURRECT with value 0	
[00:00:14]: Overriding mod workshop-462434129's option MOD_RESTART_FORCE_DROP_MODE with value 0	
[00:00:14]: Overriding mod workshop-462434129's option MOD_RESTART_CD_RESTART with value 5	
[00:00:14]: applying configuration_options from modoverrides.lua to mod workshop-375859599	
[00:00:14]: Overriding mod workshop-375859599's option random_range with value 0	
[00:00:14]: Overriding mod workshop-375859599's option divider with value 5	
[00:00:14]: Overriding mod workshop-375859599's option use_blacklist with value true	
[00:00:14]: Overriding mod workshop-375859599's option unknwon_prefabs with value 1	
[00:00:14]: Overriding mod workshop-375859599's option show_type with value 0	
[00:00:14]: Overriding mod workshop-375859599's option send_unknwon_prefabs with value false	
[00:00:14]: Overriding mod workshop-375859599's option random_health_value with value 0	
[00:00:14]: Loading mod: workshop-378160973 (Global Positions) Version:1.7.3	
[00:00:14]: Could not load mod_config_data/modconfiguration_workshop-1608191708	
[00:00:14]: applying configuration_options from modoverrides.lua to mod workshop-1595631294	
[00:00:14]: Overriding mod workshop-1595631294's option SaltBox with value false	
[00:00:14]: Overriding mod workshop-1595631294's option BundleItems with value false	
[00:00:14]: Overriding mod workshop-1595631294's option Digornot with value false	
[00:00:14]: Overriding mod workshop-1595631294's option Icebox with value false	
[00:00:14]: Overriding mod workshop-1595631294's option DragonflyChest with value false	
[00:00:14]: applying configuration_options from modoverrides.lua to mod workshop-378160973	
[00:00:14]: Overriding mod workshop-378160973's option FIREOPTIONS with value 2	
[00:00:14]: Overriding mod workshop-378160973's option SHOWFIREICONS with value true	
[00:00:14]: Overriding mod workshop-378160973's option SHAREMINIMAPPROGRESS with value true	
[00:00:14]: Overriding mod workshop-378160973's option SHOWPLAYERICONS with value true	
[00:00:14]: Overriding mod workshop-378160973's option OVERRIDEMODE with value false	
[00:00:14]: Overriding mod workshop-378160973's option SHOWPLAYERSOPTIONS with value 2	
[00:00:14]: Overriding mod workshop-378160973's option ENABLEPINGS with value true	
[00:00:14]: applying configuration_options from modoverrides.lua to mod workshop-347079953	
[00:00:14]: Overriding mod workshop-347079953's option DFV_Language with value EN	
[00:00:14]: Overriding mod workshop-347079953's option DFV_MinimalMode with value default	
[00:00:14]: applying configuration_options from modoverrides.lua to mod workshop-462434129	
[00:00:14]: Overriding mod workshop-462434129's option MOD_RESTART_WELCOME_TIPS with value true	
[00:00:14]: Overriding mod workshop-462434129's option MOD_RESTART_ALLOW_RESTART with value true	
[00:00:14]: Overriding mod workshop-462434129's option MOD_RESTART_WELCOME_TIPS_TIME with value 6	
[00:00:14]: Overriding mod workshop-462434129's option MOD_RESTART_ALLOW_RESURRECT with value true	
[00:00:14]: Overriding mod workshop-462434129's option MOD_RESTART_IGNORING_ADMIN with value true	
[00:00:14]: Overriding mod workshop-462434129's option MOD_RESTART_TRIGGER_MODE with value 1	
[00:00:14]: Overriding mod workshop-462434129's option MOD_RESTART_RESURRECT_HEALTH with value 0	
[00:00:14]: Overriding mod workshop-462434129's option MOD_RESTART_MAP_SAVE with value 2	
[00:00:14]: Overriding mod workshop-462434129's option MOD_RESTART_CD_KILL with value 3	
[00:00:14]: Overriding mod workshop-462434129's option MOD_RESTART_CD_BONUS with value 0	
[00:00:14]: Overriding mod workshop-462434129's option MOD_RESTART_CD_MAX with value 0	
[00:00:14]: Overriding mod workshop-462434129's option MOD_RESTART_ALLOW_KILL with value true	
[00:00:14]: Overriding mod workshop-462434129's option MOD_RESTART_CD_RESURRECT with value 0	
[00:00:14]: Overriding mod workshop-462434129's option MOD_RESTART_FORCE_DROP_MODE with value 0	
[00:00:14]: Overriding mod workshop-462434129's option MOD_RESTART_CD_RESTART with value 5	
[00:00:14]: applying configuration_options from modoverrides.lua to mod workshop-375859599	
[00:00:14]: Overriding mod workshop-375859599's option random_range with value 0	
[00:00:14]: Overriding mod workshop-375859599's option divider with value 5	
[00:00:14]: Overriding mod workshop-375859599's option use_blacklist with value true	
[00:00:14]: Overriding mod workshop-375859599's option unknwon_prefabs with value 1	
[00:00:14]: Overriding mod workshop-375859599's option show_type with value 0	
[00:00:14]: Overriding mod workshop-375859599's option send_unknwon_prefabs with value false	
[00:00:14]: Overriding mod workshop-375859599's option random_health_value with value 0	
[00:00:14]: Loading mod: workshop-1608191708 (ActionQueue Reborn) Version:1.050	
[00:00:14]: Could not load mod_config_data/modconfiguration_workshop-347079953	
[00:00:14]: applying configuration_options from modoverrides.lua to mod workshop-1595631294	
[00:00:14]: Overriding mod workshop-1595631294's option SaltBox with value false	
[00:00:14]: Overriding mod workshop-1595631294's option BundleItems with value false	
[00:00:14]: Overriding mod workshop-1595631294's option Digornot with value false	
[00:00:14]: Overriding mod workshop-1595631294's option Icebox with value false	
[00:00:14]: Overriding mod workshop-1595631294's option DragonflyChest with value false	
[00:00:14]: applying configuration_options from modoverrides.lua to mod workshop-378160973	
[00:00:14]: Overriding mod workshop-378160973's option FIREOPTIONS with value 2	
[00:00:14]: Overriding mod workshop-378160973's option SHOWFIREICONS with value true	
[00:00:14]: Overriding mod workshop-378160973's option SHAREMINIMAPPROGRESS with value true	
[00:00:14]: Overriding mod workshop-378160973's option SHOWPLAYERICONS with value true	
[00:00:14]: Overriding mod workshop-378160973's option OVERRIDEMODE with value false	
[00:00:14]: Overriding mod workshop-378160973's option SHOWPLAYERSOPTIONS with value 2	
[00:00:14]: Overriding mod workshop-378160973's option ENABLEPINGS with value true	
[00:00:14]: applying configuration_options from modoverrides.lua to mod workshop-347079953	
[00:00:14]: Overriding mod workshop-347079953's option DFV_Language with value EN	
[00:00:14]: Overriding mod workshop-347079953's option DFV_MinimalMode with value default	
[00:00:14]: applying configuration_options from modoverrides.lua to mod workshop-462434129	
[00:00:14]: Overriding mod workshop-462434129's option MOD_RESTART_WELCOME_TIPS with value true	
[00:00:14]: Overriding mod workshop-462434129's option MOD_RESTART_ALLOW_RESTART with value true	
[00:00:14]: Overriding mod workshop-462434129's option MOD_RESTART_WELCOME_TIPS_TIME with value 6	
[00:00:14]: Overriding mod workshop-462434129's option MOD_RESTART_ALLOW_RESURRECT with value true	
[00:00:14]: Overriding mod workshop-462434129's option MOD_RESTART_IGNORING_ADMIN with value true	
[00:00:14]: Overriding mod workshop-462434129's option MOD_RESTART_TRIGGER_MODE with value 1	
[00:00:14]: Overriding mod workshop-462434129's option MOD_RESTART_RESURRECT_HEALTH with value 0	
[00:00:14]: Overriding mod workshop-462434129's option MOD_RESTART_MAP_SAVE with value 2	
[00:00:14]: Overriding mod workshop-462434129's option MOD_RESTART_CD_KILL with value 3	
[00:00:14]: Overriding mod workshop-462434129's option MOD_RESTART_CD_BONUS with value 0	
[00:00:14]: Overriding mod workshop-462434129's option MOD_RESTART_CD_MAX with value 0	
[00:00:14]: Overriding mod workshop-462434129's option MOD_RESTART_ALLOW_KILL with value true	
[00:00:14]: Overriding mod workshop-462434129's option MOD_RESTART_CD_RESURRECT with value 0	
[00:00:14]: Overriding mod workshop-462434129's option MOD_RESTART_FORCE_DROP_MODE with value 0	
[00:00:14]: Overriding mod workshop-462434129's option MOD_RESTART_CD_RESTART with value 5	
[00:00:14]: applying configuration_options from modoverrides.lua to mod workshop-375859599	
[00:00:14]: Overriding mod workshop-375859599's option random_range with value 0	
[00:00:14]: Overriding mod workshop-375859599's option divider with value 5	
[00:00:14]: Overriding mod workshop-375859599's option use_blacklist with value true	
[00:00:14]: Overriding mod workshop-375859599's option unknwon_prefabs with value 1	
[00:00:14]: Overriding mod workshop-375859599's option show_type with value 0	
[00:00:14]: Overriding mod workshop-375859599's option send_unknwon_prefabs with value false	
[00:00:14]: Overriding mod workshop-375859599's option random_health_value with value 0	
[00:00:14]: Loading mod: workshop-347079953 (Display food values) Version:1.61	
[00:00:14]: Could not load mod_config_data/modconfiguration_workshop-727774324	
[00:00:14]: applying configuration_options from modoverrides.lua to mod workshop-1595631294	
[00:00:14]: Overriding mod workshop-1595631294's option SaltBox with value false	
[00:00:14]: Overriding mod workshop-1595631294's option BundleItems with value false	
[00:00:14]: Overriding mod workshop-1595631294's option Digornot with value false	
[00:00:14]: Overriding mod workshop-1595631294's option Icebox with value false	
[00:00:14]: Overriding mod workshop-1595631294's option DragonflyChest with value false	
[00:00:14]: applying configuration_options from modoverrides.lua to mod workshop-378160973	
[00:00:14]: Overriding mod workshop-378160973's option FIREOPTIONS with value 2	
[00:00:14]: Overriding mod workshop-378160973's option SHOWFIREICONS with value true	
[00:00:14]: Overriding mod workshop-378160973's option SHAREMINIMAPPROGRESS with value true	
[00:00:14]: Overriding mod workshop-378160973's option SHOWPLAYERICONS with value true	
[00:00:14]: Overriding mod workshop-378160973's option OVERRIDEMODE with value false	
[00:00:14]: Overriding mod workshop-378160973's option SHOWPLAYERSOPTIONS with value 2	
[00:00:14]: Overriding mod workshop-378160973's option ENABLEPINGS with value true	
[00:00:14]: applying configuration_options from modoverrides.lua to mod workshop-347079953	
[00:00:14]: Overriding mod workshop-347079953's option DFV_Language with value EN	
[00:00:14]: Overriding mod workshop-347079953's option DFV_MinimalMode with value default	
[00:00:14]: applying configuration_options from modoverrides.lua to mod workshop-462434129	
[00:00:14]: Overriding mod workshop-462434129's option MOD_RESTART_WELCOME_TIPS with value true	
[00:00:14]: Overriding mod workshop-462434129's option MOD_RESTART_ALLOW_RESTART with value true	
[00:00:14]: Overriding mod workshop-462434129's option MOD_RESTART_WELCOME_TIPS_TIME with value 6	
[00:00:14]: Overriding mod workshop-462434129's option MOD_RESTART_ALLOW_RESURRECT with value true	
[00:00:14]: Overriding mod workshop-462434129's option MOD_RESTART_IGNORING_ADMIN with value true	
[00:00:14]: Overriding mod workshop-462434129's option MOD_RESTART_TRIGGER_MODE with value 1	
[00:00:14]: Overriding mod workshop-462434129's option MOD_RESTART_RESURRECT_HEALTH with value 0	
[00:00:14]: Overriding mod workshop-462434129's option MOD_RESTART_MAP_SAVE with value 2	
[00:00:14]: Overriding mod workshop-462434129's option MOD_RESTART_CD_KILL with value 3	
[00:00:14]: Overriding mod workshop-462434129's option MOD_RESTART_CD_BONUS with value 0	
[00:00:14]: Overriding mod workshop-462434129's option MOD_RESTART_CD_MAX with value 0	
[00:00:14]: Overriding mod workshop-462434129's option MOD_RESTART_ALLOW_KILL with value true	
[00:00:14]: Overriding mod workshop-462434129's option MOD_RESTART_CD_RESURRECT with value 0	
[00:00:14]: Overriding mod workshop-462434129's option MOD_RESTART_FORCE_DROP_MODE with value 0	
[00:00:14]: Overriding mod workshop-462434129's option MOD_RESTART_CD_RESTART with value 5	
[00:00:14]: applying configuration_options from modoverrides.lua to mod workshop-375859599	
[00:00:14]: Overriding mod workshop-375859599's option random_range with value 0	
[00:00:14]: Overriding mod workshop-375859599's option divider with value 5	
[00:00:14]: Overriding mod workshop-375859599's option use_blacklist with value true	
[00:00:14]: Overriding mod workshop-375859599's option unknwon_prefabs with value 1	
[00:00:14]: Overriding mod workshop-375859599's option show_type with value 0	
[00:00:14]: Overriding mod workshop-375859599's option send_unknwon_prefabs with value false	
[00:00:14]: Overriding mod workshop-375859599's option random_health_value with value 0	
[00:00:14]: Loading mod: workshop-727774324 (Craft Pot) Version:0.13.0	
[00:00:14]: Mod: workshop-727774324 (Craft Pot)	Loading modworldgenmain.lua	
[00:00:14]: Mod: workshop-727774324 (Craft Pot)	  Mod had no modworldgenmain.lua. Skipping.	
[00:00:14]: Mod: workshop-727774324 (Craft Pot)	Loading modmain.lua	
[00:00:14]: Mod: workshop-347079953 (Display food values)	Loading modworldgenmain.lua	
[00:00:14]: Mod: workshop-347079953 (Display food values)	  Mod had no modworldgenmain.lua. Skipping.	
[00:00:14]: Mod: workshop-347079953 (Display food values)	Loading modmain.lua	
[00:00:14]: Mod: workshop-375859599 (Health Info)	Loading modworldgenmain.lua	
[00:00:14]: Mod: workshop-375859599 (Health Info)	  Mod had no modworldgenmain.lua. Skipping.	
[00:00:14]: Mod: workshop-375859599 (Health Info)	Loading modmain.lua	
[00:00:14]: modimport: ../mods/workshop-375859599/black_white_lists.lua	
[00:00:14]: Mod: workshop-1608191708 (ActionQueue Reborn)	Loading modworldgenmain.lua	
[00:00:14]: Mod: workshop-1608191708 (ActionQueue Reborn)	  Mod had no modworldgenmain.lua. Skipping.	
[00:00:14]: Mod: workshop-1608191708 (ActionQueue Reborn)	Loading modmain.lua	
[00:00:14]: Mod: workshop-351325790 (Geometric Placement)	Loading modworldgenmain.lua	
[00:00:14]: Mod: workshop-351325790 (Geometric Placement)	  Mod had no modworldgenmain.lua. Skipping.	
[00:00:14]: Mod: workshop-351325790 (Geometric Placement)	Loading modmain.lua	
[00:00:14]: Mod: workshop-462434129 (Restart)	Loading modworldgenmain.lua	
[00:00:14]: Mod: workshop-462434129 (Restart)	  Mod had no modworldgenmain.lua. Skipping.	
[00:00:14]: Mod: workshop-462434129 (Restart)	Loading modmain.lua	
[00:00:14]: Mod: workshop-378160973 (Global Positions)	Loading modworldgenmain.lua	
[00:00:14]: Mod: workshop-378160973 (Global Positions)	  Mod had no modworldgenmain.lua. Skipping.	
[00:00:14]: Mod: workshop-378160973 (Global Positions)	Loading modmain.lua	
[00:00:14]: ModIndex:GetModsToLoad inserting moddir, 	workshop-1595631294	
[00:00:14]: ModIndex:GetModsToLoad inserting moddir, 	workshop-351325790	
[00:00:14]: ModIndex:GetModsToLoad inserting moddir, 	workshop-375859599	
[00:00:14]: ModIndex:GetModsToLoad inserting moddir, 	workshop-462434129	
[00:00:14]: ModIndex:GetModsToLoad inserting moddir, 	workshop-378160973	
[00:00:14]: ModIndex:GetModsToLoad inserting moddir, 	workshop-1608191708	
[00:00:14]: ModIndex:GetModsToLoad inserting moddir, 	workshop-347079953	
[00:00:14]: ModIndex:GetModsToLoad inserting moddir, 	workshop-727774324	
[00:00:14]: Mod: workshop-1595631294 (Smart Minisign)	Loading modworldgenmain.lua	
[00:00:14]: Mod: workshop-1595631294 (Smart Minisign)	  Mod had no modworldgenmain.lua. Skipping.	
[00:00:14]: Mod: workshop-1595631294 (Smart Minisign)	Loading modmain.lua	
[00:00:15]: Event data unavailable: lavaarena_event_server/lavaarena_achievement_quest_defs
[00:00:15]: LOADING LUA SUCCESS
[00:00:15]: Registering mod namespace "workshop-378160973"
[00:00:15]: Registering mod namespace "food item"
[00:00:15]: PlayerDeaths could not load morgue	
[00:00:15]: PlayerHistory could not load player_history	
[00:00:15]: ServerPreferences could not load server_preferences	
[00:00:15]: bloom_enabled	false	
[00:00:15]: loaded saveindex	
[00:00:15]: OnFilesLoaded()	
[00:00:15]: OnUpdatePurchaseStateComplete	
[00:00:15]: Loading world: session/D81667898C105865/0000000172	
[00:00:15]: Save file is at version 5.031	
[00:00:15]: Klump load on boot started.	
[00:00:15]: Klump files loaded: 	0	
[00:00:15]: 	Unload FE	
[00:00:15]: 	Unload FE done	
[00:00:16]: Mod: workshop-727774324 (Craft Pot)	Registering prefabs	
[00:00:16]: Mod: workshop-727774324 (Craft Pot)	  Registering default mod prefab	
[00:00:16]: Mod: workshop-347079953 (Display food values)	Registering prefabs	
[00:00:16]: Mod: workshop-347079953 (Display food values)	  Registering default mod prefab	
[00:00:16]: Mod: workshop-375859599 (Health Info)	Registering prefabs	
[00:00:16]: Mod: workshop-375859599 (Health Info)	  Registering default mod prefab	
[00:00:16]: Mod: workshop-1608191708 (ActionQueue Reborn)	Registering prefabs	
[00:00:16]: Mod: workshop-1608191708 (ActionQueue Reborn)	  Registering default mod prefab	
[00:00:16]: Mod: workshop-351325790 (Geometric Placement)	Registering prefabs	
[00:00:16]: Mod: workshop-351325790 (Geometric Placement)	  Registering prefab file: prefabs/buildgridplacer	
[00:00:16]: Mod: workshop-351325790 (Geometric Placement)	    buildgridplacer	
[00:00:16]: Mod: workshop-351325790 (Geometric Placement)	  Registering default mod prefab	
[00:00:16]: Mod: workshop-462434129 (Restart)	Registering prefabs	
[00:00:16]: Mod: workshop-462434129 (Restart)	  Registering default mod prefab	
[00:00:16]: Mod: workshop-378160973 (Global Positions)	Registering prefabs	
[00:00:16]: Mod: workshop-378160973 (Global Positions)	  Registering prefab file: prefabs/globalposition_classified	
[00:00:16]: Mod: workshop-378160973 (Global Positions)	    globalposition_classified	
[00:00:16]: Mod: workshop-378160973 (Global Positions)	  Registering prefab file: prefabs/smoketrail	
[00:00:16]: Mod: workshop-378160973 (Global Positions)	    smoketrail	
[00:00:16]: Mod: workshop-378160973 (Global Positions)	  Registering prefab file: prefabs/globalmapicon_noproxy	
[00:00:16]: Mod: workshop-378160973 (Global Positions)	    globalmapicon_noproxy	
[00:00:16]: Mod: workshop-378160973 (Global Positions)	  Registering prefab file: prefabs/worldmapexplorer	
[00:00:16]: Mod: workshop-378160973 (Global Positions)	    worldmapexplorer	
[00:00:16]: Mod: workshop-378160973 (Global Positions)	  Registering prefab file: prefabs/pings	
[00:00:16]: Mod: workshop-378160973 (Global Positions)	    ping_generic	
[00:00:16]: Mod: workshop-378160973 (Global Positions)	    ping_omw	
[00:00:16]: Mod: workshop-378160973 (Global Positions)	    ping_danger	
[00:00:16]: Mod: workshop-378160973 (Global Positions)	    ping_explore	
[00:00:16]: Mod: workshop-378160973 (Global Positions)	    ping_gohere	
[00:00:16]: Mod: workshop-378160973 (Global Positions)	  Registering default mod prefab	
[00:00:16]: Mod: workshop-1595631294 (Smart Minisign)	Registering prefabs	
[00:00:16]: Mod: workshop-1595631294 (Smart Minisign)	  Registering prefab file: prefabs/huaminisign	
[00:00:16]: Mod: workshop-1595631294 (Smart Minisign)	    huaminisign	
[00:00:16]: Mod: workshop-1595631294 (Smart Minisign)	  Registering default mod prefab	
[00:00:16]: 	LOAD BE	
[00:00:19]: Could not preload undefined prefab (yotc_shrinecarrat)
[00:00:20]: 	LOAD BE: done	
[00:00:20]: Begin Session: D81667898C105865
[00:00:20]: saving to server_temp/server_save	
[00:00:20]: MiniMapComponent::AddAtlas( minimap/minimap_data.xml )
[00:00:20]: MiniMapComponent::AddAtlas( ../mods/workshop-378160973/minimap/campfire.xml )
[00:00:20]: MiniMapComponent::AddAtlas( ../mods/workshop-378160973/minimap/ping_generic.xml )
[00:00:20]: MiniMapComponent::AddAtlas( ../mods/workshop-378160973/minimap/ping_gohere.xml )
[00:00:20]: MiniMapComponent::AddAtlas( ../mods/workshop-378160973/minimap/ping_explore.xml )
[00:00:20]: MiniMapComponent::AddAtlas( ../mods/workshop-378160973/minimap/ping_danger.xml )
[00:00:20]: MiniMapComponent::AddAtlas( ../mods/workshop-378160973/minimap/ping_omw.xml )
[00:00:20]: Loading 16 new character(s)	
[00:00:20]: Total 16 character(s) loaded	
[00:00:22]: Loading Nav Grid	
[00:00:22]: World generated on version 391887, using seed: 1580352740	
[00:00:22]: setting 	summerlength	15	
[00:00:22]: setting 	isnightmaredawn	false	
[00:00:22]: setting 	elapseddaysinseason	3	
[00:00:22]: setting 	isfullmoon	false	
[00:00:22]: setting 	moisture	5642.005859375	
[00:00:22]: setting 	springlength	20	
[00:00:22]: setting 	isnightmarewild	false	
[00:00:22]: setting 	moonphase	quarter	
[00:00:22]: setting 	precipitationrate	0	
[00:00:22]: setting 	iswet	false	
[00:00:22]: setting 	isnewmoon	false	
[00:00:22]: setting 	iswinter	false	
[00:00:22]: setting 	israining	false	
[00:00:22]: setting 	isnightmarewarn	false	
[00:00:22]: setting 	precipitation	none	
[00:00:22]: setting 	cavephase	night	
[00:00:22]: setting 	moistureceil	12461.5546875	
[00:00:22]: setting 	isday	false	
[00:00:22]: setting 	iscaveday	false	
[00:00:22]: setting 	season	autumn	
[00:00:22]: setting 	timeinphase	0.80381664699978	
[00:00:22]: setting 	temperature	44.026038192549	
[00:00:22]: setting 	isnightmarecalm	false	
[00:00:22]: setting 	isnight	true	
[00:00:22]: setting 	isdusk	false	
[00:00:22]: setting 	iscavedusk	false	
[00:00:22]: setting 	isautumn	true	
[00:00:22]: setting 	issnowing	false	
[00:00:22]: setting 	iswaxingmoon	true	
[00:00:22]: setting 	pop	0.31295156553212	
[00:00:22]: setting 	snowlevel	0	
[00:00:22]: setting 	issnowcovered	false	
[00:00:22]: setting 	autumnlength	20	
[00:00:22]: setting 	phase	night	
[00:00:22]: setting 	nightmaretime	0	
[00:00:22]: setting 	winterlength	15	
[00:00:22]: setting 	isspring	false	
[00:00:22]: setting 	nightmarephase	none	
[00:00:22]: setting 	remainingdaysinseason	17	
[00:00:22]: setting 	cycles	143	
[00:00:22]: setting 	iscavenight	true	
[00:00:22]: setting 	nightmaretimeinphase	0	
[00:00:22]: setting 	wetness	0	
[00:00:22]: setting 	time	0.96321562131246	
[00:00:22]: setting 	issummer	false	
[00:00:40]: Reconstructing topology	
[00:00:40]: 	...Sorting points	
[00:00:40]: 	...Sorting edges	
[00:00:40]: 	...Connecting nodes	
[00:00:40]: 	...Validating connections	
[00:00:40]: 	...Housekeeping	
[00:00:40]: 	...Done!	
[00:00:40]: 1 uploads added to server. From server_temp
[00:00:40]: About to start a shard with these settings:
[00:00:40]:   ShardName: [SHDMASTER]
[00:00:40]:   ShardID: 1
[00:00:40]:   ShardRole: MASTER
[00:00:40]:   MasterHost: (null)
[00:00:40]:   MasterBind: 127.0.0.1
[00:00:40]:   MasterPort: 10888
[00:00:40]: [Shard] Starting master server
[00:00:40]: [Shard] Shard server started on port: 10888
[00:00:40]: Telling Client our new session identifier: D81667898C105865
[00:00:40]: Check for write access: TRUE
[00:00:40]: Check for read access: TRUE
[00:00:40]: ModIndex: Load sequence finished successfully.	
[00:00:42]: Reset() returning
[00:00:42]: [Steam] SteamGameServer_Init(8766, 10999, 27016)
[00:00:42]: [Steam] SteamGameServer_Init success
[00:00:43]: Validating portal[5] <-> 1396469145[5] (inactive)	
[00:00:44]: Validating portal[4] <-> 1396469145[4] (inactive)	
[00:00:44]: Validating portal[6] <-> 1396469145[6] (inactive)	
[00:00:44]: Validating portal[3] <-> 1396469145[3] (inactive)	
[00:00:44]: Validating portal[9] <-> 1396469145[9] (inactive)	
[00:00:44]: Validating portal[7] <-> 1396469145[7] (inactive)	
[00:00:44]: Validating portal[8] <-> 1396469145[8] (inactive)	
[00:00:44]: Validating portal[2] <-> 1396469145[2] (inactive)	
[00:00:44]: Validating portal[1] <-> 1396469145[1] (inactive)	
[00:00:44]: Validating portal[10] <-> 1396469145[10] (inactive)	
[00:00:45]: Could not find anim build FROMNUM
[00:00:45]: Could not find anim build FROMNUM
[00:00:45]: Could not find anim build FROMNUM
[00:00:45]: Could not find anim build FROMNUM
[00:00:45]: Could not find anim build FROMNUM
[00:00:45]: Could not find anim build FROMNUM
[00:00:45]: Could not find anim build FROMNUM
[00:00:45]: Could not find anim build FROMNUM
[00:00:45]: Could not find anim build FROMNUM
[00:00:45]: Could not find anim build FROMNUM
[00:00:45]: Could not find anim build FROMNUM
[00:00:45]: Could not find anim build FROMNUM
[00:00:45]: Could not find anim build FROMNUM
[00:00:45]: Could not find anim build FROMNUM
[00:00:45]: Could not find anim build FROMNUM
[00:00:45]: Could not find anim build FROMNUM
[00:00:45]: Could not find anim build FROMNUM
[00:00:45]: Sim paused
[00:00:56]: Best lobby region is aws/EU (ping 272)
[00:00:56]: Registering master server in EU lobby
[00:00:59]: [Shard] Slave Caves(1396469145) connected: [LAN] 127.0.0.1
[00:01:00]: [Shard] Slave Caves(1396469145) ready!
[00:01:00]: World 1396469145 is now connected	
[00:01:00]: Validating portal[5] <-> 1396469145[5] (disabled)	
[00:01:00]: Validating portal[4] <-> 1396469145[4] (disabled)	
[00:01:00]: Validating portal[6] <-> 1396469145[6] (disabled)	
[00:01:00]: Validating portal[3] <-> 1396469145[3] (disabled)	
[00:01:00]: Validating portal[9] <-> 1396469145[9] (disabled)	
[00:01:00]: Validating portal[7] <-> 1396469145[7] (disabled)	
[00:01:00]: Validating portal[8] <-> 1396469145[8] (disabled)	
[00:01:00]: Validating portal[2] <-> 1396469145[2] (disabled)	
[00:01:00]: Validating portal[1] <-> 1396469145[1] (disabled)	
[00:01:00]: Validating portal[10] <-> 1396469145[10] (disabled)	
[00:01:06]: Registering master server in EU lobby
[00:01:24]: Serializing world: session/D81667898C105865/0000000173
[00:01:24]: Truncating to snapshot #173...
[00:01:24]:  - session/D81667898C105865/0000000167
[00:01:24]:    1 file(s) removed
[00:01:24]: Removing server from EU lobby
[00:01:24]: [Shard] Stopping shard mode
[00:01:24]: Collecting garbage...
[00:01:25]: lua_gc took 0.51 seconds
[00:01:25]: ~ShardLuaProxy()
[00:01:25]: ~cEventLeaderboardProxy()
[00:01:25]: ~ItemServerLuaProxy()
[00:01:25]: ~InventoryLuaProxy()
[00:01:25]: ~NetworkLuaProxy()
[00:01:25]: ~SimLuaProxy()
[00:01:26]: lua_close took 1.20 seconds
[00:01:26]: Orphaned unnamed resource. This resource must have used Add( resource ) to insert itself into the manager. 
[00:01:26]: CurlRequestManager::ClientThread::Main() complete
[00:01:26]: HttpClient2 discarded 0 callbacks.
[00:01:26]: Shutting down
