[00:00:00]: PersistRootStorage is now /Users/fanrui/Documents/Klei//DoNotStarveTogether/235519363/Cluster_5/Master/ 
[00:00:00]: Starting Up
[00:00:00]: Version: 393281
[00:00:00]: Current time: Fri Feb  7 09:46:32 2020

[00:00:00]: Don't Starve Together: 393281 OSX
[00:00:00]: Build Date: 4673
[00:00:00]: Mode: 64-bit
[00:00:00]: Parsing command line
[00:00:00]: Command Line Arguments: -monitor_parent_process 49128 -persistent_storage_root /Users/fanrui/Documents/Klei/ -conf_dir DoNotStarveTogether -cluster Cluster_5 -ownernetid 76561198195785091 -ownerdir 235519363 -backup_log_count 10 -backup_log_period 0 -shard Master -sigprefix DST_Master -region US 
[00:00:00]: Initializing distribution platform
[00:00:00]: ....Done
[00:00:00]: THREAD - started 'GAClient' (123145573736448)
[00:00:00]: CurlRequestManager::ClientThread::Main()
[00:00:00]: Mounting file system databundles/klump.zip successful.
[00:00:00]: Mounting file system databundles/shaders.zip successful.
[00:00:00]: Mounting file system databundles/fonts.zip successful.
[00:00:00]: Mounting file system databundles/anim_dynamic.zip successful.
[00:00:00]: Mounting file system databundles/bigportraits.zip successful.
[00:00:00]: Mounting file system databundles/images.zip successful.
[00:00:00]: Mounting file system databundles/scripts.zip successful.
[00:00:00]: ProfileIndex:3.79
[00:00:00]: [Connect] PendingConnection::Reset(true)
[00:00:00]: THREAD - started 'Ping Job Thread' (123145575845888)
[00:00:00]: Platform: 1
[00:00:00]: Network tick rate: U=15(2), D=0
[00:00:00]: Network tick rate: U=15(2), D=0
[00:00:00]: THREAD - started 'StreamInput' (123145577955328)
[00:00:00]: Overriding region to US
[00:00:00]: OnLoadPermissionList: /Users/fanrui/Documents/Klei//DoNotStarveTogether/235519363/client_save/blocklist.txt (Failure)
[00:00:00]: OnLoadPermissionList: /Users/fanrui/Documents/Klei//DoNotStarveTogether/235519363/client_save/adminlist.txt (Failure)
[00:00:00]: OnLoadUserIdList: /Users/fanrui/Documents/Klei//DoNotStarveTogether/235519363/client_save/whitelist.txt (Failure)
[00:00:00]: Offline user ID: OU_76561198195785091
[00:00:00]: Token retrieved from: /Users/fanrui/Documents/Klei//DoNotStarveTogether/235519363/Cluster_5/cluster_token.txt
[00:00:00]: Token retrieved from: /Users/fanrui/Documents/Klei//DoNotStarveTogether/235519363/Cluster_5/cluster_token.txt
[00:00:00]: HardwareStats:
  OS                        
    name                      Darwin
    version                   18.6.0
    platformSpecific          
    architecture              64-bit
  CPU                       
    clockSpeed                2712
    name                      Intel(R) Core(TM) i5-7200U CPU @ 2.50GHz
    manufacturer              GenuineIntel
    numCores                  2
    features                  
  RAM                       
    megsOfRam                 8192
  GPU                       
    megsOfRam                 0
    videoModeDescription      
    name                      
    driverVersion             
    driverDate                
    refreshRate               3944218816

[00:00:00]: cGame::InitializeOnMainThread
[00:00:00]: Renderer initialize: Okay
[00:00:00]: AnimManager initialize: Okay
[00:00:00]: Buffers initialize: Okay
[00:00:00]: cDontStarveGame::DoGameSpecificInitialize()
[00:00:00]: GameSpecific initialize: Okay
[00:00:00]: cGame::StartPlaying
[00:00:00]: LOADING LUA
[00:00:00]: DoLuaFile scripts/main.lua
[00:00:00]: DoLuaFile loading buffer scripts/main.lua
[00:00:00]: Translator:LoadPOFile - loading file: scripts/languages/chinese_s.po	
[00:00:02]:   taskgrouplist:	default	联机版	
[00:00:02]:   taskgrouplist:	classic	经典	
[00:00:02]:   taskgrouplist:	cave_default	地下	
[00:00:02]:   taskgrouplist:	lavaarena_taskset	熔炉	
[00:00:02]:   taskgrouplist:	quagmire_taskset	暴食	
[00:00:02]: running main.lua
	
[00:00:02]: loaded modindex	
[00:00:02]: ModIndex: Beginning normal load sequence for dedicated server.
	
[00:00:02]: DownloadMods(0)
[00:00:02]: modoverrides.lua enabling workshop-1595631294	
[00:00:02]: modoverrides.lua enabling workshop-378160973	
[00:00:02]: modoverrides.lua enabling workshop-347079953	
[00:00:02]: modoverrides.lua enabling workshop-462434129	
[00:00:02]: modoverrides.lua enabling workshop-375859599	
[00:00:02]: ModIndex:GetModsToLoad inserting moddir, 	workshop-1595631294	
[00:00:02]: ModIndex:GetModsToLoad inserting moddir, 	workshop-375859599	
[00:00:02]: ModIndex:GetModsToLoad inserting moddir, 	workshop-462434129	
[00:00:02]: ModIndex:GetModsToLoad inserting moddir, 	workshop-378160973	
[00:00:02]: ModIndex:GetModsToLoad inserting moddir, 	workshop-347079953	
[00:00:02]: Could not load mod_config_data/modconfiguration_workshop-1595631294_CLIENT	
[00:00:02]: applying configuration_options from modoverrides.lua to mod workshop-1595631294	
[00:00:02]: Overriding mod workshop-1595631294's option SaltBox with value false	
[00:00:02]: Overriding mod workshop-1595631294's option BundleItems with value false	
[00:00:02]: Overriding mod workshop-1595631294's option Digornot with value false	
[00:00:02]: Overriding mod workshop-1595631294's option Icebox with value false	
[00:00:02]: Overriding mod workshop-1595631294's option DragonflyChest with value false	
[00:00:02]: applying configuration_options from modoverrides.lua to mod workshop-378160973	
[00:00:02]: Overriding mod workshop-378160973's option FIREOPTIONS with value 2	
[00:00:02]: Overriding mod workshop-378160973's option SHOWFIREICONS with value true	
[00:00:02]: Overriding mod workshop-378160973's option SHAREMINIMAPPROGRESS with value true	
[00:00:02]: Overriding mod workshop-378160973's option SHOWPLAYERICONS with value true	
[00:00:02]: Overriding mod workshop-378160973's option OVERRIDEMODE with value false	
[00:00:02]: Overriding mod workshop-378160973's option SHOWPLAYERSOPTIONS with value 2	
[00:00:02]: Overriding mod workshop-378160973's option ENABLEPINGS with value true	
[00:00:02]: applying configuration_options from modoverrides.lua to mod workshop-347079953	
[00:00:02]: Overriding mod workshop-347079953's option DFV_Language with value EN	
[00:00:02]: Overriding mod workshop-347079953's option DFV_MinimalMode with value default	
[00:00:02]: applying configuration_options from modoverrides.lua to mod workshop-462434129	
[00:00:02]: Overriding mod workshop-462434129's option MOD_RESTART_WELCOME_TIPS with value true	
[00:00:02]: Overriding mod workshop-462434129's option MOD_RESTART_ALLOW_RESTART with value true	
[00:00:02]: Overriding mod workshop-462434129's option MOD_RESTART_WELCOME_TIPS_TIME with value 6	
[00:00:02]: Overriding mod workshop-462434129's option MOD_RESTART_ALLOW_RESURRECT with value true	
[00:00:02]: Overriding mod workshop-462434129's option MOD_RESTART_IGNORING_ADMIN with value true	
[00:00:02]: Overriding mod workshop-462434129's option MOD_RESTART_TRIGGER_MODE with value 1	
[00:00:02]: Overriding mod workshop-462434129's option MOD_RESTART_RESURRECT_HEALTH with value 0	
[00:00:02]: Overriding mod workshop-462434129's option MOD_RESTART_MAP_SAVE with value 2	
[00:00:02]: Overriding mod workshop-462434129's option MOD_RESTART_CD_KILL with value 3	
[00:00:02]: Overriding mod workshop-462434129's option MOD_RESTART_CD_BONUS with value 0	
[00:00:02]: Overriding mod workshop-462434129's option MOD_RESTART_CD_MAX with value 0	
[00:00:02]: Overriding mod workshop-462434129's option MOD_RESTART_ALLOW_KILL with value true	
[00:00:02]: Overriding mod workshop-462434129's option MOD_RESTART_CD_RESURRECT with value 0	
[00:00:02]: Overriding mod workshop-462434129's option MOD_RESTART_FORCE_DROP_MODE with value 0	
[00:00:02]: Overriding mod workshop-462434129's option MOD_RESTART_CD_RESTART with value 5	
[00:00:02]: applying configuration_options from modoverrides.lua to mod workshop-375859599	
[00:00:02]: Overriding mod workshop-375859599's option random_range with value 0	
[00:00:02]: Overriding mod workshop-375859599's option divider with value 5	
[00:00:02]: Overriding mod workshop-375859599's option use_blacklist with value true	
[00:00:02]: Overriding mod workshop-375859599's option unknwon_prefabs with value 1	
[00:00:02]: Overriding mod workshop-375859599's option show_type with value 0	
[00:00:02]: Overriding mod workshop-375859599's option send_unknwon_prefabs with value false	
[00:00:02]: Overriding mod workshop-375859599's option random_health_value with value 0	
[00:00:02]: Loading mod: workshop-1595631294 (Smart Minisign) Version:1.1.3	
[00:00:02]: Could not load mod_config_data/modconfiguration_workshop-375859599_CLIENT	
[00:00:02]: applying configuration_options from modoverrides.lua to mod workshop-1595631294	
[00:00:02]: Overriding mod workshop-1595631294's option SaltBox with value false	
[00:00:02]: Overriding mod workshop-1595631294's option BundleItems with value false	
[00:00:02]: Overriding mod workshop-1595631294's option Digornot with value false	
[00:00:02]: Overriding mod workshop-1595631294's option Icebox with value false	
[00:00:02]: Overriding mod workshop-1595631294's option DragonflyChest with value false	
[00:00:02]: applying configuration_options from modoverrides.lua to mod workshop-378160973	
[00:00:02]: Overriding mod workshop-378160973's option FIREOPTIONS with value 2	
[00:00:02]: Overriding mod workshop-378160973's option SHOWFIREICONS with value true	
[00:00:02]: Overriding mod workshop-378160973's option SHAREMINIMAPPROGRESS with value true	
[00:00:02]: Overriding mod workshop-378160973's option SHOWPLAYERICONS with value true	
[00:00:02]: Overriding mod workshop-378160973's option OVERRIDEMODE with value false	
[00:00:02]: Overriding mod workshop-378160973's option SHOWPLAYERSOPTIONS with value 2	
[00:00:02]: Overriding mod workshop-378160973's option ENABLEPINGS with value true	
[00:00:02]: applying configuration_options from modoverrides.lua to mod workshop-347079953	
[00:00:02]: Overriding mod workshop-347079953's option DFV_Language with value EN	
[00:00:02]: Overriding mod workshop-347079953's option DFV_MinimalMode with value default	
[00:00:02]: applying configuration_options from modoverrides.lua to mod workshop-462434129	
[00:00:02]: Overriding mod workshop-462434129's option MOD_RESTART_WELCOME_TIPS with value true	
[00:00:02]: Overriding mod workshop-462434129's option MOD_RESTART_ALLOW_RESTART with value true	
[00:00:02]: Overriding mod workshop-462434129's option MOD_RESTART_WELCOME_TIPS_TIME with value 6	
[00:00:02]: Overriding mod workshop-462434129's option MOD_RESTART_ALLOW_RESURRECT with value true	
[00:00:02]: Overriding mod workshop-462434129's option MOD_RESTART_IGNORING_ADMIN with value true	
[00:00:02]: Overriding mod workshop-462434129's option MOD_RESTART_TRIGGER_MODE with value 1	
[00:00:02]: Overriding mod workshop-462434129's option MOD_RESTART_RESURRECT_HEALTH with value 0	
[00:00:02]: Overriding mod workshop-462434129's option MOD_RESTART_MAP_SAVE with value 2	
[00:00:02]: Overriding mod workshop-462434129's option MOD_RESTART_CD_KILL with value 3	
[00:00:02]: Overriding mod workshop-462434129's option MOD_RESTART_CD_BONUS with value 0	
[00:00:02]: Overriding mod workshop-462434129's option MOD_RESTART_CD_MAX with value 0	
[00:00:02]: Overriding mod workshop-462434129's option MOD_RESTART_ALLOW_KILL with value true	
[00:00:02]: Overriding mod workshop-462434129's option MOD_RESTART_CD_RESURRECT with value 0	
[00:00:02]: Overriding mod workshop-462434129's option MOD_RESTART_FORCE_DROP_MODE with value 0	
[00:00:02]: Overriding mod workshop-462434129's option MOD_RESTART_CD_RESTART with value 5	
[00:00:02]: applying configuration_options from modoverrides.lua to mod workshop-375859599	
[00:00:02]: Overriding mod workshop-375859599's option random_range with value 0	
[00:00:02]: Overriding mod workshop-375859599's option divider with value 5	
[00:00:02]: Overriding mod workshop-375859599's option use_blacklist with value true	
[00:00:02]: Overriding mod workshop-375859599's option unknwon_prefabs with value 1	
[00:00:02]: Overriding mod workshop-375859599's option show_type with value 0	
[00:00:02]: Overriding mod workshop-375859599's option send_unknwon_prefabs with value false	
[00:00:02]: Overriding mod workshop-375859599's option random_health_value with value 0	
[00:00:02]: Loading mod: workshop-375859599 (Health Info) Version:2.2.00	
[00:00:02]: Could not load mod_config_data/modconfiguration_workshop-462434129_CLIENT	
[00:00:02]: applying configuration_options from modoverrides.lua to mod workshop-1595631294	
[00:00:02]: Overriding mod workshop-1595631294's option SaltBox with value false	
[00:00:02]: Overriding mod workshop-1595631294's option BundleItems with value false	
[00:00:02]: Overriding mod workshop-1595631294's option Digornot with value false	
[00:00:02]: Overriding mod workshop-1595631294's option Icebox with value false	
[00:00:02]: Overriding mod workshop-1595631294's option DragonflyChest with value false	
[00:00:02]: applying configuration_options from modoverrides.lua to mod workshop-378160973	
[00:00:02]: Overriding mod workshop-378160973's option FIREOPTIONS with value 2	
[00:00:02]: Overriding mod workshop-378160973's option SHOWFIREICONS with value true	
[00:00:02]: Overriding mod workshop-378160973's option SHAREMINIMAPPROGRESS with value true	
[00:00:02]: Overriding mod workshop-378160973's option SHOWPLAYERICONS with value true	
[00:00:02]: Overriding mod workshop-378160973's option OVERRIDEMODE with value false	
[00:00:02]: Overriding mod workshop-378160973's option SHOWPLAYERSOPTIONS with value 2	
[00:00:02]: Overriding mod workshop-378160973's option ENABLEPINGS with value true	
[00:00:02]: applying configuration_options from modoverrides.lua to mod workshop-347079953	
[00:00:02]: Overriding mod workshop-347079953's option DFV_Language with value EN	
[00:00:02]: Overriding mod workshop-347079953's option DFV_MinimalMode with value default	
[00:00:02]: applying configuration_options from modoverrides.lua to mod workshop-462434129	
[00:00:02]: Overriding mod workshop-462434129's option MOD_RESTART_WELCOME_TIPS with value true	
[00:00:02]: Overriding mod workshop-462434129's option MOD_RESTART_ALLOW_RESTART with value true	
[00:00:02]: Overriding mod workshop-462434129's option MOD_RESTART_WELCOME_TIPS_TIME with value 6	
[00:00:02]: Overriding mod workshop-462434129's option MOD_RESTART_ALLOW_RESURRECT with value true	
[00:00:02]: Overriding mod workshop-462434129's option MOD_RESTART_IGNORING_ADMIN with value true	
[00:00:02]: Overriding mod workshop-462434129's option MOD_RESTART_TRIGGER_MODE with value 1	
[00:00:02]: Overriding mod workshop-462434129's option MOD_RESTART_RESURRECT_HEALTH with value 0	
[00:00:02]: Overriding mod workshop-462434129's option MOD_RESTART_MAP_SAVE with value 2	
[00:00:02]: Overriding mod workshop-462434129's option MOD_RESTART_CD_KILL with value 3	
[00:00:02]: Overriding mod workshop-462434129's option MOD_RESTART_CD_BONUS with value 0	
[00:00:02]: Overriding mod workshop-462434129's option MOD_RESTART_CD_MAX with value 0	
[00:00:02]: Overriding mod workshop-462434129's option MOD_RESTART_ALLOW_KILL with value true	
[00:00:02]: Overriding mod workshop-462434129's option MOD_RESTART_CD_RESURRECT with value 0	
[00:00:02]: Overriding mod workshop-462434129's option MOD_RESTART_FORCE_DROP_MODE with value 0	
[00:00:02]: Overriding mod workshop-462434129's option MOD_RESTART_CD_RESTART with value 5	
[00:00:02]: applying configuration_options from modoverrides.lua to mod workshop-375859599	
[00:00:02]: Overriding mod workshop-375859599's option random_range with value 0	
[00:00:02]: Overriding mod workshop-375859599's option divider with value 5	
[00:00:02]: Overriding mod workshop-375859599's option use_blacklist with value true	
[00:00:02]: Overriding mod workshop-375859599's option unknwon_prefabs with value 1	
[00:00:02]: Overriding mod workshop-375859599's option show_type with value 0	
[00:00:02]: Overriding mod workshop-375859599's option send_unknwon_prefabs with value false	
[00:00:02]: Overriding mod workshop-375859599's option random_health_value with value 0	
[00:00:02]: Loading mod: workshop-462434129 (Restart) Version:0.3.2	
[00:00:02]: Could not load mod_config_data/modconfiguration_workshop-378160973_CLIENT	
[00:00:02]: applying configuration_options from modoverrides.lua to mod workshop-1595631294	
[00:00:02]: Overriding mod workshop-1595631294's option SaltBox with value false	
[00:00:02]: Overriding mod workshop-1595631294's option BundleItems with value false	
[00:00:02]: Overriding mod workshop-1595631294's option Digornot with value false	
[00:00:02]: Overriding mod workshop-1595631294's option Icebox with value false	
[00:00:02]: Overriding mod workshop-1595631294's option DragonflyChest with value false	
[00:00:02]: applying configuration_options from modoverrides.lua to mod workshop-378160973	
[00:00:02]: Overriding mod workshop-378160973's option FIREOPTIONS with value 2	
[00:00:02]: Overriding mod workshop-378160973's option SHOWFIREICONS with value true	
[00:00:02]: Overriding mod workshop-378160973's option SHAREMINIMAPPROGRESS with value true	
[00:00:02]: Overriding mod workshop-378160973's option SHOWPLAYERICONS with value true	
[00:00:02]: Overriding mod workshop-378160973's option OVERRIDEMODE with value false	
[00:00:02]: Overriding mod workshop-378160973's option SHOWPLAYERSOPTIONS with value 2	
[00:00:02]: Overriding mod workshop-378160973's option ENABLEPINGS with value true	
[00:00:02]: applying configuration_options from modoverrides.lua to mod workshop-347079953	
[00:00:02]: Overriding mod workshop-347079953's option DFV_Language with value EN	
[00:00:02]: Overriding mod workshop-347079953's option DFV_MinimalMode with value default	
[00:00:02]: applying configuration_options from modoverrides.lua to mod workshop-462434129	
[00:00:02]: Overriding mod workshop-462434129's option MOD_RESTART_WELCOME_TIPS with value true	
[00:00:02]: Overriding mod workshop-462434129's option MOD_RESTART_ALLOW_RESTART with value true	
[00:00:02]: Overriding mod workshop-462434129's option MOD_RESTART_WELCOME_TIPS_TIME with value 6	
[00:00:02]: Overriding mod workshop-462434129's option MOD_RESTART_ALLOW_RESURRECT with value true	
[00:00:02]: Overriding mod workshop-462434129's option MOD_RESTART_IGNORING_ADMIN with value true	
[00:00:02]: Overriding mod workshop-462434129's option MOD_RESTART_TRIGGER_MODE with value 1	
[00:00:02]: Overriding mod workshop-462434129's option MOD_RESTART_RESURRECT_HEALTH with value 0	
[00:00:02]: Overriding mod workshop-462434129's option MOD_RESTART_MAP_SAVE with value 2	
[00:00:02]: Overriding mod workshop-462434129's option MOD_RESTART_CD_KILL with value 3	
[00:00:02]: Overriding mod workshop-462434129's option MOD_RESTART_CD_BONUS with value 0	
[00:00:02]: Overriding mod workshop-462434129's option MOD_RESTART_CD_MAX with value 0	
[00:00:02]: Overriding mod workshop-462434129's option MOD_RESTART_ALLOW_KILL with value true	
[00:00:02]: Overriding mod workshop-462434129's option MOD_RESTART_CD_RESURRECT with value 0	
[00:00:02]: Overriding mod workshop-462434129's option MOD_RESTART_FORCE_DROP_MODE with value 0	
[00:00:02]: Overriding mod workshop-462434129's option MOD_RESTART_CD_RESTART with value 5	
[00:00:02]: applying configuration_options from modoverrides.lua to mod workshop-375859599	
[00:00:02]: Overriding mod workshop-375859599's option random_range with value 0	
[00:00:02]: Overriding mod workshop-375859599's option divider with value 5	
[00:00:02]: Overriding mod workshop-375859599's option use_blacklist with value true	
[00:00:02]: Overriding mod workshop-375859599's option unknwon_prefabs with value 1	
[00:00:02]: Overriding mod workshop-375859599's option show_type with value 0	
[00:00:02]: Overriding mod workshop-375859599's option send_unknwon_prefabs with value false	
[00:00:02]: Overriding mod workshop-375859599's option random_health_value with value 0	
[00:00:02]: Loading mod: workshop-378160973 (Global Positions) Version:1.7.3	
[00:00:02]: Could not load mod_config_data/modconfiguration_workshop-347079953_CLIENT	
[00:00:02]: applying configuration_options from modoverrides.lua to mod workshop-1595631294	
[00:00:02]: Overriding mod workshop-1595631294's option SaltBox with value false	
[00:00:02]: Overriding mod workshop-1595631294's option BundleItems with value false	
[00:00:02]: Overriding mod workshop-1595631294's option Digornot with value false	
[00:00:02]: Overriding mod workshop-1595631294's option Icebox with value false	
[00:00:02]: Overriding mod workshop-1595631294's option DragonflyChest with value false	
[00:00:02]: applying configuration_options from modoverrides.lua to mod workshop-378160973	
[00:00:02]: Overriding mod workshop-378160973's option FIREOPTIONS with value 2	
[00:00:02]: Overriding mod workshop-378160973's option SHOWFIREICONS with value true	
[00:00:02]: Overriding mod workshop-378160973's option SHAREMINIMAPPROGRESS with value true	
[00:00:02]: Overriding mod workshop-378160973's option SHOWPLAYERICONS with value true	
[00:00:02]: Overriding mod workshop-378160973's option OVERRIDEMODE with value false	
[00:00:02]: Overriding mod workshop-378160973's option SHOWPLAYERSOPTIONS with value 2	
[00:00:02]: Overriding mod workshop-378160973's option ENABLEPINGS with value true	
[00:00:02]: applying configuration_options from modoverrides.lua to mod workshop-347079953	
[00:00:02]: Overriding mod workshop-347079953's option DFV_Language with value EN	
[00:00:02]: Overriding mod workshop-347079953's option DFV_MinimalMode with value default	
[00:00:02]: applying configuration_options from modoverrides.lua to mod workshop-462434129	
[00:00:02]: Overriding mod workshop-462434129's option MOD_RESTART_WELCOME_TIPS with value true	
[00:00:02]: Overriding mod workshop-462434129's option MOD_RESTART_ALLOW_RESTART with value true	
[00:00:02]: Overriding mod workshop-462434129's option MOD_RESTART_WELCOME_TIPS_TIME with value 6	
[00:00:02]: Overriding mod workshop-462434129's option MOD_RESTART_ALLOW_RESURRECT with value true	
[00:00:02]: Overriding mod workshop-462434129's option MOD_RESTART_IGNORING_ADMIN with value true	
[00:00:02]: Overriding mod workshop-462434129's option MOD_RESTART_TRIGGER_MODE with value 1	
[00:00:02]: Overriding mod workshop-462434129's option MOD_RESTART_RESURRECT_HEALTH with value 0	
[00:00:02]: Overriding mod workshop-462434129's option MOD_RESTART_MAP_SAVE with value 2	
[00:00:02]: Overriding mod workshop-462434129's option MOD_RESTART_CD_KILL with value 3	
[00:00:02]: Overriding mod workshop-462434129's option MOD_RESTART_CD_BONUS with value 0	
[00:00:02]: Overriding mod workshop-462434129's option MOD_RESTART_CD_MAX with value 0	
[00:00:02]: Overriding mod workshop-462434129's option MOD_RESTART_ALLOW_KILL with value true	
[00:00:02]: Overriding mod workshop-462434129's option MOD_RESTART_CD_RESURRECT with value 0	
[00:00:02]: Overriding mod workshop-462434129's option MOD_RESTART_FORCE_DROP_MODE with value 0	
[00:00:02]: Overriding mod workshop-462434129's option MOD_RESTART_CD_RESTART with value 5	
[00:00:02]: applying configuration_options from modoverrides.lua to mod workshop-375859599	
[00:00:02]: Overriding mod workshop-375859599's option random_range with value 0	
[00:00:02]: Overriding mod workshop-375859599's option divider with value 5	
[00:00:02]: Overriding mod workshop-375859599's option use_blacklist with value true	
[00:00:02]: Overriding mod workshop-375859599's option unknwon_prefabs with value 1	
[00:00:02]: Overriding mod workshop-375859599's option show_type with value 0	
[00:00:02]: Overriding mod workshop-375859599's option send_unknwon_prefabs with value false	
[00:00:02]: Overriding mod workshop-375859599's option random_health_value with value 0	
[00:00:02]: Loading mod: workshop-347079953 (Display food values) Version:1.61	
[00:00:02]: Mod: workshop-347079953 (Display food values)	Loading modworldgenmain.lua	
[00:00:02]: Mod: workshop-347079953 (Display food values)	  Mod had no modworldgenmain.lua. Skipping.	
[00:00:02]: Mod: workshop-347079953 (Display food values)	Loading modmain.lua	
[00:00:02]: Mod: workshop-375859599 (Health Info)	Loading modworldgenmain.lua	
[00:00:02]: Mod: workshop-375859599 (Health Info)	  Mod had no modworldgenmain.lua. Skipping.	
[00:00:02]: Mod: workshop-375859599 (Health Info)	Loading modmain.lua	
[00:00:02]: modimport: ../mods/workshop-375859599/black_white_lists.lua	
[00:00:02]: Mod: workshop-462434129 (Restart)	Loading modworldgenmain.lua	
[00:00:02]: Mod: workshop-462434129 (Restart)	  Mod had no modworldgenmain.lua. Skipping.	
[00:00:02]: Mod: workshop-462434129 (Restart)	Loading modmain.lua	
[00:00:02]: Mod: workshop-378160973 (Global Positions)	Loading modworldgenmain.lua	
[00:00:02]: Mod: workshop-378160973 (Global Positions)	  Mod had no modworldgenmain.lua. Skipping.	
[00:00:02]: Mod: workshop-378160973 (Global Positions)	Loading modmain.lua	
[00:00:02]: ModIndex:GetModsToLoad inserting moddir, 	workshop-1595631294	
[00:00:02]: ModIndex:GetModsToLoad inserting moddir, 	workshop-375859599	
[00:00:02]: ModIndex:GetModsToLoad inserting moddir, 	workshop-462434129	
[00:00:02]: ModIndex:GetModsToLoad inserting moddir, 	workshop-378160973	
[00:00:02]: ModIndex:GetModsToLoad inserting moddir, 	workshop-347079953	
[00:00:02]: Mod: workshop-1595631294 (Smart Minisign)	Loading modworldgenmain.lua	
[00:00:02]: Mod: workshop-1595631294 (Smart Minisign)	  Mod had no modworldgenmain.lua. Skipping.	
[00:00:02]: Mod: workshop-1595631294 (Smart Minisign)	Loading modmain.lua	
[00:00:02]: Event data unavailable: lavaarena_event_server/lavaarena_achievement_quest_defs
[00:00:03]: LOADING LUA SUCCESS
[00:00:03]: Registering mod namespace "workshop-378160973"
[00:00:03]: Registering mod namespace "food item"
[00:00:03]: PlayerDeaths could not load morgue	
[00:00:03]: PlayerHistory could not load player_history	
[00:00:03]: ServerPreferences could not load server_preferences	
[00:00:03]: bloom_enabled	false	
[00:00:03]: loaded saveindex	
[00:00:03]: OnFilesLoaded()	
[00:00:03]: OnUpdatePurchaseStateComplete	
[00:00:03]: Klump load on boot started.	
[00:00:03]: Klump files loaded: 	0	
[00:00:04]: Mod: workshop-347079953 (Display food values)	Registering prefabs	
[00:00:04]: Mod: workshop-347079953 (Display food values)	  Registering default mod prefab	
[00:00:04]: Mod: workshop-375859599 (Health Info)	Registering prefabs	
[00:00:04]: Mod: workshop-375859599 (Health Info)	  Registering default mod prefab	
[00:00:04]: Mod: workshop-462434129 (Restart)	Registering prefabs	
[00:00:04]: Mod: workshop-462434129 (Restart)	  Registering default mod prefab	
[00:00:04]: Mod: workshop-378160973 (Global Positions)	Registering prefabs	
[00:00:04]: Mod: workshop-378160973 (Global Positions)	  Registering prefab file: prefabs/globalposition_classified	
[00:00:04]: Mod: workshop-378160973 (Global Positions)	    globalposition_classified	
[00:00:04]: Mod: workshop-378160973 (Global Positions)	  Registering prefab file: prefabs/smoketrail	
[00:00:04]: Mod: workshop-378160973 (Global Positions)	    smoketrail	
[00:00:04]: Mod: workshop-378160973 (Global Positions)	  Registering prefab file: prefabs/globalmapicon_noproxy	
[00:00:04]: Mod: workshop-378160973 (Global Positions)	    globalmapicon_noproxy	
[00:00:04]: Mod: workshop-378160973 (Global Positions)	  Registering prefab file: prefabs/worldmapexplorer	
[00:00:04]: Mod: workshop-378160973 (Global Positions)	    worldmapexplorer	
[00:00:04]: Mod: workshop-378160973 (Global Positions)	  Registering prefab file: prefabs/pings	
[00:00:04]: Mod: workshop-378160973 (Global Positions)	    ping_generic	
[00:00:04]: Mod: workshop-378160973 (Global Positions)	    ping_omw	
[00:00:04]: Mod: workshop-378160973 (Global Positions)	    ping_danger	
[00:00:04]: Mod: workshop-378160973 (Global Positions)	    ping_explore	
[00:00:04]: Mod: workshop-378160973 (Global Positions)	    ping_gohere	
[00:00:04]: Mod: workshop-378160973 (Global Positions)	  Registering default mod prefab	
[00:00:04]: Mod: workshop-1595631294 (Smart Minisign)	Registering prefabs	
[00:00:04]: Mod: workshop-1595631294 (Smart Minisign)	  Registering prefab file: prefabs/huaminisign	
[00:00:04]: Mod: workshop-1595631294 (Smart Minisign)	    huaminisign	
[00:00:04]: Mod: workshop-1595631294 (Smart Minisign)	  Registering default mod prefab	
[00:00:04]: 	Load FE	
[00:00:05]: THREAD - started 'FilesExistAsyncThread' (123145580064768)
[00:00:05]: FilesExistAsyncThread started (14432 files)...
[00:00:05]: 	Load FE: done	
[00:00:05]: Check for write access: TRUE
[00:00:05]: Check for read access: TRUE
[00:00:05]: ModIndex: Load sequence finished successfully.	
[00:00:05]: Reset() returning
[00:00:05]: [IPC] Signal created '/DST_Master_Kill'  #0x8c
[00:00:05]: [IPC] Registering handler for signal #0x8c
[00:00:05]: [IPC] Signal created '/DST_Master_Starting'  #0x8d
[00:00:05]: [IPC] Sending signal.... #0x8d
[00:00:05]: [IPC] Received shutdown signal.
[00:00:05]: Collecting garbage...
[00:00:05]: lua_gc took 0.05 seconds
[00:00:05]: ~ShardLuaProxy()
[00:00:05]: ~cEventLeaderboardProxy()
[00:00:05]: ~ItemServerLuaProxy()
[00:00:05]: ~InventoryLuaProxy()
[00:00:05]: ~NetworkLuaProxy()
[00:00:05]: ~SimLuaProxy()
[00:00:05]: FilesExistAsyncThread aborted.
[00:00:05]: ... FilesExistAsyncThread complete
[00:00:05]: lua_close took 0.12 seconds
[00:00:05]: Orphaned unnamed resource. This resource must have used Add( resource ) to insert itself into the manager. 
[00:00:05]: CurlRequestManager::ClientThread::Main() complete
[00:00:05]: HttpClient2 discarded 0 callbacks.
[00:00:05]: Shutting down
