[00:00:00]: PersistRootStorage is now /Users/fanrui/Documents/Klei//DoNotStarveTogether/Cluster_5/Caves/ 
[00:00:00]: Starting Up
[00:00:00]: Version: 393281
[00:00:00]: Current time: Sun Feb  9 10:47:15 2020

[00:00:00]: Don't Starve Together: 393281 OSX
[00:00:00]: Build Date: 4673
[00:00:00]: Mode: 64-bit
[00:00:00]: Parsing command line
[00:00:00]: Command Line Arguments: -console -cluster Cluster_5 -monitor_parent_process 57847 -shard Caves 
[00:00:00]: [WARNING] -console has been deprecated: Use the [MISC] / console_enabled setting instead.
[00:00:00]: Initializing distribution platform
[00:00:00]: ....Done
[00:00:00]: THREAD - started 'GAClient' (123145491709952)
[00:00:00]: CurlRequestManager::ClientThread::Main()
[00:00:00]: Mounting file system databundles/klump.zip successful.
[00:00:00]: Mounting file system databundles/shaders.zip successful.
[00:00:00]: Mounting file system databundles/fonts.zip successful.
[00:00:00]: Mounting file system databundles/anim_dynamic.zip successful.
[00:00:00]: Mounting file system databundles/bigportraits.zip successful.
[00:00:00]: Mounting file system databundles/images.zip successful.
[00:00:00]: Mounting file system databundles/scripts.zip successful.
[00:00:00]: ProfileIndex:4.39
[00:00:00]: [Connect] PendingConnection::Reset(true)
[00:00:00]: THREAD - started 'Ping Job Thread' (123145493819392)
[00:00:00]: Platform: 1
[00:00:00]: Network tick rate: U=15(2), D=0
[00:00:00]: Network tick rate: U=15(2), D=0
[00:00:00]: THREAD - started 'StreamInput' (123145495928832)
[00:00:00]: OnLoadPermissionList: /Users/fanrui/Documents/Klei//DoNotStarveTogether/Cluster_5/blocklist.txt (Failure)
[00:00:00]: OnLoadPermissionList: /Users/fanrui/Documents/Klei//DoNotStarveTogether/Cluster_5/adminlist.txt (Failure)
[00:00:00]: OnLoadUserIdList: /Users/fanrui/Documents/Klei//DoNotStarveTogether/Cluster_5/whitelist.txt (Failure)
[00:00:00]: Token retrieved from: /Users/fanrui/Documents/Klei//DoNotStarveTogether/Cluster_5/cluster_token.txt
[00:00:00]: Token retrieved from: /Users/fanrui/Documents/Klei//DoNotStarveTogether/Cluster_5/cluster_token.txt
[00:00:00]: HardwareStats:
  OS                        
    name                      Darwin
    version                   18.6.0
    platformSpecific          
    architecture              64-bit
  CPU                       
    clockSpeed                2712
    name                      Intel(R) Core(TM) i5-7200U CPU @ 2.50GHz
    manufacturer              GenuineIntel
    numCores                  2
    features                  
  RAM                       
    megsOfRam                 8192
  GPU                       
    megsOfRam                 0
    videoModeDescription      
    name                      
    driverVersion             
    driverDate                
    refreshRate               4000117664

[00:00:00]: cGame::InitializeOnMainThread
[00:00:00]: Renderer initialize: Okay
[00:00:00]: AnimManager initialize: Okay
[00:00:00]: Buffers initialize: Okay
[00:00:00]: cDontStarveGame::DoGameSpecificInitialize()
[00:00:00]: GameSpecific initialize: Okay
[00:00:00]: cGame::StartPlaying
[00:00:00]: LOADING LUA
[00:00:00]: DoLuaFile scripts/main.lua
[00:00:00]: DoLuaFile loading buffer scripts/main.lua
[00:00:00]: Translator:LoadPOFile - loading file: scripts/languages/chinese_s.po	
[00:00:02]:   taskgrouplist:	default	联机版	
[00:00:02]:   taskgrouplist:	classic	经典	
[00:00:02]:   taskgrouplist:	cave_default	地下	
[00:00:02]:   taskgrouplist:	lavaarena_taskset	熔炉	
[00:00:02]:   taskgrouplist:	quagmire_taskset	暴食	
[00:00:02]: running main.lua
	
[00:00:02]: loaded modindex	
[00:00:02]: ModIndex: Beginning normal load sequence for dedicated server.
	
[00:00:02]: DownloadMods(6)
[00:00:02]: Download server mod 378160973
[00:00:03]: Download server mod 347079953
[00:00:03]: Download server mod 375859599
[00:00:04]: Download server mod 462434129
[00:00:05]: Download server mod 1595631294
[00:00:05]: Download server mod 1898292532
[00:00:07]: ... File [server.lua]
[00:00:07]: ... File [tips.xml]
[00:00:07]: ... Directory [scripts]
[00:00:07]: ... File [modinfo_chs.lua]
[00:00:07]: ... File [modmain.lua]
[00:00:07]: ... File [tips.tex]
[00:00:07]: ... File [client.lua]
[00:00:07]: ... File [modinfo.lua]
[00:00:07]: ... Directory [components]
[00:00:07]: ... Directory [widgets]
[00:00:07]: ... File [tips.lua]
[00:00:07]: DelDirectory [../mods/workshop-1898292532/scripts/components] 0: ok.
[00:00:07]: ... File [tipsbadge.lua]
[00:00:07]: DelDirectory [../mods/workshop-1898292532/scripts/widgets] 0: ok.
[00:00:07]: DelDirectory [../mods/workshop-1898292532/scripts] 0: ok.
[00:00:07]: DelDirectory [../mods/workshop-1898292532] 0: ok.
[00:00:07]: cWorkshopMod::UnzipMod ../mods/workshop-1898292532
[00:00:07]: modoverrides.lua enabling workshop-1595631294	
[00:00:07]: modoverrides.lua enabling workshop-1898292532	
[00:00:07]: modoverrides.lua enabling workshop-378160973	
[00:00:07]: modoverrides.lua enabling workshop-347079953	
[00:00:07]: modoverrides.lua enabling workshop-462434129	
[00:00:07]: modoverrides.lua enabling workshop-375859599	
[00:00:07]: ModIndex:GetModsToLoad inserting moddir, 	workshop-1595631294	
[00:00:07]: ModIndex:GetModsToLoad inserting moddir, 	workshop-375859599	
[00:00:07]: ModIndex:GetModsToLoad inserting moddir, 	workshop-462434129	
[00:00:07]: ModIndex:GetModsToLoad inserting moddir, 	workshop-378160973	
[00:00:07]: ModIndex:GetModsToLoad inserting moddir, 	workshop-1898292532	
[00:00:07]: ModIndex:GetModsToLoad inserting moddir, 	workshop-347079953	
[00:00:07]: Could not load mod_config_data/modconfiguration_workshop-1595631294_CLIENT	
[00:00:07]: applying configuration_options from modoverrides.lua to mod workshop-1595631294	
[00:00:07]: Overriding mod workshop-1595631294's option SaltBox with value false	
[00:00:07]: Overriding mod workshop-1595631294's option BundleItems with value false	
[00:00:07]: Overriding mod workshop-1595631294's option Digornot with value false	
[00:00:07]: Overriding mod workshop-1595631294's option Icebox with value false	
[00:00:07]: Overriding mod workshop-1595631294's option DragonflyChest with value false	
[00:00:07]: applying configuration_options from modoverrides.lua to mod workshop-1898292532	
[00:00:07]: Overriding mod workshop-1898292532's option tips_method with value 1	
[00:00:07]: Overriding mod workshop-1898292532's option tick_rate with value 1	
[00:00:07]: applying configuration_options from modoverrides.lua to mod workshop-378160973	
[00:00:07]: Overriding mod workshop-378160973's option FIREOPTIONS with value 2	
[00:00:07]: Overriding mod workshop-378160973's option SHOWFIREICONS with value true	
[00:00:07]: Overriding mod workshop-378160973's option SHAREMINIMAPPROGRESS with value true	
[00:00:07]: Overriding mod workshop-378160973's option SHOWPLAYERICONS with value true	
[00:00:07]: Overriding mod workshop-378160973's option OVERRIDEMODE with value false	
[00:00:07]: Overriding mod workshop-378160973's option SHOWPLAYERSOPTIONS with value 2	
[00:00:07]: Overriding mod workshop-378160973's option ENABLEPINGS with value true	
[00:00:07]: applying configuration_options from modoverrides.lua to mod workshop-347079953	
[00:00:07]: Overriding mod workshop-347079953's option DFV_Language with value EN	
[00:00:07]: Overriding mod workshop-347079953's option DFV_MinimalMode with value default	
[00:00:07]: applying configuration_options from modoverrides.lua to mod workshop-462434129	
[00:00:07]: Overriding mod workshop-462434129's option MOD_RESTART_WELCOME_TIPS with value true	
[00:00:07]: Overriding mod workshop-462434129's option MOD_RESTART_ALLOW_RESTART with value true	
[00:00:07]: Overriding mod workshop-462434129's option MOD_RESTART_WELCOME_TIPS_TIME with value 6	
[00:00:07]: Overriding mod workshop-462434129's option MOD_RESTART_ALLOW_RESURRECT with value true	
[00:00:07]: Overriding mod workshop-462434129's option MOD_RESTART_IGNORING_ADMIN with value true	
[00:00:07]: Overriding mod workshop-462434129's option MOD_RESTART_TRIGGER_MODE with value 1	
[00:00:07]: Overriding mod workshop-462434129's option MOD_RESTART_RESURRECT_HEALTH with value 0	
[00:00:07]: Overriding mod workshop-462434129's option MOD_RESTART_MAP_SAVE with value 2	
[00:00:07]: Overriding mod workshop-462434129's option MOD_RESTART_CD_KILL with value 3	
[00:00:07]: Overriding mod workshop-462434129's option MOD_RESTART_CD_BONUS with value 0	
[00:00:07]: Overriding mod workshop-462434129's option MOD_RESTART_CD_MAX with value 0	
[00:00:07]: Overriding mod workshop-462434129's option MOD_RESTART_ALLOW_KILL with value true	
[00:00:07]: Overriding mod workshop-462434129's option MOD_RESTART_CD_RESURRECT with value 0	
[00:00:07]: Overriding mod workshop-462434129's option MOD_RESTART_FORCE_DROP_MODE with value 0	
[00:00:07]: Overriding mod workshop-462434129's option MOD_RESTART_CD_RESTART with value 5	
[00:00:07]: applying configuration_options from modoverrides.lua to mod workshop-375859599	
[00:00:07]: Overriding mod workshop-375859599's option random_range with value 0	
[00:00:07]: Overriding mod workshop-375859599's option divider with value 5	
[00:00:07]: Overriding mod workshop-375859599's option use_blacklist with value true	
[00:00:07]: Overriding mod workshop-375859599's option unknwon_prefabs with value 1	
[00:00:07]: Overriding mod workshop-375859599's option show_type with value 0	
[00:00:07]: Overriding mod workshop-375859599's option send_unknwon_prefabs with value false	
[00:00:07]: Overriding mod workshop-375859599's option random_health_value with value 0	
[00:00:07]: Loading mod: workshop-1595631294 (Smart Minisign) Version:1.1.3	
[00:00:07]: Could not load mod_config_data/modconfiguration_workshop-375859599_CLIENT	
[00:00:07]: applying configuration_options from modoverrides.lua to mod workshop-1595631294	
[00:00:07]: Overriding mod workshop-1595631294's option SaltBox with value false	
[00:00:07]: Overriding mod workshop-1595631294's option BundleItems with value false	
[00:00:07]: Overriding mod workshop-1595631294's option Digornot with value false	
[00:00:07]: Overriding mod workshop-1595631294's option Icebox with value false	
[00:00:07]: Overriding mod workshop-1595631294's option DragonflyChest with value false	
[00:00:07]: applying configuration_options from modoverrides.lua to mod workshop-1898292532	
[00:00:07]: Overriding mod workshop-1898292532's option tips_method with value 1	
[00:00:07]: Overriding mod workshop-1898292532's option tick_rate with value 1	
[00:00:07]: applying configuration_options from modoverrides.lua to mod workshop-378160973	
[00:00:07]: Overriding mod workshop-378160973's option FIREOPTIONS with value 2	
[00:00:07]: Overriding mod workshop-378160973's option SHOWFIREICONS with value true	
[00:00:07]: Overriding mod workshop-378160973's option SHAREMINIMAPPROGRESS with value true	
[00:00:07]: Overriding mod workshop-378160973's option SHOWPLAYERICONS with value true	
[00:00:07]: Overriding mod workshop-378160973's option OVERRIDEMODE with value false	
[00:00:07]: Overriding mod workshop-378160973's option SHOWPLAYERSOPTIONS with value 2	
[00:00:07]: Overriding mod workshop-378160973's option ENABLEPINGS with value true	
[00:00:07]: applying configuration_options from modoverrides.lua to mod workshop-347079953	
[00:00:07]: Overriding mod workshop-347079953's option DFV_Language with value EN	
[00:00:07]: Overriding mod workshop-347079953's option DFV_MinimalMode with value default	
[00:00:07]: applying configuration_options from modoverrides.lua to mod workshop-462434129	
[00:00:07]: Overriding mod workshop-462434129's option MOD_RESTART_WELCOME_TIPS with value true	
[00:00:07]: Overriding mod workshop-462434129's option MOD_RESTART_ALLOW_RESTART with value true	
[00:00:07]: Overriding mod workshop-462434129's option MOD_RESTART_WELCOME_TIPS_TIME with value 6	
[00:00:07]: Overriding mod workshop-462434129's option MOD_RESTART_ALLOW_RESURRECT with value true	
[00:00:07]: Overriding mod workshop-462434129's option MOD_RESTART_IGNORING_ADMIN with value true	
[00:00:07]: Overriding mod workshop-462434129's option MOD_RESTART_TRIGGER_MODE with value 1	
[00:00:07]: Overriding mod workshop-462434129's option MOD_RESTART_RESURRECT_HEALTH with value 0	
[00:00:07]: Overriding mod workshop-462434129's option MOD_RESTART_MAP_SAVE with value 2	
[00:00:07]: Overriding mod workshop-462434129's option MOD_RESTART_CD_KILL with value 3	
[00:00:07]: Overriding mod workshop-462434129's option MOD_RESTART_CD_BONUS with value 0	
[00:00:07]: Overriding mod workshop-462434129's option MOD_RESTART_CD_MAX with value 0	
[00:00:07]: Overriding mod workshop-462434129's option MOD_RESTART_ALLOW_KILL with value true	
[00:00:07]: Overriding mod workshop-462434129's option MOD_RESTART_CD_RESURRECT with value 0	
[00:00:07]: Overriding mod workshop-462434129's option MOD_RESTART_FORCE_DROP_MODE with value 0	
[00:00:07]: Overriding mod workshop-462434129's option MOD_RESTART_CD_RESTART with value 5	
[00:00:07]: applying configuration_options from modoverrides.lua to mod workshop-375859599	
[00:00:07]: Overriding mod workshop-375859599's option random_range with value 0	
[00:00:07]: Overriding mod workshop-375859599's option divider with value 5	
[00:00:07]: Overriding mod workshop-375859599's option use_blacklist with value true	
[00:00:07]: Overriding mod workshop-375859599's option unknwon_prefabs with value 1	
[00:00:07]: Overriding mod workshop-375859599's option show_type with value 0	
[00:00:07]: Overriding mod workshop-375859599's option send_unknwon_prefabs with value false	
[00:00:07]: Overriding mod workshop-375859599's option random_health_value with value 0	
[00:00:07]: Loading mod: workshop-375859599 (Health Info) Version:2.2.00	
[00:00:07]: Could not load mod_config_data/modconfiguration_workshop-462434129_CLIENT	
[00:00:07]: applying configuration_options from modoverrides.lua to mod workshop-1595631294	
[00:00:07]: Overriding mod workshop-1595631294's option SaltBox with value false	
[00:00:07]: Overriding mod workshop-1595631294's option BundleItems with value false	
[00:00:07]: Overriding mod workshop-1595631294's option Digornot with value false	
[00:00:07]: Overriding mod workshop-1595631294's option Icebox with value false	
[00:00:07]: Overriding mod workshop-1595631294's option DragonflyChest with value false	
[00:00:07]: applying configuration_options from modoverrides.lua to mod workshop-1898292532	
[00:00:07]: Overriding mod workshop-1898292532's option tips_method with value 1	
[00:00:07]: Overriding mod workshop-1898292532's option tick_rate with value 1	
[00:00:07]: applying configuration_options from modoverrides.lua to mod workshop-378160973	
[00:00:07]: Overriding mod workshop-378160973's option FIREOPTIONS with value 2	
[00:00:07]: Overriding mod workshop-378160973's option SHOWFIREICONS with value true	
[00:00:07]: Overriding mod workshop-378160973's option SHAREMINIMAPPROGRESS with value true	
[00:00:07]: Overriding mod workshop-378160973's option SHOWPLAYERICONS with value true	
[00:00:07]: Overriding mod workshop-378160973's option OVERRIDEMODE with value false	
[00:00:07]: Overriding mod workshop-378160973's option SHOWPLAYERSOPTIONS with value 2	
[00:00:07]: Overriding mod workshop-378160973's option ENABLEPINGS with value true	
[00:00:07]: applying configuration_options from modoverrides.lua to mod workshop-347079953	
[00:00:07]: Overriding mod workshop-347079953's option DFV_Language with value EN	
[00:00:07]: Overriding mod workshop-347079953's option DFV_MinimalMode with value default	
[00:00:07]: applying configuration_options from modoverrides.lua to mod workshop-462434129	
[00:00:07]: Overriding mod workshop-462434129's option MOD_RESTART_WELCOME_TIPS with value true	
[00:00:07]: Overriding mod workshop-462434129's option MOD_RESTART_ALLOW_RESTART with value true	
[00:00:07]: Overriding mod workshop-462434129's option MOD_RESTART_WELCOME_TIPS_TIME with value 6	
[00:00:07]: Overriding mod workshop-462434129's option MOD_RESTART_ALLOW_RESURRECT with value true	
[00:00:07]: Overriding mod workshop-462434129's option MOD_RESTART_IGNORING_ADMIN with value true	
[00:00:07]: Overriding mod workshop-462434129's option MOD_RESTART_TRIGGER_MODE with value 1	
[00:00:07]: Overriding mod workshop-462434129's option MOD_RESTART_RESURRECT_HEALTH with value 0	
[00:00:07]: Overriding mod workshop-462434129's option MOD_RESTART_MAP_SAVE with value 2	
[00:00:07]: Overriding mod workshop-462434129's option MOD_RESTART_CD_KILL with value 3	
[00:00:07]: Overriding mod workshop-462434129's option MOD_RESTART_CD_BONUS with value 0	
[00:00:07]: Overriding mod workshop-462434129's option MOD_RESTART_CD_MAX with value 0	
[00:00:07]: Overriding mod workshop-462434129's option MOD_RESTART_ALLOW_KILL with value true	
[00:00:07]: Overriding mod workshop-462434129's option MOD_RESTART_CD_RESURRECT with value 0	
[00:00:07]: Overriding mod workshop-462434129's option MOD_RESTART_FORCE_DROP_MODE with value 0	
[00:00:07]: Overriding mod workshop-462434129's option MOD_RESTART_CD_RESTART with value 5	
[00:00:07]: applying configuration_options from modoverrides.lua to mod workshop-375859599	
[00:00:07]: Overriding mod workshop-375859599's option random_range with value 0	
[00:00:07]: Overriding mod workshop-375859599's option divider with value 5	
[00:00:07]: Overriding mod workshop-375859599's option use_blacklist with value true	
[00:00:07]: Overriding mod workshop-375859599's option unknwon_prefabs with value 1	
[00:00:07]: Overriding mod workshop-375859599's option show_type with value 0	
[00:00:07]: Overriding mod workshop-375859599's option send_unknwon_prefabs with value false	
[00:00:07]: Overriding mod workshop-375859599's option random_health_value with value 0	
[00:00:07]: Loading mod: workshop-462434129 (Restart) Version:0.3.2	
[00:00:07]: Could not load mod_config_data/modconfiguration_workshop-378160973_CLIENT	
[00:00:07]: applying configuration_options from modoverrides.lua to mod workshop-1595631294	
[00:00:07]: Overriding mod workshop-1595631294's option SaltBox with value false	
[00:00:07]: Overriding mod workshop-1595631294's option BundleItems with value false	
[00:00:07]: Overriding mod workshop-1595631294's option Digornot with value false	
[00:00:07]: Overriding mod workshop-1595631294's option Icebox with value false	
[00:00:07]: Overriding mod workshop-1595631294's option DragonflyChest with value false	
[00:00:07]: applying configuration_options from modoverrides.lua to mod workshop-1898292532	
[00:00:07]: Overriding mod workshop-1898292532's option tips_method with value 1	
[00:00:07]: Overriding mod workshop-1898292532's option tick_rate with value 1	
[00:00:07]: applying configuration_options from modoverrides.lua to mod workshop-378160973	
[00:00:07]: Overriding mod workshop-378160973's option FIREOPTIONS with value 2	
[00:00:07]: Overriding mod workshop-378160973's option SHOWFIREICONS with value true	
[00:00:07]: Overriding mod workshop-378160973's option SHAREMINIMAPPROGRESS with value true	
[00:00:07]: Overriding mod workshop-378160973's option SHOWPLAYERICONS with value true	
[00:00:07]: Overriding mod workshop-378160973's option OVERRIDEMODE with value false	
[00:00:07]: Overriding mod workshop-378160973's option SHOWPLAYERSOPTIONS with value 2	
[00:00:07]: Overriding mod workshop-378160973's option ENABLEPINGS with value true	
[00:00:07]: applying configuration_options from modoverrides.lua to mod workshop-347079953	
[00:00:07]: Overriding mod workshop-347079953's option DFV_Language with value EN	
[00:00:07]: Overriding mod workshop-347079953's option DFV_MinimalMode with value default	
[00:00:07]: applying configuration_options from modoverrides.lua to mod workshop-462434129	
[00:00:07]: Overriding mod workshop-462434129's option MOD_RESTART_WELCOME_TIPS with value true	
[00:00:07]: Overriding mod workshop-462434129's option MOD_RESTART_ALLOW_RESTART with value true	
[00:00:07]: Overriding mod workshop-462434129's option MOD_RESTART_WELCOME_TIPS_TIME with value 6	
[00:00:07]: Overriding mod workshop-462434129's option MOD_RESTART_ALLOW_RESURRECT with value true	
[00:00:07]: Overriding mod workshop-462434129's option MOD_RESTART_IGNORING_ADMIN with value true	
[00:00:07]: Overriding mod workshop-462434129's option MOD_RESTART_TRIGGER_MODE with value 1	
[00:00:07]: Overriding mod workshop-462434129's option MOD_RESTART_RESURRECT_HEALTH with value 0	
[00:00:07]: Overriding mod workshop-462434129's option MOD_RESTART_MAP_SAVE with value 2	
[00:00:07]: Overriding mod workshop-462434129's option MOD_RESTART_CD_KILL with value 3	
[00:00:07]: Overriding mod workshop-462434129's option MOD_RESTART_CD_BONUS with value 0	
[00:00:07]: Overriding mod workshop-462434129's option MOD_RESTART_CD_MAX with value 0	
[00:00:07]: Overriding mod workshop-462434129's option MOD_RESTART_ALLOW_KILL with value true	
[00:00:07]: Overriding mod workshop-462434129's option MOD_RESTART_CD_RESURRECT with value 0	
[00:00:07]: Overriding mod workshop-462434129's option MOD_RESTART_FORCE_DROP_MODE with value 0	
[00:00:07]: Overriding mod workshop-462434129's option MOD_RESTART_CD_RESTART with value 5	
[00:00:07]: applying configuration_options from modoverrides.lua to mod workshop-375859599	
[00:00:07]: Overriding mod workshop-375859599's option random_range with value 0	
[00:00:07]: Overriding mod workshop-375859599's option divider with value 5	
[00:00:07]: Overriding mod workshop-375859599's option use_blacklist with value true	
[00:00:07]: Overriding mod workshop-375859599's option unknwon_prefabs with value 1	
[00:00:07]: Overriding mod workshop-375859599's option show_type with value 0	
[00:00:07]: Overriding mod workshop-375859599's option send_unknwon_prefabs with value false	
[00:00:07]: Overriding mod workshop-375859599's option random_health_value with value 0	
[00:00:07]: Loading mod: workshop-378160973 (Global Positions) Version:1.7.3	
[00:00:07]: Could not load mod_config_data/modconfiguration_workshop-1898292532_CLIENT	
[00:00:07]: applying configuration_options from modoverrides.lua to mod workshop-1595631294	
[00:00:07]: Overriding mod workshop-1595631294's option SaltBox with value false	
[00:00:07]: Overriding mod workshop-1595631294's option BundleItems with value false	
[00:00:07]: Overriding mod workshop-1595631294's option Digornot with value false	
[00:00:07]: Overriding mod workshop-1595631294's option Icebox with value false	
[00:00:07]: Overriding mod workshop-1595631294's option DragonflyChest with value false	
[00:00:07]: applying configuration_options from modoverrides.lua to mod workshop-1898292532	
[00:00:07]: Overriding mod workshop-1898292532's option tips_method with value 1	
[00:00:07]: Overriding mod workshop-1898292532's option tick_rate with value 1	
[00:00:07]: applying configuration_options from modoverrides.lua to mod workshop-378160973	
[00:00:07]: Overriding mod workshop-378160973's option FIREOPTIONS with value 2	
[00:00:07]: Overriding mod workshop-378160973's option SHOWFIREICONS with value true	
[00:00:07]: Overriding mod workshop-378160973's option SHAREMINIMAPPROGRESS with value true	
[00:00:07]: Overriding mod workshop-378160973's option SHOWPLAYERICONS with value true	
[00:00:07]: Overriding mod workshop-378160973's option OVERRIDEMODE with value false	
[00:00:07]: Overriding mod workshop-378160973's option SHOWPLAYERSOPTIONS with value 2	
[00:00:07]: Overriding mod workshop-378160973's option ENABLEPINGS with value true	
[00:00:07]: applying configuration_options from modoverrides.lua to mod workshop-347079953	
[00:00:07]: Overriding mod workshop-347079953's option DFV_Language with value EN	
[00:00:07]: Overriding mod workshop-347079953's option DFV_MinimalMode with value default	
[00:00:07]: applying configuration_options from modoverrides.lua to mod workshop-462434129	
[00:00:07]: Overriding mod workshop-462434129's option MOD_RESTART_WELCOME_TIPS with value true	
[00:00:07]: Overriding mod workshop-462434129's option MOD_RESTART_ALLOW_RESTART with value true	
[00:00:07]: Overriding mod workshop-462434129's option MOD_RESTART_WELCOME_TIPS_TIME with value 6	
[00:00:07]: Overriding mod workshop-462434129's option MOD_RESTART_ALLOW_RESURRECT with value true	
[00:00:07]: Overriding mod workshop-462434129's option MOD_RESTART_IGNORING_ADMIN with value true	
[00:00:07]: Overriding mod workshop-462434129's option MOD_RESTART_TRIGGER_MODE with value 1	
[00:00:07]: Overriding mod workshop-462434129's option MOD_RESTART_RESURRECT_HEALTH with value 0	
[00:00:07]: Overriding mod workshop-462434129's option MOD_RESTART_MAP_SAVE with value 2	
[00:00:07]: Overriding mod workshop-462434129's option MOD_RESTART_CD_KILL with value 3	
[00:00:07]: Overriding mod workshop-462434129's option MOD_RESTART_CD_BONUS with value 0	
[00:00:07]: Overriding mod workshop-462434129's option MOD_RESTART_CD_MAX with value 0	
[00:00:07]: Overriding mod workshop-462434129's option MOD_RESTART_ALLOW_KILL with value true	
[00:00:07]: Overriding mod workshop-462434129's option MOD_RESTART_CD_RESURRECT with value 0	
[00:00:07]: Overriding mod workshop-462434129's option MOD_RESTART_FORCE_DROP_MODE with value 0	
[00:00:07]: Overriding mod workshop-462434129's option MOD_RESTART_CD_RESTART with value 5	
[00:00:07]: applying configuration_options from modoverrides.lua to mod workshop-375859599	
[00:00:07]: Overriding mod workshop-375859599's option random_range with value 0	
[00:00:07]: Overriding mod workshop-375859599's option divider with value 5	
[00:00:07]: Overriding mod workshop-375859599's option use_blacklist with value true	
[00:00:07]: Overriding mod workshop-375859599's option unknwon_prefabs with value 1	
[00:00:07]: Overriding mod workshop-375859599's option show_type with value 0	
[00:00:07]: Overriding mod workshop-375859599's option send_unknwon_prefabs with value false	
[00:00:07]: Overriding mod workshop-375859599's option random_health_value with value 0	
[00:00:07]: Loading mod: workshop-1898292532 (Tips) Version:1.3.4	
[00:00:07]: Could not load mod_config_data/modconfiguration_workshop-347079953_CLIENT	
[00:00:07]: applying configuration_options from modoverrides.lua to mod workshop-1595631294	
[00:00:07]: Overriding mod workshop-1595631294's option SaltBox with value false	
[00:00:07]: Overriding mod workshop-1595631294's option BundleItems with value false	
[00:00:07]: Overriding mod workshop-1595631294's option Digornot with value false	
[00:00:07]: Overriding mod workshop-1595631294's option Icebox with value false	
[00:00:07]: Overriding mod workshop-1595631294's option DragonflyChest with value false	
[00:00:07]: applying configuration_options from modoverrides.lua to mod workshop-1898292532	
[00:00:07]: Overriding mod workshop-1898292532's option tips_method with value 1	
[00:00:07]: Overriding mod workshop-1898292532's option tick_rate with value 1	
[00:00:07]: applying configuration_options from modoverrides.lua to mod workshop-378160973	
[00:00:07]: Overriding mod workshop-378160973's option FIREOPTIONS with value 2	
[00:00:07]: Overriding mod workshop-378160973's option SHOWFIREICONS with value true	
[00:00:07]: Overriding mod workshop-378160973's option SHAREMINIMAPPROGRESS with value true	
[00:00:07]: Overriding mod workshop-378160973's option SHOWPLAYERICONS with value true	
[00:00:07]: Overriding mod workshop-378160973's option OVERRIDEMODE with value false	
[00:00:07]: Overriding mod workshop-378160973's option SHOWPLAYERSOPTIONS with value 2	
[00:00:07]: Overriding mod workshop-378160973's option ENABLEPINGS with value true	
[00:00:07]: applying configuration_options from modoverrides.lua to mod workshop-347079953	
[00:00:07]: Overriding mod workshop-347079953's option DFV_Language with value EN	
[00:00:07]: Overriding mod workshop-347079953's option DFV_MinimalMode with value default	
[00:00:07]: applying configuration_options from modoverrides.lua to mod workshop-462434129	
[00:00:07]: Overriding mod workshop-462434129's option MOD_RESTART_WELCOME_TIPS with value true	
[00:00:07]: Overriding mod workshop-462434129's option MOD_RESTART_ALLOW_RESTART with value true	
[00:00:07]: Overriding mod workshop-462434129's option MOD_RESTART_WELCOME_TIPS_TIME with value 6	
[00:00:07]: Overriding mod workshop-462434129's option MOD_RESTART_ALLOW_RESURRECT with value true	
[00:00:07]: Overriding mod workshop-462434129's option MOD_RESTART_IGNORING_ADMIN with value true	
[00:00:07]: Overriding mod workshop-462434129's option MOD_RESTART_TRIGGER_MODE with value 1	
[00:00:07]: Overriding mod workshop-462434129's option MOD_RESTART_RESURRECT_HEALTH with value 0	
[00:00:07]: Overriding mod workshop-462434129's option MOD_RESTART_MAP_SAVE with value 2	
[00:00:07]: Overriding mod workshop-462434129's option MOD_RESTART_CD_KILL with value 3	
[00:00:07]: Overriding mod workshop-462434129's option MOD_RESTART_CD_BONUS with value 0	
[00:00:07]: Overriding mod workshop-462434129's option MOD_RESTART_CD_MAX with value 0	
[00:00:07]: Overriding mod workshop-462434129's option MOD_RESTART_ALLOW_KILL with value true	
[00:00:07]: Overriding mod workshop-462434129's option MOD_RESTART_CD_RESURRECT with value 0	
[00:00:07]: Overriding mod workshop-462434129's option MOD_RESTART_FORCE_DROP_MODE with value 0	
[00:00:07]: Overriding mod workshop-462434129's option MOD_RESTART_CD_RESTART with value 5	
[00:00:07]: applying configuration_options from modoverrides.lua to mod workshop-375859599	
[00:00:07]: Overriding mod workshop-375859599's option random_range with value 0	
[00:00:07]: Overriding mod workshop-375859599's option divider with value 5	
[00:00:07]: Overriding mod workshop-375859599's option use_blacklist with value true	
[00:00:07]: Overriding mod workshop-375859599's option unknwon_prefabs with value 1	
[00:00:07]: Overriding mod workshop-375859599's option show_type with value 0	
[00:00:07]: Overriding mod workshop-375859599's option send_unknwon_prefabs with value false	
[00:00:07]: Overriding mod workshop-375859599's option random_health_value with value 0	
[00:00:07]: Loading mod: workshop-347079953 (Display food values) Version:1.61	
[00:00:07]: Mod: workshop-347079953 (Display food values)	Loading modworldgenmain.lua	
[00:00:07]: Mod: workshop-347079953 (Display food values)	  Mod had no modworldgenmain.lua. Skipping.	
[00:00:07]: Mod: workshop-347079953 (Display food values)	Loading modmain.lua	
[00:00:07]: Mod: workshop-375859599 (Health Info)	Loading modworldgenmain.lua	
[00:00:07]: Mod: workshop-375859599 (Health Info)	  Mod had no modworldgenmain.lua. Skipping.	
[00:00:07]: Mod: workshop-375859599 (Health Info)	Loading modmain.lua	
[00:00:07]: modimport: ../mods/workshop-375859599/black_white_lists.lua	
[00:00:07]: Mod: workshop-1898292532 (Tips)	Loading modworldgenmain.lua	
[00:00:07]: Mod: workshop-1898292532 (Tips)	  Mod had no modworldgenmain.lua. Skipping.	
[00:00:07]: Mod: workshop-1898292532 (Tips)	Loading modmain.lua	
[00:00:07]: Mod: workshop-462434129 (Restart)	Loading modworldgenmain.lua	
[00:00:07]: Mod: workshop-462434129 (Restart)	  Mod had no modworldgenmain.lua. Skipping.	
[00:00:07]: Mod: workshop-462434129 (Restart)	Loading modmain.lua	
[00:00:07]: Mod: workshop-378160973 (Global Positions)	Loading modworldgenmain.lua	
[00:00:07]: Mod: workshop-378160973 (Global Positions)	  Mod had no modworldgenmain.lua. Skipping.	
[00:00:07]: Mod: workshop-378160973 (Global Positions)	Loading modmain.lua	
[00:00:07]: ModIndex:GetModsToLoad inserting moddir, 	workshop-1595631294	
[00:00:07]: ModIndex:GetModsToLoad inserting moddir, 	workshop-375859599	
[00:00:07]: ModIndex:GetModsToLoad inserting moddir, 	workshop-462434129	
[00:00:07]: ModIndex:GetModsToLoad inserting moddir, 	workshop-378160973	
[00:00:07]: ModIndex:GetModsToLoad inserting moddir, 	workshop-1898292532	
[00:00:07]: ModIndex:GetModsToLoad inserting moddir, 	workshop-347079953	
[00:00:07]: Mod: workshop-1595631294 (Smart Minisign)	Loading modworldgenmain.lua	
[00:00:07]: Mod: workshop-1595631294 (Smart Minisign)	  Mod had no modworldgenmain.lua. Skipping.	
[00:00:07]: Mod: workshop-1595631294 (Smart Minisign)	Loading modmain.lua	
[00:00:08]: Event data unavailable: lavaarena_event_server/lavaarena_achievement_quest_defs
[00:00:09]: LOADING LUA SUCCESS
[00:00:09]: Registering mod namespace "food item"
[00:00:09]: Registering mod namespace "workshop-378160973"
[00:00:09]: Registering mod namespace "tips"
[00:00:09]: PlayerDeaths could not load morgue	
[00:00:09]: PlayerHistory could not load player_history	
[00:00:09]: ServerPreferences could not load server_preferences	
[00:00:09]: bloom_enabled	false	
[00:00:09]: loaded saveindex	
[00:00:09]: OnFilesLoaded()	
[00:00:09]: OnUpdatePurchaseStateComplete	
[00:00:09]: Klump load on boot started.	
[00:00:09]: Klump files loaded: 	0	
[00:00:10]: Mod: workshop-347079953 (Display food values)	Registering prefabs	
[00:00:10]: Mod: workshop-347079953 (Display food values)	  Registering default mod prefab	
[00:00:10]: Mod: workshop-375859599 (Health Info)	Registering prefabs	
[00:00:10]: Mod: workshop-375859599 (Health Info)	  Registering default mod prefab	
[00:00:10]: Mod: workshop-1898292532 (Tips)	Registering prefabs	
[00:00:10]: Mod: workshop-1898292532 (Tips)	  Registering default mod prefab	
[00:00:10]: Mod: workshop-462434129 (Restart)	Registering prefabs	
[00:00:10]: Mod: workshop-462434129 (Restart)	  Registering default mod prefab	
[00:00:10]: Mod: workshop-378160973 (Global Positions)	Registering prefabs	
[00:00:10]: Mod: workshop-378160973 (Global Positions)	  Registering prefab file: prefabs/globalposition_classified	
[00:00:10]: Mod: workshop-378160973 (Global Positions)	    globalposition_classified	
[00:00:10]: Mod: workshop-378160973 (Global Positions)	  Registering prefab file: prefabs/smoketrail	
[00:00:10]: Mod: workshop-378160973 (Global Positions)	    smoketrail	
[00:00:10]: Mod: workshop-378160973 (Global Positions)	  Registering prefab file: prefabs/globalmapicon_noproxy	
[00:00:10]: Mod: workshop-378160973 (Global Positions)	    globalmapicon_noproxy	
[00:00:10]: Mod: workshop-378160973 (Global Positions)	  Registering prefab file: prefabs/worldmapexplorer	
[00:00:10]: Mod: workshop-378160973 (Global Positions)	    worldmapexplorer	
[00:00:10]: Mod: workshop-378160973 (Global Positions)	  Registering prefab file: prefabs/pings	
[00:00:10]: Mod: workshop-378160973 (Global Positions)	    ping_generic	
[00:00:10]: Mod: workshop-378160973 (Global Positions)	    ping_omw	
[00:00:10]: Mod: workshop-378160973 (Global Positions)	    ping_danger	
[00:00:10]: Mod: workshop-378160973 (Global Positions)	    ping_explore	
[00:00:10]: Mod: workshop-378160973 (Global Positions)	    ping_gohere	
[00:00:10]: Mod: workshop-378160973 (Global Positions)	  Registering default mod prefab	
[00:00:10]: Mod: workshop-1595631294 (Smart Minisign)	Registering prefabs	
[00:00:10]: Mod: workshop-1595631294 (Smart Minisign)	  Registering prefab file: prefabs/huaminisign	
[00:00:10]: Mod: workshop-1595631294 (Smart Minisign)	    huaminisign	
[00:00:10]: Mod: workshop-1595631294 (Smart Minisign)	  Registering default mod prefab	
[00:00:10]: 	Load FE	
[00:00:10]: THREAD - started 'FilesExistAsyncThread' (123145498038272)
[00:00:10]: FilesExistAsyncThread started (14432 files)...
[00:00:10]: 	Load FE: done	
[00:00:10]: Check for write access: TRUE
[00:00:10]: Check for read access: TRUE
[00:00:10]: ModIndex: Load sequence finished successfully.	
[00:00:10]: Reset() returning
[00:00:11]: ... FilesExistAsyncThread complete
[00:00:12]: [200] Account Communication Success (6)
[00:00:12]: Received (KU_-9FqBPy9) from TokenPurpose
[00:00:12]: Starting Dedicated Server Game	
[00:00:12]: Network tick rate: U=15(2), D=0
[00:00:12]: About to start a server with the following settings:
[00:00:12]:   Dedicated: true
[00:00:12]:   Online: true
[00:00:12]:   Passworded: true
[00:00:12]:   ServerPort: 10998
[00:00:12]:   SteamAuthPort: 8767
[00:00:12]:   SteamMasterServerPort: 27017
[00:00:12]:   ClanID: false
[00:00:12]:   ClanOnly: false
[00:00:12]:   ClanAdmin: false
[00:00:12]:   LanOnly: false
[00:00:12]:   FriendsOnly: false
[00:00:12]:   EnableAutosaver: true
[00:00:12]:   EncodeUserPath: true
[00:00:12]:   PVP: false
[00:00:12]:   MaxPlayers: 6
[00:00:12]:   GameMode: survival
[00:00:12]:   OverridenDNS: 
[00:00:12]:   PauseWhenEmpty: true
[00:00:12]:   IdleTimeout: 1800s
[00:00:12]:   VoteEnabled: true
[00:00:12]:   InternetBroadcasting: true
[00:00:12]:   Intent: social
[00:00:12]: Could not load mod_config_data/modconfiguration_workshop-378160973	
[00:00:12]: Could not load mod_config_data/modconfiguration_workshop-1898292532	
[00:00:12]: Could not load mod_config_data/modconfiguration_workshop-1595631294	
[00:00:12]: Could not load mod_config_data/modconfiguration_workshop-347079953	
[00:00:12]: Could not load mod_config_data/modconfiguration_workshop-375859599	
[00:00:12]: Online Server Started on port: 10998
[00:00:12]: Collecting garbage...
[00:00:12]: lua_gc took 0.05 seconds
[00:00:12]: ~ShardLuaProxy()
[00:00:12]: ~cEventLeaderboardProxy()
[00:00:12]: ~ItemServerLuaProxy()
[00:00:12]: ~InventoryLuaProxy()
[00:00:12]: ~NetworkLuaProxy()
[00:00:12]: ~SimLuaProxy()
[00:00:12]: lua_close took 0.15 seconds
[00:00:12]: ReleaseAll
[00:00:12]: ReleaseAll Finished
[00:00:12]: cGame::StartPlaying
[00:00:12]: LOADING LUA
[00:00:12]: DoLuaFile scripts/main.lua
[00:00:12]: DoLuaFile loading buffer scripts/main.lua
[00:00:13]: Translator:LoadPOFile - loading file: scripts/languages/chinese_s.po	
[00:00:14]:   taskgrouplist:	default	联机版	
[00:00:14]:   taskgrouplist:	classic	经典	
[00:00:14]:   taskgrouplist:	cave_default	地下	
[00:00:14]:   taskgrouplist:	lavaarena_taskset	熔炉	
[00:00:14]:   taskgrouplist:	quagmire_taskset	暴食	
[00:00:14]: running main.lua
	
[00:00:14]: unloading prefabs for mod MOD_workshop-347079953	
[00:00:14]: unloading prefabs for mod MOD_workshop-375859599	
[00:00:14]: unloading prefabs for mod MOD_workshop-1898292532	
[00:00:14]: unloading prefabs for mod MOD_workshop-462434129	
[00:00:14]: unloading prefabs for mod MOD_workshop-378160973	
[00:00:14]: unloading prefabs for mod MOD_workshop-1595631294	
[00:00:14]: unloading prefabs for mod MOD_SMARTSIGNOTHER	
[00:00:14]: loaded modindex	
[00:00:14]: ModIndex: Beginning normal load sequence for dedicated server.
	
[00:00:14]: modoverrides.lua enabling workshop-1595631294	
[00:00:14]: modoverrides.lua enabling workshop-1898292532	
[00:00:14]: modoverrides.lua enabling workshop-378160973	
[00:00:14]: modoverrides.lua enabling workshop-347079953	
[00:00:14]: modoverrides.lua enabling workshop-462434129	
[00:00:14]: modoverrides.lua enabling workshop-375859599	
[00:00:14]: ModIndex:GetModsToLoad inserting moddir, 	workshop-1595631294	
[00:00:14]: ModIndex:GetModsToLoad inserting moddir, 	workshop-375859599	
[00:00:14]: ModIndex:GetModsToLoad inserting moddir, 	workshop-462434129	
[00:00:14]: ModIndex:GetModsToLoad inserting moddir, 	workshop-378160973	
[00:00:14]: ModIndex:GetModsToLoad inserting moddir, 	workshop-1898292532	
[00:00:14]: ModIndex:GetModsToLoad inserting moddir, 	workshop-347079953	
[00:00:14]: Could not load mod_config_data/modconfiguration_workshop-1595631294	
[00:00:14]: applying configuration_options from modoverrides.lua to mod workshop-1595631294	
[00:00:14]: Overriding mod workshop-1595631294's option SaltBox with value false	
[00:00:14]: Overriding mod workshop-1595631294's option BundleItems with value false	
[00:00:14]: Overriding mod workshop-1595631294's option Digornot with value false	
[00:00:14]: Overriding mod workshop-1595631294's option Icebox with value false	
[00:00:14]: Overriding mod workshop-1595631294's option DragonflyChest with value false	
[00:00:14]: applying configuration_options from modoverrides.lua to mod workshop-1898292532	
[00:00:14]: Overriding mod workshop-1898292532's option tips_method with value 1	
[00:00:14]: Overriding mod workshop-1898292532's option tick_rate with value 1	
[00:00:14]: applying configuration_options from modoverrides.lua to mod workshop-378160973	
[00:00:14]: Overriding mod workshop-378160973's option FIREOPTIONS with value 2	
[00:00:14]: Overriding mod workshop-378160973's option SHOWFIREICONS with value true	
[00:00:14]: Overriding mod workshop-378160973's option SHAREMINIMAPPROGRESS with value true	
[00:00:14]: Overriding mod workshop-378160973's option SHOWPLAYERICONS with value true	
[00:00:14]: Overriding mod workshop-378160973's option OVERRIDEMODE with value false	
[00:00:14]: Overriding mod workshop-378160973's option SHOWPLAYERSOPTIONS with value 2	
[00:00:14]: Overriding mod workshop-378160973's option ENABLEPINGS with value true	
[00:00:14]: applying configuration_options from modoverrides.lua to mod workshop-347079953	
[00:00:14]: Overriding mod workshop-347079953's option DFV_Language with value EN	
[00:00:14]: Overriding mod workshop-347079953's option DFV_MinimalMode with value default	
[00:00:14]: applying configuration_options from modoverrides.lua to mod workshop-462434129	
[00:00:14]: Overriding mod workshop-462434129's option MOD_RESTART_WELCOME_TIPS with value true	
[00:00:14]: Overriding mod workshop-462434129's option MOD_RESTART_ALLOW_RESTART with value true	
[00:00:14]: Overriding mod workshop-462434129's option MOD_RESTART_WELCOME_TIPS_TIME with value 6	
[00:00:14]: Overriding mod workshop-462434129's option MOD_RESTART_ALLOW_RESURRECT with value true	
[00:00:14]: Overriding mod workshop-462434129's option MOD_RESTART_IGNORING_ADMIN with value true	
[00:00:14]: Overriding mod workshop-462434129's option MOD_RESTART_TRIGGER_MODE with value 1	
[00:00:14]: Overriding mod workshop-462434129's option MOD_RESTART_RESURRECT_HEALTH with value 0	
[00:00:14]: Overriding mod workshop-462434129's option MOD_RESTART_MAP_SAVE with value 2	
[00:00:14]: Overriding mod workshop-462434129's option MOD_RESTART_CD_KILL with value 3	
[00:00:14]: Overriding mod workshop-462434129's option MOD_RESTART_CD_BONUS with value 0	
[00:00:14]: Overriding mod workshop-462434129's option MOD_RESTART_CD_MAX with value 0	
[00:00:14]: Overriding mod workshop-462434129's option MOD_RESTART_ALLOW_KILL with value true	
[00:00:14]: Overriding mod workshop-462434129's option MOD_RESTART_CD_RESURRECT with value 0	
[00:00:14]: Overriding mod workshop-462434129's option MOD_RESTART_FORCE_DROP_MODE with value 0	
[00:00:14]: Overriding mod workshop-462434129's option MOD_RESTART_CD_RESTART with value 5	
[00:00:14]: applying configuration_options from modoverrides.lua to mod workshop-375859599	
[00:00:14]: Overriding mod workshop-375859599's option random_range with value 0	
[00:00:14]: Overriding mod workshop-375859599's option divider with value 5	
[00:00:14]: Overriding mod workshop-375859599's option use_blacklist with value true	
[00:00:14]: Overriding mod workshop-375859599's option unknwon_prefabs with value 1	
[00:00:14]: Overriding mod workshop-375859599's option show_type with value 0	
[00:00:14]: Overriding mod workshop-375859599's option send_unknwon_prefabs with value false	
[00:00:14]: Overriding mod workshop-375859599's option random_health_value with value 0	
[00:00:14]: Loading mod: workshop-1595631294 (Smart Minisign) Version:1.1.3	
[00:00:14]: Could not load mod_config_data/modconfiguration_workshop-375859599	
[00:00:14]: applying configuration_options from modoverrides.lua to mod workshop-1595631294	
[00:00:14]: Overriding mod workshop-1595631294's option SaltBox with value false	
[00:00:14]: Overriding mod workshop-1595631294's option BundleItems with value false	
[00:00:14]: Overriding mod workshop-1595631294's option Digornot with value false	
[00:00:14]: Overriding mod workshop-1595631294's option Icebox with value false	
[00:00:14]: Overriding mod workshop-1595631294's option DragonflyChest with value false	
[00:00:14]: applying configuration_options from modoverrides.lua to mod workshop-1898292532	
[00:00:14]: Overriding mod workshop-1898292532's option tips_method with value 1	
[00:00:14]: Overriding mod workshop-1898292532's option tick_rate with value 1	
[00:00:14]: applying configuration_options from modoverrides.lua to mod workshop-378160973	
[00:00:14]: Overriding mod workshop-378160973's option FIREOPTIONS with value 2	
[00:00:14]: Overriding mod workshop-378160973's option SHOWFIREICONS with value true	
[00:00:14]: Overriding mod workshop-378160973's option SHAREMINIMAPPROGRESS with value true	
[00:00:14]: Overriding mod workshop-378160973's option SHOWPLAYERICONS with value true	
[00:00:14]: Overriding mod workshop-378160973's option OVERRIDEMODE with value false	
[00:00:14]: Overriding mod workshop-378160973's option SHOWPLAYERSOPTIONS with value 2	
[00:00:14]: Overriding mod workshop-378160973's option ENABLEPINGS with value true	
[00:00:14]: applying configuration_options from modoverrides.lua to mod workshop-347079953	
[00:00:14]: Overriding mod workshop-347079953's option DFV_Language with value EN	
[00:00:14]: Overriding mod workshop-347079953's option DFV_MinimalMode with value default	
[00:00:14]: applying configuration_options from modoverrides.lua to mod workshop-462434129	
[00:00:14]: Overriding mod workshop-462434129's option MOD_RESTART_WELCOME_TIPS with value true	
[00:00:14]: Overriding mod workshop-462434129's option MOD_RESTART_ALLOW_RESTART with value true	
[00:00:14]: Overriding mod workshop-462434129's option MOD_RESTART_WELCOME_TIPS_TIME with value 6	
[00:00:14]: Overriding mod workshop-462434129's option MOD_RESTART_ALLOW_RESURRECT with value true	
[00:00:14]: Overriding mod workshop-462434129's option MOD_RESTART_IGNORING_ADMIN with value true	
[00:00:14]: Overriding mod workshop-462434129's option MOD_RESTART_TRIGGER_MODE with value 1	
[00:00:14]: Overriding mod workshop-462434129's option MOD_RESTART_RESURRECT_HEALTH with value 0	
[00:00:14]: Overriding mod workshop-462434129's option MOD_RESTART_MAP_SAVE with value 2	
[00:00:14]: Overriding mod workshop-462434129's option MOD_RESTART_CD_KILL with value 3	
[00:00:14]: Overriding mod workshop-462434129's option MOD_RESTART_CD_BONUS with value 0	
[00:00:14]: Overriding mod workshop-462434129's option MOD_RESTART_CD_MAX with value 0	
[00:00:14]: Overriding mod workshop-462434129's option MOD_RESTART_ALLOW_KILL with value true	
[00:00:14]: Overriding mod workshop-462434129's option MOD_RESTART_CD_RESURRECT with value 0	
[00:00:14]: Overriding mod workshop-462434129's option MOD_RESTART_FORCE_DROP_MODE with value 0	
[00:00:14]: Overriding mod workshop-462434129's option MOD_RESTART_CD_RESTART with value 5	
[00:00:14]: applying configuration_options from modoverrides.lua to mod workshop-375859599	
[00:00:14]: Overriding mod workshop-375859599's option random_range with value 0	
[00:00:14]: Overriding mod workshop-375859599's option divider with value 5	
[00:00:14]: Overriding mod workshop-375859599's option use_blacklist with value true	
[00:00:14]: Overriding mod workshop-375859599's option unknwon_prefabs with value 1	
[00:00:14]: Overriding mod workshop-375859599's option show_type with value 0	
[00:00:14]: Overriding mod workshop-375859599's option send_unknwon_prefabs with value false	
[00:00:14]: Overriding mod workshop-375859599's option random_health_value with value 0	
[00:00:14]: Loading mod: workshop-375859599 (Health Info) Version:2.2.00	
[00:00:14]: Could not load mod_config_data/modconfiguration_workshop-462434129	
[00:00:14]: applying configuration_options from modoverrides.lua to mod workshop-1595631294	
[00:00:14]: Overriding mod workshop-1595631294's option SaltBox with value false	
[00:00:14]: Overriding mod workshop-1595631294's option BundleItems with value false	
[00:00:14]: Overriding mod workshop-1595631294's option Digornot with value false	
[00:00:14]: Overriding mod workshop-1595631294's option Icebox with value false	
[00:00:14]: Overriding mod workshop-1595631294's option DragonflyChest with value false	
[00:00:14]: applying configuration_options from modoverrides.lua to mod workshop-1898292532	
[00:00:14]: Overriding mod workshop-1898292532's option tips_method with value 1	
[00:00:14]: Overriding mod workshop-1898292532's option tick_rate with value 1	
[00:00:14]: applying configuration_options from modoverrides.lua to mod workshop-378160973	
[00:00:14]: Overriding mod workshop-378160973's option FIREOPTIONS with value 2	
[00:00:14]: Overriding mod workshop-378160973's option SHOWFIREICONS with value true	
[00:00:14]: Overriding mod workshop-378160973's option SHAREMINIMAPPROGRESS with value true	
[00:00:14]: Overriding mod workshop-378160973's option SHOWPLAYERICONS with value true	
[00:00:14]: Overriding mod workshop-378160973's option OVERRIDEMODE with value false	
[00:00:14]: Overriding mod workshop-378160973's option SHOWPLAYERSOPTIONS with value 2	
[00:00:14]: Overriding mod workshop-378160973's option ENABLEPINGS with value true	
[00:00:14]: applying configuration_options from modoverrides.lua to mod workshop-347079953	
[00:00:14]: Overriding mod workshop-347079953's option DFV_Language with value EN	
[00:00:14]: Overriding mod workshop-347079953's option DFV_MinimalMode with value default	
[00:00:14]: applying configuration_options from modoverrides.lua to mod workshop-462434129	
[00:00:14]: Overriding mod workshop-462434129's option MOD_RESTART_WELCOME_TIPS with value true	
[00:00:14]: Overriding mod workshop-462434129's option MOD_RESTART_ALLOW_RESTART with value true	
[00:00:14]: Overriding mod workshop-462434129's option MOD_RESTART_WELCOME_TIPS_TIME with value 6	
[00:00:14]: Overriding mod workshop-462434129's option MOD_RESTART_ALLOW_RESURRECT with value true	
[00:00:14]: Overriding mod workshop-462434129's option MOD_RESTART_IGNORING_ADMIN with value true	
[00:00:14]: Overriding mod workshop-462434129's option MOD_RESTART_TRIGGER_MODE with value 1	
[00:00:14]: Overriding mod workshop-462434129's option MOD_RESTART_RESURRECT_HEALTH with value 0	
[00:00:14]: Overriding mod workshop-462434129's option MOD_RESTART_MAP_SAVE with value 2	
[00:00:14]: Overriding mod workshop-462434129's option MOD_RESTART_CD_KILL with value 3	
[00:00:14]: Overriding mod workshop-462434129's option MOD_RESTART_CD_BONUS with value 0	
[00:00:14]: Overriding mod workshop-462434129's option MOD_RESTART_CD_MAX with value 0	
[00:00:14]: Overriding mod workshop-462434129's option MOD_RESTART_ALLOW_KILL with value true	
[00:00:14]: Overriding mod workshop-462434129's option MOD_RESTART_CD_RESURRECT with value 0	
[00:00:14]: Overriding mod workshop-462434129's option MOD_RESTART_FORCE_DROP_MODE with value 0	
[00:00:14]: Overriding mod workshop-462434129's option MOD_RESTART_CD_RESTART with value 5	
[00:00:14]: applying configuration_options from modoverrides.lua to mod workshop-375859599	
[00:00:14]: Overriding mod workshop-375859599's option random_range with value 0	
[00:00:14]: Overriding mod workshop-375859599's option divider with value 5	
[00:00:14]: Overriding mod workshop-375859599's option use_blacklist with value true	
[00:00:14]: Overriding mod workshop-375859599's option unknwon_prefabs with value 1	
[00:00:14]: Overriding mod workshop-375859599's option show_type with value 0	
[00:00:14]: Overriding mod workshop-375859599's option send_unknwon_prefabs with value false	
[00:00:14]: Overriding mod workshop-375859599's option random_health_value with value 0	
[00:00:14]: Loading mod: workshop-462434129 (Restart) Version:0.3.2	
[00:00:14]: Could not load mod_config_data/modconfiguration_workshop-378160973	
[00:00:14]: applying configuration_options from modoverrides.lua to mod workshop-1595631294	
[00:00:14]: Overriding mod workshop-1595631294's option SaltBox with value false	
[00:00:14]: Overriding mod workshop-1595631294's option BundleItems with value false	
[00:00:14]: Overriding mod workshop-1595631294's option Digornot with value false	
[00:00:14]: Overriding mod workshop-1595631294's option Icebox with value false	
[00:00:14]: Overriding mod workshop-1595631294's option DragonflyChest with value false	
[00:00:14]: applying configuration_options from modoverrides.lua to mod workshop-1898292532	
[00:00:14]: Overriding mod workshop-1898292532's option tips_method with value 1	
[00:00:14]: Overriding mod workshop-1898292532's option tick_rate with value 1	
[00:00:14]: applying configuration_options from modoverrides.lua to mod workshop-378160973	
[00:00:14]: Overriding mod workshop-378160973's option FIREOPTIONS with value 2	
[00:00:14]: Overriding mod workshop-378160973's option SHOWFIREICONS with value true	
[00:00:14]: Overriding mod workshop-378160973's option SHAREMINIMAPPROGRESS with value true	
[00:00:14]: Overriding mod workshop-378160973's option SHOWPLAYERICONS with value true	
[00:00:14]: Overriding mod workshop-378160973's option OVERRIDEMODE with value false	
[00:00:14]: Overriding mod workshop-378160973's option SHOWPLAYERSOPTIONS with value 2	
[00:00:14]: Overriding mod workshop-378160973's option ENABLEPINGS with value true	
[00:00:14]: applying configuration_options from modoverrides.lua to mod workshop-347079953	
[00:00:14]: Overriding mod workshop-347079953's option DFV_Language with value EN	
[00:00:14]: Overriding mod workshop-347079953's option DFV_MinimalMode with value default	
[00:00:14]: applying configuration_options from modoverrides.lua to mod workshop-462434129	
[00:00:14]: Overriding mod workshop-462434129's option MOD_RESTART_WELCOME_TIPS with value true	
[00:00:14]: Overriding mod workshop-462434129's option MOD_RESTART_ALLOW_RESTART with value true	
[00:00:14]: Overriding mod workshop-462434129's option MOD_RESTART_WELCOME_TIPS_TIME with value 6	
[00:00:14]: Overriding mod workshop-462434129's option MOD_RESTART_ALLOW_RESURRECT with value true	
[00:00:14]: Overriding mod workshop-462434129's option MOD_RESTART_IGNORING_ADMIN with value true	
[00:00:14]: Overriding mod workshop-462434129's option MOD_RESTART_TRIGGER_MODE with value 1	
[00:00:14]: Overriding mod workshop-462434129's option MOD_RESTART_RESURRECT_HEALTH with value 0	
[00:00:14]: Overriding mod workshop-462434129's option MOD_RESTART_MAP_SAVE with value 2	
[00:00:14]: Overriding mod workshop-462434129's option MOD_RESTART_CD_KILL with value 3	
[00:00:14]: Overriding mod workshop-462434129's option MOD_RESTART_CD_BONUS with value 0	
[00:00:14]: Overriding mod workshop-462434129's option MOD_RESTART_CD_MAX with value 0	
[00:00:14]: Overriding mod workshop-462434129's option MOD_RESTART_ALLOW_KILL with value true	
[00:00:14]: Overriding mod workshop-462434129's option MOD_RESTART_CD_RESURRECT with value 0	
[00:00:14]: Overriding mod workshop-462434129's option MOD_RESTART_FORCE_DROP_MODE with value 0	
[00:00:14]: Overriding mod workshop-462434129's option MOD_RESTART_CD_RESTART with value 5	
[00:00:14]: applying configuration_options from modoverrides.lua to mod workshop-375859599	
[00:00:14]: Overriding mod workshop-375859599's option random_range with value 0	
[00:00:14]: Overriding mod workshop-375859599's option divider with value 5	
[00:00:14]: Overriding mod workshop-375859599's option use_blacklist with value true	
[00:00:14]: Overriding mod workshop-375859599's option unknwon_prefabs with value 1	
[00:00:14]: Overriding mod workshop-375859599's option show_type with value 0	
[00:00:14]: Overriding mod workshop-375859599's option send_unknwon_prefabs with value false	
[00:00:14]: Overriding mod workshop-375859599's option random_health_value with value 0	
[00:00:14]: Loading mod: workshop-378160973 (Global Positions) Version:1.7.3	
[00:00:14]: Could not load mod_config_data/modconfiguration_workshop-1898292532	
[00:00:14]: applying configuration_options from modoverrides.lua to mod workshop-1595631294	
[00:00:14]: Overriding mod workshop-1595631294's option SaltBox with value false	
[00:00:14]: Overriding mod workshop-1595631294's option BundleItems with value false	
[00:00:14]: Overriding mod workshop-1595631294's option Digornot with value false	
[00:00:14]: Overriding mod workshop-1595631294's option Icebox with value false	
[00:00:14]: Overriding mod workshop-1595631294's option DragonflyChest with value false	
[00:00:14]: applying configuration_options from modoverrides.lua to mod workshop-1898292532	
[00:00:14]: Overriding mod workshop-1898292532's option tips_method with value 1	
[00:00:14]: Overriding mod workshop-1898292532's option tick_rate with value 1	
[00:00:14]: applying configuration_options from modoverrides.lua to mod workshop-378160973	
[00:00:14]: Overriding mod workshop-378160973's option FIREOPTIONS with value 2	
[00:00:14]: Overriding mod workshop-378160973's option SHOWFIREICONS with value true	
[00:00:14]: Overriding mod workshop-378160973's option SHAREMINIMAPPROGRESS with value true	
[00:00:14]: Overriding mod workshop-378160973's option SHOWPLAYERICONS with value true	
[00:00:14]: Overriding mod workshop-378160973's option OVERRIDEMODE with value false	
[00:00:14]: Overriding mod workshop-378160973's option SHOWPLAYERSOPTIONS with value 2	
[00:00:14]: Overriding mod workshop-378160973's option ENABLEPINGS with value true	
[00:00:14]: applying configuration_options from modoverrides.lua to mod workshop-347079953	
[00:00:14]: Overriding mod workshop-347079953's option DFV_Language with value EN	
[00:00:14]: Overriding mod workshop-347079953's option DFV_MinimalMode with value default	
[00:00:14]: applying configuration_options from modoverrides.lua to mod workshop-462434129	
[00:00:14]: Overriding mod workshop-462434129's option MOD_RESTART_WELCOME_TIPS with value true	
[00:00:14]: Overriding mod workshop-462434129's option MOD_RESTART_ALLOW_RESTART with value true	
[00:00:14]: Overriding mod workshop-462434129's option MOD_RESTART_WELCOME_TIPS_TIME with value 6	
[00:00:14]: Overriding mod workshop-462434129's option MOD_RESTART_ALLOW_RESURRECT with value true	
[00:00:14]: Overriding mod workshop-462434129's option MOD_RESTART_IGNORING_ADMIN with value true	
[00:00:14]: Overriding mod workshop-462434129's option MOD_RESTART_TRIGGER_MODE with value 1	
[00:00:14]: Overriding mod workshop-462434129's option MOD_RESTART_RESURRECT_HEALTH with value 0	
[00:00:14]: Overriding mod workshop-462434129's option MOD_RESTART_MAP_SAVE with value 2	
[00:00:14]: Overriding mod workshop-462434129's option MOD_RESTART_CD_KILL with value 3	
[00:00:14]: Overriding mod workshop-462434129's option MOD_RESTART_CD_BONUS with value 0	
[00:00:14]: Overriding mod workshop-462434129's option MOD_RESTART_CD_MAX with value 0	
[00:00:14]: Overriding mod workshop-462434129's option MOD_RESTART_ALLOW_KILL with value true	
[00:00:14]: Overriding mod workshop-462434129's option MOD_RESTART_CD_RESURRECT with value 0	
[00:00:14]: Overriding mod workshop-462434129's option MOD_RESTART_FORCE_DROP_MODE with value 0	
[00:00:14]: Overriding mod workshop-462434129's option MOD_RESTART_CD_RESTART with value 5	
[00:00:14]: applying configuration_options from modoverrides.lua to mod workshop-375859599	
[00:00:14]: Overriding mod workshop-375859599's option random_range with value 0	
[00:00:14]: Overriding mod workshop-375859599's option divider with value 5	
[00:00:14]: Overriding mod workshop-375859599's option use_blacklist with value true	
[00:00:14]: Overriding mod workshop-375859599's option unknwon_prefabs with value 1	
[00:00:14]: Overriding mod workshop-375859599's option show_type with value 0	
[00:00:14]: Overriding mod workshop-375859599's option send_unknwon_prefabs with value false	
[00:00:14]: Overriding mod workshop-375859599's option random_health_value with value 0	
[00:00:14]: Loading mod: workshop-1898292532 (Tips) Version:1.3.4	
[00:00:14]: Could not load mod_config_data/modconfiguration_workshop-347079953	
[00:00:14]: applying configuration_options from modoverrides.lua to mod workshop-1595631294	
[00:00:14]: Overriding mod workshop-1595631294's option SaltBox with value false	
[00:00:14]: Overriding mod workshop-1595631294's option BundleItems with value false	
[00:00:14]: Overriding mod workshop-1595631294's option Digornot with value false	
[00:00:14]: Overriding mod workshop-1595631294's option Icebox with value false	
[00:00:14]: Overriding mod workshop-1595631294's option DragonflyChest with value false	
[00:00:14]: applying configuration_options from modoverrides.lua to mod workshop-1898292532	
[00:00:14]: Overriding mod workshop-1898292532's option tips_method with value 1	
[00:00:14]: Overriding mod workshop-1898292532's option tick_rate with value 1	
[00:00:14]: applying configuration_options from modoverrides.lua to mod workshop-378160973	
[00:00:14]: Overriding mod workshop-378160973's option FIREOPTIONS with value 2	
[00:00:14]: Overriding mod workshop-378160973's option SHOWFIREICONS with value true	
[00:00:14]: Overriding mod workshop-378160973's option SHAREMINIMAPPROGRESS with value true	
[00:00:14]: Overriding mod workshop-378160973's option SHOWPLAYERICONS with value true	
[00:00:14]: Overriding mod workshop-378160973's option OVERRIDEMODE with value false	
[00:00:14]: Overriding mod workshop-378160973's option SHOWPLAYERSOPTIONS with value 2	
[00:00:14]: Overriding mod workshop-378160973's option ENABLEPINGS with value true	
[00:00:14]: applying configuration_options from modoverrides.lua to mod workshop-347079953	
[00:00:14]: Overriding mod workshop-347079953's option DFV_Language with value EN	
[00:00:14]: Overriding mod workshop-347079953's option DFV_MinimalMode with value default	
[00:00:14]: applying configuration_options from modoverrides.lua to mod workshop-462434129	
[00:00:14]: Overriding mod workshop-462434129's option MOD_RESTART_WELCOME_TIPS with value true	
[00:00:14]: Overriding mod workshop-462434129's option MOD_RESTART_ALLOW_RESTART with value true	
[00:00:14]: Overriding mod workshop-462434129's option MOD_RESTART_WELCOME_TIPS_TIME with value 6	
[00:00:14]: Overriding mod workshop-462434129's option MOD_RESTART_ALLOW_RESURRECT with value true	
[00:00:14]: Overriding mod workshop-462434129's option MOD_RESTART_IGNORING_ADMIN with value true	
[00:00:14]: Overriding mod workshop-462434129's option MOD_RESTART_TRIGGER_MODE with value 1	
[00:00:14]: Overriding mod workshop-462434129's option MOD_RESTART_RESURRECT_HEALTH with value 0	
[00:00:14]: Overriding mod workshop-462434129's option MOD_RESTART_MAP_SAVE with value 2	
[00:00:14]: Overriding mod workshop-462434129's option MOD_RESTART_CD_KILL with value 3	
[00:00:14]: Overriding mod workshop-462434129's option MOD_RESTART_CD_BONUS with value 0	
[00:00:14]: Overriding mod workshop-462434129's option MOD_RESTART_CD_MAX with value 0	
[00:00:14]: Overriding mod workshop-462434129's option MOD_RESTART_ALLOW_KILL with value true	
[00:00:14]: Overriding mod workshop-462434129's option MOD_RESTART_CD_RESURRECT with value 0	
[00:00:14]: Overriding mod workshop-462434129's option MOD_RESTART_FORCE_DROP_MODE with value 0	
[00:00:14]: Overriding mod workshop-462434129's option MOD_RESTART_CD_RESTART with value 5	
[00:00:14]: applying configuration_options from modoverrides.lua to mod workshop-375859599	
[00:00:14]: Overriding mod workshop-375859599's option random_range with value 0	
[00:00:14]: Overriding mod workshop-375859599's option divider with value 5	
[00:00:14]: Overriding mod workshop-375859599's option use_blacklist with value true	
[00:00:14]: Overriding mod workshop-375859599's option unknwon_prefabs with value 1	
[00:00:14]: Overriding mod workshop-375859599's option show_type with value 0	
[00:00:14]: Overriding mod workshop-375859599's option send_unknwon_prefabs with value false	
[00:00:14]: Overriding mod workshop-375859599's option random_health_value with value 0	
[00:00:14]: Loading mod: workshop-347079953 (Display food values) Version:1.61	
[00:00:14]: Mod: workshop-347079953 (Display food values)	Loading modworldgenmain.lua	
[00:00:14]: Mod: workshop-347079953 (Display food values)	  Mod had no modworldgenmain.lua. Skipping.	
[00:00:14]: Mod: workshop-347079953 (Display food values)	Loading modmain.lua	
[00:00:14]: Mod: workshop-375859599 (Health Info)	Loading modworldgenmain.lua	
[00:00:14]: Mod: workshop-375859599 (Health Info)	  Mod had no modworldgenmain.lua. Skipping.	
[00:00:14]: Mod: workshop-375859599 (Health Info)	Loading modmain.lua	
[00:00:15]: modimport: ../mods/workshop-375859599/black_white_lists.lua	
[00:00:15]: Mod: workshop-1898292532 (Tips)	Loading modworldgenmain.lua	
[00:00:15]: Mod: workshop-1898292532 (Tips)	  Mod had no modworldgenmain.lua. Skipping.	
[00:00:15]: Mod: workshop-1898292532 (Tips)	Loading modmain.lua	
[00:00:15]: modimport: ../mods/workshop-1898292532/server	
[00:00:15]: Mod: workshop-462434129 (Restart)	Loading modworldgenmain.lua	
[00:00:15]: Mod: workshop-462434129 (Restart)	  Mod had no modworldgenmain.lua. Skipping.	
[00:00:15]: Mod: workshop-462434129 (Restart)	Loading modmain.lua	
[00:00:15]: Mod: workshop-378160973 (Global Positions)	Loading modworldgenmain.lua	
[00:00:15]: Mod: workshop-378160973 (Global Positions)	  Mod had no modworldgenmain.lua. Skipping.	
[00:00:15]: Mod: workshop-378160973 (Global Positions)	Loading modmain.lua	
[00:00:15]: ModIndex:GetModsToLoad inserting moddir, 	workshop-1595631294	
[00:00:15]: ModIndex:GetModsToLoad inserting moddir, 	workshop-375859599	
[00:00:15]: ModIndex:GetModsToLoad inserting moddir, 	workshop-462434129	
[00:00:15]: ModIndex:GetModsToLoad inserting moddir, 	workshop-378160973	
[00:00:15]: ModIndex:GetModsToLoad inserting moddir, 	workshop-1898292532	
[00:00:15]: ModIndex:GetModsToLoad inserting moddir, 	workshop-347079953	
[00:00:15]: Mod: workshop-1595631294 (Smart Minisign)	Loading modworldgenmain.lua	
[00:00:15]: Mod: workshop-1595631294 (Smart Minisign)	  Mod had no modworldgenmain.lua. Skipping.	
[00:00:15]: Mod: workshop-1595631294 (Smart Minisign)	Loading modmain.lua	
[00:00:15]: Event data unavailable: lavaarena_event_server/lavaarena_achievement_quest_defs
[00:00:15]: LOADING LUA SUCCESS
[00:00:15]: Registering mod namespace "food item"
[00:00:15]: Registering mod namespace "workshop-378160973"
[00:00:15]: Registering mod namespace "tips"
[00:00:15]: PlayerDeaths could not load morgue	
[00:00:15]: PlayerHistory could not load player_history	
[00:00:15]: ServerPreferences could not load server_preferences	
[00:00:15]: bloom_enabled	false	
[00:00:15]: loaded saveindex	
[00:00:15]: OnFilesLoaded()	
[00:00:15]: OnUpdatePurchaseStateComplete	
[00:00:15]: Loading world: session/96FA71AF541ACC3B/0000000214	
[00:00:15]: Save file is at version 5.031	
[00:00:15]: Klump load on boot started.	
[00:00:15]: Klump files loaded: 	0	
[00:00:16]: 	Unload FE	
[00:00:16]: 	Unload FE done	
[00:00:17]: Mod: workshop-347079953 (Display food values)	Registering prefabs	
[00:00:17]: Mod: workshop-347079953 (Display food values)	  Registering default mod prefab	
[00:00:17]: Mod: workshop-375859599 (Health Info)	Registering prefabs	
[00:00:17]: Mod: workshop-375859599 (Health Info)	  Registering default mod prefab	
[00:00:17]: Mod: workshop-1898292532 (Tips)	Registering prefabs	
[00:00:17]: Mod: workshop-1898292532 (Tips)	  Registering default mod prefab	
[00:00:17]: Mod: workshop-462434129 (Restart)	Registering prefabs	
[00:00:17]: Mod: workshop-462434129 (Restart)	  Registering default mod prefab	
[00:00:17]: Mod: workshop-378160973 (Global Positions)	Registering prefabs	
[00:00:17]: Mod: workshop-378160973 (Global Positions)	  Registering prefab file: prefabs/globalposition_classified	
[00:00:17]: Mod: workshop-378160973 (Global Positions)	    globalposition_classified	
[00:00:17]: Mod: workshop-378160973 (Global Positions)	  Registering prefab file: prefabs/smoketrail	
[00:00:17]: Mod: workshop-378160973 (Global Positions)	    smoketrail	
[00:00:17]: Mod: workshop-378160973 (Global Positions)	  Registering prefab file: prefabs/globalmapicon_noproxy	
[00:00:17]: Mod: workshop-378160973 (Global Positions)	    globalmapicon_noproxy	
[00:00:17]: Mod: workshop-378160973 (Global Positions)	  Registering prefab file: prefabs/worldmapexplorer	
[00:00:17]: Mod: workshop-378160973 (Global Positions)	    worldmapexplorer	
[00:00:17]: Mod: workshop-378160973 (Global Positions)	  Registering prefab file: prefabs/pings	
[00:00:17]: Mod: workshop-378160973 (Global Positions)	    ping_generic	
[00:00:17]: Mod: workshop-378160973 (Global Positions)	    ping_omw	
[00:00:17]: Mod: workshop-378160973 (Global Positions)	    ping_danger	
[00:00:17]: Mod: workshop-378160973 (Global Positions)	    ping_explore	
[00:00:17]: Mod: workshop-378160973 (Global Positions)	    ping_gohere	
[00:00:17]: Mod: workshop-378160973 (Global Positions)	  Registering default mod prefab	
[00:00:17]: Mod: workshop-1595631294 (Smart Minisign)	Registering prefabs	
[00:00:17]: Mod: workshop-1595631294 (Smart Minisign)	  Registering prefab file: prefabs/huaminisign	
[00:00:17]: Mod: workshop-1595631294 (Smart Minisign)	    huaminisign	
[00:00:17]: Mod: workshop-1595631294 (Smart Minisign)	  Registering default mod prefab	
[00:00:17]: 	LOAD BE	
[00:00:20]: Could not preload undefined prefab (yotc_shrinecarrat)
[00:00:21]: 	LOAD BE: done	
[00:00:21]: Begin Session: 96FA71AF541ACC3B
[00:00:21]: saving to server_temp/server_save	
[00:00:21]: MiniMapComponent::AddAtlas( minimap/minimap_data.xml )
[00:00:21]: MiniMapComponent::AddAtlas( ../mods/workshop-378160973/minimap/campfire.xml )
[00:00:21]: MiniMapComponent::AddAtlas( ../mods/workshop-378160973/minimap/ping_generic.xml )
[00:00:21]: MiniMapComponent::AddAtlas( ../mods/workshop-378160973/minimap/ping_gohere.xml )
[00:00:21]: MiniMapComponent::AddAtlas( ../mods/workshop-378160973/minimap/ping_explore.xml )
[00:00:21]: MiniMapComponent::AddAtlas( ../mods/workshop-378160973/minimap/ping_danger.xml )
[00:00:21]: MiniMapComponent::AddAtlas( ../mods/workshop-378160973/minimap/ping_omw.xml )
[00:00:21]: Loading 16 new character(s)	
[00:00:22]: Total 16 character(s) loaded	
[00:00:27]: Loading Nav Grid	
[00:00:27]: World generated on version 393281, using seed: 1581038989	
[00:00:27]: setting 	summerlength	15	
[00:00:27]: setting 	isnightmaredawn	false	
[00:00:27]: setting 	elapseddaysinseason	6	
[00:00:27]: setting 	isfullmoon	false	
[00:00:27]: setting 	moisture	1644.6221923828	
[00:00:27]: setting 	springlength	20	
[00:00:27]: setting 	isnightmarewild	false	
[00:00:27]: setting 	moonphase	new	
[00:00:27]: setting 	precipitationrate	0	
[00:00:27]: setting 	iswet	true	
[00:00:27]: setting 	isnewmoon	false	
[00:00:27]: setting 	iswinter	false	
[00:00:27]: setting 	israining	false	
[00:00:27]: setting 	isnightmarewarn	true	
[00:00:27]: setting 	precipitation	none	
[00:00:27]: setting 	cavephase	night	
[00:00:27]: setting 	moistureceil	4527.876953125	
[00:00:27]: setting 	isday	false	
[00:00:27]: setting 	iscaveday	false	
[00:00:27]: setting 	season	spring	
[00:00:27]: setting 	timeinphase	0.12854792277018	
[00:00:27]: setting 	temperature	9.2728441649799	
[00:00:27]: setting 	isnightmarecalm	false	
[00:00:27]: setting 	isnight	true	
[00:00:27]: setting 	isdusk	false	
[00:00:27]: setting 	iscavedusk	false	
[00:00:27]: setting 	isautumn	false	
[00:00:27]: setting 	issnowing	false	
[00:00:27]: setting 	iswaxingmoon	true	
[00:00:27]: setting 	pop	0.30416138534429	
[00:00:27]: setting 	snowlevel	0	
[00:00:27]: setting 	issnowcovered	false	
[00:00:27]: setting 	autumnlength	20	
[00:00:27]: setting 	phase	night	
[00:00:27]: setting 	nightmaretime	379.14865708291	
[00:00:27]: setting 	winterlength	15	
[00:00:27]: setting 	isspring	true	
[00:00:27]: setting 	nightmarephase	warn	
[00:00:27]: setting 	remainingdaysinseason	14	
[00:00:27]: setting 	cycles	181	
[00:00:27]: setting 	iscavenight	true	
[00:00:27]: setting 	nightmaretimeinphase	0.21276285647676	
[00:00:27]: setting 	wetness	39.810104370117	
[00:00:27]: setting 	time	0.83660273551941	
[00:00:27]: setting 	issummer	false	
[00:00:27]: [Shard] Slave is waiting for LUA...
[00:00:39]: Reconstructing topology	
[00:00:39]: 	...Sorting points	
[00:00:39]: 	...Sorting edges	
[00:00:39]: 	...Connecting nodes	
[00:00:39]: 	...Validating connections	
[00:00:39]: 	...Housekeeping	
[00:00:39]: 	...Done!	
[00:00:39]: 1 uploads added to server. From server_temp
[00:00:39]: About to start a shard with these settings:
[00:00:39]:   ShardName: Caves
[00:00:39]:   ShardID: 1396469145
[00:00:39]:   ShardRole: SLAVE
[00:00:39]:   MasterHost: 127.0.0.1
[00:00:39]:   MasterBind: (null)
[00:00:39]:   MasterPort: 10888
[00:00:39]: [Shard] Connecting to master...
[00:00:39]: Telling Client our new session identifier: 96FA71AF541ACC3B
[00:00:39]: Check for write access: TRUE
[00:00:39]: Check for read access: TRUE
[00:00:39]: ModIndex: Load sequence finished successfully.	
[00:00:40]: Reset() returning
[00:00:40]: [Steam] SteamGameServer_Init(8767, 10998, 27017)
[00:00:40]: [Steam] SteamGameServer_Init success
[00:00:40]: [Shard] Connection to master failed. Waiting to reconnect...
[00:00:40]: Validating portal[7] <-> 1[7] (inactive)	
[00:00:40]: Validating portal[3] <-> 1[3] (inactive)	
[00:00:40]: Validating portal[6] <-> 1[6] (inactive)	
[00:00:40]: Validating portal[8] <-> 1[8] (inactive)	
[00:00:40]: Validating portal[4] <-> 1[4] (inactive)	
[00:00:41]: Validating portal[1] <-> 1[1] (inactive)	
[00:00:41]: Validating portal[5] <-> 1[5] (inactive)	
[00:00:41]: Validating portal[2] <-> 1[2] (inactive)	
[00:00:41]: Validating portal[9] <-> 1[9] (inactive)	
[00:00:41]: Validating portal[10] <-> 1[10] (inactive)	
[00:00:45]: About to start a shard with these settings:
[00:00:45]:   ShardName: Caves
[00:00:45]:   ShardID: 1396469145
[00:00:45]:   ShardRole: SLAVE
[00:00:45]:   MasterHost: 127.0.0.1
[00:00:45]:   MasterBind: (null)
[00:00:45]:   MasterPort: 10888
[00:00:45]: [Shard] Connecting to master...
[00:00:45]: [Shard] Sending slave information to master...
[00:00:57]: Overriding region to Sing
[00:00:57]: Registering slave in Sing lobby
[00:00:58]: [Shard] Slave is now ready!
[00:00:58]: World 1 is now connected	
[00:00:58]: Validating portal[7] <-> 1[7] (active)	
[00:00:58]: Validating portal[3] <-> 1[3] (active)	
[00:00:58]: Validating portal[6] <-> 1[6] (active)	
[00:00:58]: Validating portal[8] <-> 1[8] (active)	
[00:00:58]: Validating portal[4] <-> 1[4] (active)	
[00:00:58]: Validating portal[1] <-> 1[1] (active)	
[00:00:58]: Validating portal[5] <-> 1[5] (active)	
[00:00:58]: Validating portal[2] <-> 1[2] (active)	
[00:00:58]: Validating portal[9] <-> 1[9] (active)	
[00:00:58]: Validating portal[10] <-> 1[10] (active)	
[00:00:59]: [Shard] Slave LUA is now ready!
[00:00:59]: Sim paused
[00:02:30]: Sim unpaused
[00:03:51]: Serializing world: session/96FA71AF541ACC3B/0000000215
[00:03:51]: Truncating to snapshot #215...
[00:03:51]:  - session/96FA71AF541ACC3B/0000000209
[00:03:51]:    1 file(s) removed
[00:05:04]: Registering slave in Sing lobby
[00:05:22]: Registering slave in Sing lobby
[00:05:51]: Sim paused
[00:05:55]: Serializing world: session/96FA71AF541ACC3B/0000000216
[00:05:55]: Truncating to snapshot #216...
[00:05:55]:  - session/96FA71AF541ACC3B/0000000210
[00:05:55]:    1 file(s) removed
[00:05:55]: [Shard] Stopping shard mode
[00:05:55]: Collecting garbage...
[00:05:56]: lua_gc took 0.31 seconds
[00:05:56]: ~ShardLuaProxy()
[00:05:56]: ~cEventLeaderboardProxy()
[00:05:56]: ~ItemServerLuaProxy()
[00:05:56]: ~InventoryLuaProxy()
[00:05:56]: ~NetworkLuaProxy()
[00:05:56]: ~SimLuaProxy()
[00:05:56]: lua_close took 0.77 seconds
[00:05:57]: Orphaned unnamed resource. This resource must have used Add( resource ) to insert itself into the manager. 
[00:05:57]: CurlRequestManager::ClientThread::Main() complete
[00:05:57]: HttpClient2 discarded 0 callbacks.
[00:05:57]: Shutting down
